﻿@neg1_min = 0.4
@neg1_max = 0.5

@neg2_min = 0.3
@neg2_max = 0.4

@neg3_min = 0.1
@neg3_max = 0.3

@pos1_min = 0.5
@pos1_max = 0.6

@pos2_min = 0.6
@pos2_max = 0.7

@pos3_min = 0.7
@pos3_max = 0.9

@beauty1min = 0.35
@beauty1max = 0.65

@beauty2min = 0.4
@beauty2max = 0.6

@beauty3min = 0.45
@beauty3max = 0.55

@blend1min = 0.0
@blend1max = 0.2

@blend2min = 0.2
@blend2max = 0.5

@blend3min = 0.5
@blend3max = 0.8

ruinborn_boek = {
	template = "moon_elf"

	
	skin_color = {
		10 = { 0.0 0.3 0.5 0.47 }
	}
	eye_color = {
		# Brown
		50 = { 0.05 0.7 0.35 1.0 }
		# Black
		50 = { 0.05 0.95 0.35 1.0 }
	}
	hair_color = {
		
		# Black
		95 = { 0.01 0.9 0.5 0.99 }
	}

	hairstyles = {
		10 = { name = native_american_hairstyles 		range = { 0.0 1.0 } }
		20 = { name = no_hairstyles 		range = { 0.0 1.0 } }
	}

	beards = {
		10 = { name = no_beard 		range = { 0.0 1.0 } }
	}

	mustaches = {
		10 = { name = no_mustache 		range = { 0.0 1.0 } }
	}

    #Anbennar - nosferatu bat noses from PoD
    POD_NOSschnoz = {
        10 = { name = schnozies            range = { 0.5 0.7 } }
    }

}

half_ruinborn_boek = {
	template = "half_moon_elf"

	
	skin_color = {
		10 = { 0.0 0.3 0.5 0.47 }
		10 = { 0.0 0.05 0.15 0.1 }  #human caucasian skin tone
	}
	eye_color = {
		# Brown
		50 = { 0.05 0.7 0.35 1.0 }
		# Black
		45 = { 0.05 0.95 0.35 1.0 }
        # Blue
        5 = { 0.7 0.2 1.0 0.5 }	
	}
	hair_color = {
		
		# Black
		50 = { 0.01 0.9 0.5 0.99 }
		# Brown
		25 = { 0.65 0.5 0.9 0.8 }
		# Red
		10 = { 0.85 0.0 0.99 0.5 }
		# Blonde
		10 = { 0.4 0.25 0.75 0.5 }
	}

	hairstyles = {
		10 = { name = native_american_hairstyles 		range = { 0.0 1.0 } }
		10 = { name = european_hairstyles 		range = { 0.0 1.0 } }
		20 = { name = no_hairstyles 		range = { 0.0 1.0 } }
	}

	beards = {
		10 = { name = no_beard 		range = { 0.0 1.0 } }
		1 = { name = european_beards                      range = { 0.0 1.0 } }
	}

	mustaches = {
		10 = { name = no_mustache 		range = { 0.0 1.0 } }
		1 = { name = european_mustaches 		range = { 0.0 1.0 } }
	}

    #Anbennar - nosferatu bat noses from PoD
    POD_NOSschnoz = {
        10 = { name = schnozies            range = { 0.25 0.6 } }
    }

}

	