﻿BUILDINGS={
	s:STATE_STEEL_BAY = {
		region_state:B05 = {
			create_building={
				building="building_government_administration"
				add_ownership={
					country={
						country="c:B05"
						levels=2
					}
				}
				reserves=1
				activate_production_methods={ "pm_horizontal_drawer_cabinets" "pm_secular_bureaucrats" }
			}
			create_building={
				building="building_tooling_workshops"
				add_ownership={
					building={
						type="building_financial_district"
						country="c:B05"
						levels=1
						region="STATE_STEEL_BAY"
					}
				}
				reserves=1
				activate_production_methods={ "pm_steel" "pm_automation_disabled" }
			}
			create_building={
				building="building_steel_mills"
				add_ownership={
					building={
						type="building_financial_district"
						country="c:B05"
						levels=1
						region="STATE_STEEL_BAY"
					}
				}
				reserves=1
				activate_production_methods={ "pm_blister_steel_process" "pm_automation_disabled" }
			}
			create_building={
				building="building_arms_industry"
				add_ownership={
					building={
						type="building_arms_industry"
						country="c:B05"
						levels=2
						region="STATE_STEEL_BAY"
					}
				}
				reserves=1
				activate_production_methods={ "pm_muskets" }
			}
			create_building={
				building="building_artillery_foundries"
				add_ownership={
					building={
                        type="building_financial_district"
						country="c:B05"
						levels=1
                        region="STATE_STEEL_BAY"
					}
				}
				reserves=1
				activate_production_methods={ "pm_cannons" "pm_automation_disabled" }
			}
			create_building={
				building="building_military_shipyards"
				add_ownership={
					country={
						country="c:B05"
						levels=1
					}
				}
				reserves=1
				activate_production_methods={ "pm_military_shipbuilding_wooden"  }
			}
			create_building={
				building="building_university"
				add_ownership={
					country={
						country="c:B05"
						levels=1
					}
				}
				reserves=1
				activate_production_methods={ "pm_scholastic_education"  "pm_secular_academia" }
			}
			
			create_building={
				building="building_port"
				add_ownership={
					country={
						country="c:B05"
						levels=1
					}
				}
				reserves=1
				activate_production_methods={ "pm_basic_port" }
			}
			create_building={
				building="building_rice_farm"
				add_ownership={
					building={
						type="building_manor_house"
						country="c:B05"
						levels=2
						region="STATE_STEEL_BAY"
					}
				}
				reserves=1
				activate_production_methods={ "pm_simple_farming_building_rice_farm" "pm_tools_building_rice_farm" "pm_fig_orchards_building_rice_farm" }
			}
			create_building={
				building="building_livestock_ranch"
				add_ownership={
					building={
						type="building_manor_house"
						country="c:B05"
						levels=1
						region="STATE_STEEL_BAY"
					}
				}
				reserves=1
				activate_production_methods={ "pm_simple_ranch" "pm_standard_fences" "pm_unrefrigerated" "pm_slaughterhouses" }
			}
			create_building={
				building="building_coffee_plantation"
				add_ownership={
					building={
						type="building_manor_house"
						country="c:B05"
						levels=1
						region="STATE_STEEL_BAY"
					}
				}
				reserves=1
				activate_production_methods={ "default_building_coffee_plantation" "pm_no_enhancements" "pm_road_carts"  }
			}
			create_building={
				building="building_coal_mine"
				add_ownership={
					building={
						type="building_financial_district"
						country="c:B05"
						levels=2
						region="STATE_STEEL_BAY"
					}
				}
				reserves=1
				activate_production_methods={ "pm_atmospheric_engine_pump_building_coal_mine" "pm_no_explosives" "pm_no_steam_automation" "pm_road_carts" }
			}
			create_building={
				building="building_iron_mine"
				add_ownership={
					building={
						type="building_financial_district"
						country="c:B05"
						levels=2
						region="STATE_STEEL_BAY"
					}
				}
				reserves=1
				activate_production_methods={ "pm_atmospheric_engine_pump_building_iron_mine" "pm_no_explosives" "pm_no_steam_automation" "pm_road_carts" }
			}
		}
	}

	s:STATE_GREENHILL = {
		region_state:B05 = {
			create_building={
				building="building_government_administration"
				add_ownership={
					country={
						country="c:B05"
						levels=1
					}
				}
				reserves=1
				activate_production_methods={ "pm_horizontal_drawer_cabinets" "pm_secular_bureaucrats" }
			}
            create_building={
				building="building_paper_mills"
				add_ownership={
					building={
						type="building_financial_district"
						country="c:B05"
						levels=1
						region="STATE_GREENHILL"
					}
				}
				reserves=1
				activate_production_methods = { "pm_pulp_pressing" "pm_automation_disabled" }
			}
			create_building={
				building="building_rice_farm"
				add_ownership={
					building={
						type="building_manor_house"
						country="c:B05"
						levels=1
						region="STATE_GREENHILL"
					}
				}
				reserves=1
				activate_production_methods={ "pm_simple_farming_building_rice_farm" "pm_tools_building_rice_farm" "pm_fig_orchards_building_rice_farm" }
			}
			create_building={
				building="building_logging_camp"
				add_ownership={
					building={
						type="building_financial_district"
						country="c:B05"
						levels=2
						region="STATE_GREENHILL"
					}
				}
				reserves=1
				activate_production_methods={ "pm_saw_mills" "pm_no_equipment" "pm_road_carts" "pm_increased_hardwood" }
			}
			create_building={
				building="building_livestock_ranch"
				add_ownership={
					building={
						type="building_manor_house"
						country="c:B05"
						levels=1
						region="STATE_GREENHILL"
					}
				}
				reserves=1
				activate_production_methods={ "pm_simple_ranch" "pm_standard_fences" "pm_unrefrigerated" "pm_slaughterhouses" }
			}
			create_building={
				building="building_iron_mine"
				add_ownership={
					building={
						type="building_financial_district"
						country="c:B05"
						levels=1
						region="STATE_GREENHILL"
					}
				}
				reserves=1
				activate_production_methods={ "pm_atmospheric_engine_pump_building_iron_mine" "pm_no_explosives" "pm_no_steam_automation" "pm_road_carts" }
			}
			
		}
	}

	s:STATE_RYAIL = {
		region_state:B05 = {
			create_building={
				building="building_tobacco_plantation"
				add_ownership={
					building={
						type="building_tobacco_plantation"
						country="c:B05"
						levels=1
						region="STATE_RYAIL"
					}
				}
				reserves=1
				activate_production_methods={ "default_building_tobacco_plantation" "pm_no_enhancements" "pm_road_carts"  }
			}
			create_building={
				building="building_rice_farm"
				add_ownership={
					building={
						type="building_rice_farm"
						country="c:B05"
						levels=1
						region="STATE_RYAIL"
					}
				}
				reserves=1
				activate_production_methods={ "pm_simple_farming_building_rice_farm" "pm_tools_disabled" "pm_fig_orchards_building_rice_farm" }
			}
			create_building={
				building="building_port"
				add_ownership={
					country={
						country="c:B05"
						levels=1
					}
				}
				reserves=1
				activate_production_methods={ "pm_basic_port" }
			}
		}
	}

	s:STATE_SCATTERED_ISLANDS = {
		region_state:B05 = {
			create_building={
				building="building_banana_plantation"
				add_ownership={
					building={
						type="building_banana_plantation"
						country="c:B05"
						levels=1
						region="STATE_SCATTERED_ISLANDS"
					}
				}
				reserves=1
				activate_production_methods={ "default_building_banana_plantation" "pm_no_enhancements" "pm_road_carts"  }
			}
			create_building={
				building="building_port"
				add_ownership={
					country={
						country="c:B05"
						levels=1
					}
				}
				reserves=1
				activate_production_methods={ "pm_anchorage" }
			}
		}
	}

	s:STATE_BRISTAILEAN = {
		region_state:A09 = {
			create_building={
				building="building_port"
				add_ownership={
					country={
						country="c:A09"
						levels=1
					}
				}
				reserves=1
				activate_production_methods={ "pm_anchorage" }
			}
		}
		region_state:B03 = {
			create_building={
				building="building_port"
				add_ownership={
					country={
						country="c:B03"
						levels=1
					}
				}
				reserves=1
				activate_production_methods={ "pm_anchorage" }
			}
		}
		region_state:B05 = {
			create_building={
				building="building_port"
				add_ownership={
					country={
						country="c:B05"
						levels=1
					}
				}
				reserves=1
				activate_production_methods={ "pm_anchorage" }
			}
		}
	}

	s:STATE_GUARDIAN_ISLANDS = {
		region_state:B07 = {
			create_building={
				building="building_port"
				add_ownership={
					country={
						country="c:B07"
						levels=1
					}
				}
				reserves=1
				activate_production_methods={ "pm_anchorage" }
			}
            create_building={
				building="building_rice_farm"
				add_ownership={
					building={
						type="building_rice_farm"
						country="c:B07"
						levels=1
						region="STATE_GUARDIAN_ISLANDS"
					}
				}
				reserves=1
				activate_production_methods={ "pm_simple_farming_building_rice_farm" "pm_no_secondary" "pm_tools_disabled" }
		    }
            create_building={
                building="building_coffee_plantation"
                add_ownership={
					building={
						type="building_manor_house"
						country="c:B07"
						levels=1
						region="STATE_GUARDIAN_ISLANDS"
					}
				}
                reserves=1
                activate_production_methods={ "default_building_coffee_plantation" "pm_no_enhancements" "pm_road_carts"  }
            }
            create_building={
                building="building_fishing_wharf"
                add_ownership={
					building={
						type="building_fishing_wharf"
						country="c:B07"
						levels=1
						region="STATE_GUARDIAN_ISLANDS"
					}
				}
                reserves=1
                activate_production_methods={ "pm_fishing_trawlers" "pm_unrefrigerated" }
            }
        }
		region_state:B08 = {
			create_building={
				building="building_port"
				add_ownership={
					country={
						country="c:B08"
						levels=1
					}
				}
				reserves=1
				activate_production_methods={ "pm_anchorage" }
			}
            create_building={
                building="building_textile_mills"
                add_ownership={
                    building={
						type="building_textile_mills"
						country="c:B08"
						levels=1
						region="STATE_GUARDIAN_ISLANDS"
					}
                }
                reserves=1
                activate_production_methods={ "pm_handsewn_clothes" "pm_traditional_looms" "pm_no_luxury_clothes" }
            }
            create_building={
                building="building_coffee_plantation"
                add_ownership={
					building={
						type="building_manor_house"
						country="c:B08"
						levels=1
						region="STATE_GUARDIAN_ISLANDS"
					}
				}
                reserves=1
                activate_production_methods={ "default_building_coffee_plantation" "pm_no_enhancements" "pm_road_carts"  }
            }
            create_building={
                building="building_banana_plantation"
                add_ownership={
					building={
						type="building_manor_house"
						country="c:B08"
						levels=2
						region="STATE_GUARDIAN_ISLANDS"
					}
				}
                reserves=1
                activate_production_methods={ "default_building_banana_plantation" "pm_no_enhancements" "pm_road_carts"  }
            }
            create_building={
                building="building_fishing_wharf"
                add_ownership={
					building={
						type="building_fishing_wharf"
						country="c:B08"
						levels=1
						region="STATE_GUARDIAN_ISLANDS"
					}
				}
                reserves=1
                activate_production_methods={ "pm_fishing_trawlers" "pm_unrefrigerated" }
            }
            create_building={
                building="building_damestear_mine"
                add_ownership={
                    building={
                        type="building_damestear_mine"
                        country="c:B08"
                        levels=1
                        region="STATE_GUARDIAN_ISLANDS"
                    }
                }
                reserves=1
                activate_production_methods={ "pm_picks_and_shovels_building_damestear_mine" "pm_no_explosives" "pm_no_steam_automation" "pm_road_carts" }
            }
		}
	}

	s:STATE_OZTENCOST = {
		region_state:B03 = { #CLSTC
			create_building={
				building="building_port"
				add_ownership={
					country={
						country="c:B03"
						levels=1
					}
				}
				reserves=1
				activate_production_methods={ "pm_anchorage" }
			}
            create_building={
                building="building_maize_farm"
                    add_ownership={
                        building={
                            type="building_manor_house"
                            country="c:B03"
                            levels=2
                            region="STATE_OZTENCOST"
                        }
                    }
				reserves=1
				activate_production_methods={ "pm_simple_farming" "pm_no_secondary" "pm_tools_disabled" }
            }
            create_building={
				building="building_dye_plantation"
				add_ownership={
					building={
						type="building_manor_house"
						country="c:B03"
						levels=1
						region="STATE_OZTENCOST"
					}
				}
				reserves=1
				activate_production_methods={ "default_building_dye_plantation" "pm_no_enhancements" "pm_road_carts"  }
			}
            create_building={
                building="building_banana_plantation"
                add_ownership={
					building={
						type="building_manor_house"
						country="c:B03"
						levels=1
						region="STATE_OZTENCOST"
					}
				}
                reserves=1
                activate_production_methods={ "default_building_banana_plantation" "pm_no_enhancements" "pm_road_carts"  }
            }
            create_building={
				building="building_coffee_plantation"
				add_ownership={
					building={
						type="building_manor_house"
						country="c:B03"
						levels=1
						region="STATE_OZTENCOST"
					}
                    building={
						type="building_manor_house"
						country="c:B03"
						levels=1
						region="STATE_ISLES_OF_PLENTY"
					}
				}
				reserves=1
				activate_production_methods={ "default_building_coffee_plantation" "pm_no_enhancements" "pm_road_carts"  }
			}
		}
		region_state:B04 = { #DTC
			create_building={
				building="building_port"
				add_ownership={
					country={
						country="c:B04"
						levels=1
					}
				}
				reserves=1
				activate_production_methods={ "pm_anchorage" }
			}
            create_building={
                building="building_maize_farm"
                    add_ownership={
                        building={
                            type="building_manor_house"
                            country="c:B04"
                            levels=1
                            region="STATE_OZTENCOST"
                        }
                    }
				reserves=1
				activate_production_methods={ "pm_simple_farming" "pm_no_secondary" "pm_tools_disabled" }
            }
            create_building={
                building="building_banana_plantation"
                add_ownership={
					building={
						type="building_manor_house"
						country="c:B04"
						levels=1
						region="STATE_OZTENCOST"
					}
				}
                reserves=1
                activate_production_methods={ "default_building_banana_plantation" "pm_no_enhancements" "pm_road_carts"  }
            }
            create_building={
				building="building_coffee_plantation"
				add_ownership={
					building={
						type="building_manor_house"
						country="c:B04"
						levels=1
						region="STATE_SILSENSALD_ISLES"
					}
				}
				reserves=1
				activate_production_methods={ "default_building_coffee_plantation" "pm_no_enhancements" "pm_road_carts"  }
			}
            create_building={
				building="building_sugar_plantation"
				add_ownership={
					building={
						type="building_manor_house"
						country="c:B04"
						levels=3
						region="STATE_OZTENCOST"
					}
					building={
						type="building_manor_house"
						country="c:B04"
						levels=3
						region="STATE_SILSENSALD_ISLES"
					}
				}
				reserves=1
				activate_production_methods={ "default_building_sugar_plantation" "pm_no_enhancements" "pm_road_carts"  }
			}
		}
		region_state:B05 = { #VG
			create_building={
				building="building_port"
				add_ownership={
					country={
						country="c:B05"
						levels=1
					}
				}
				reserves=1
				activate_production_methods={ "pm_anchorage" }
			}
            create_building={
                building="building_banana_plantation"
                add_ownership={
					building={
						type="building_manor_house"
						country="c:B05"
						levels=1
						region="STATE_OZTENCOST"
					}
				}
                reserves=1
                activate_production_methods={ "default_building_banana_plantation" "pm_no_enhancements" "pm_road_carts"  }
            }
            create_building={
				building="building_coffee_plantation"
				add_ownership={
					building={
						type="building_manor_house"
						country="c:B05"
						levels=1
						region="STATE_OZTENCOST"
					}
                    building={
						type="building_manor_house"
						country="c:B05"
						levels=1
						region="STATE_STEEL_BAY"
					}
				}
				reserves=1
				activate_production_methods={ "default_building_coffee_plantation" "pm_no_enhancements" "pm_road_carts"  }
			}
            create_building={
                building="building_fishing_wharf"
                add_ownership={
					building={
						type="building_fishing_wharf"
						country="c:B05"
						levels=1
						region="STATE_OZTENCOST"
					}
				}
                reserves=1
                activate_production_methods={ "pm_fishing_trawlers" "pm_unrefrigerated" }
            }
            create_building={
				building="building_logging_camp"
				add_ownership={
					building={
						type="building_logging_camp"
						country="c:B05"
						levels=1
						region="STATE_OZTENCOST"
					}
				}
				reserves=1
				activate_production_methods={ "pm_saw_mills" "pm_no_hardwood" "pm_no_equipment" "pm_road_carts" }
			}
		}
	}

	s:STATE_MINAR_YOLLI = {
		region_state:A03 = {
			create_building={
				building="building_port"
				add_ownership={
					country={
						country="c:A03"
						levels=1
					}
				}
				reserves=1
				activate_production_methods={ "pm_anchorage" }
			}
		}
		region_state:B09 = {
            create_building={
				building="building_construction_sector"
				add_ownership={
					country={
						country="c:B09"
						levels=2
					}
				}
				reserves=1
				activate_production_methods={ "pm_wooden_buildings" }
			}
            create_building={
				building="building_government_administration"
				add_ownership={
					country={
						country="c:B09"
						levels=2
					}
				}
				reserves=1
				activate_production_methods={ "pm_horizontal_drawer_cabinets" "pm_secular_bureaucrats" }
			}
			create_building={
				building="building_port"
				add_ownership={
					country={
						country="c:B09"
						levels=1
					}
				}
				reserves=1
				activate_production_methods={ "pm_anchorage" }
			}
            create_building={
				building="building_textile_mills"
				add_ownership={
					building={
						type="building_financial_district"
						country="c:B09"
						levels=1
						region="STATE_MINAR_YOLLI"
					}
				}
				reserves=1
				activate_production_methods={ "pm_handsewn_clothes" "pm_no_luxury_clothes" "pm_traditional_looms" }
			}
            create_building={
                building="building_maize_farm"
                    add_ownership={
                        building={
                            type="building_manor_house"
                            country="c:B09"
                            levels=2
                            region="STATE_MINAR_YOLLI"
                        }
                    }
				reserves=1
				activate_production_methods={ "pm_simple_farming" "pm_no_secondary" "pm_tools_disabled" }
            }
            create_building={
				building="building_cotton_plantation"
				add_ownership={
					building={
                        type="building_manor_house"
                        country="c:B09"
                        levels=2
                        region="STATE_MINAR_YOLLI"
                    }
				}
				reserves=1
				activate_production_methods={ "default_building_cotton_plantation" "pm_no_enhancements" "pm_road_carts"  }
			}
            create_building={
				building="building_iron_mine"
				add_ownership={
					building={
						type="building_iron_mine"
						country="c:B09"
						levels=1
						region="STATE_MINAR_YOLLI"
					}
				}
				reserves=1
				activate_production_methods={ "pm_picks_and_shovels_building_iron_mine" "pm_no_explosives" "pm_no_steam_automation" "pm_road_carts" }
			}
		}
	}

    s:STATE_NIDI_BIKEHA = {
        region_state:B07 = {
            create_building={
				building="building_livestock_ranch"
				add_ownership={
					building={
						type="building_manor_house"
						country="c:B07"
						levels=1
						region="STATE_NIDI_BIKEHA"
					}
				}
				reserves=1
				activate_production_methods={ "pm_sheep_farms" "pm_standard_fences" "pm_unrefrigerated" "pm_butchering_tools" }
			}
            create_building={
				building="building_coal_mine"
				add_ownership={
					building={
						type="building_coal_mine"
						country="c:B07"
						levels=1
						region="STATE_NIDI_BIKEHA"
					}
				}
				reserves=1
				activate_production_methods={ "pm_atmospheric_engine_pump_building_coal_mine" "pm_no_explosives" "pm_no_steam_automation" "pm_road_carts" }
			}
        }
        region_state:B10 = {
            create_building={    
                building="building_wheat_farm"
                add_ownership={
                    building={
                        type="building_manor_house"
                        country="c:B10"
                        levels=2
                        region="STATE_NIDI_BIKEHA"
                    }
                }
                reserves=1
                activate_production_methods={ "pm_simple_farming" "pm_tools_disabled" }
            }
            create_building={
				building="building_livestock_ranch"
				add_ownership={
					building={
						type="building_manor_house"
						country="c:B10"
						levels=1
						region="STATE_NIDI_BIKEHA"
					}
				}
				reserves=1
				activate_production_methods={ "pm_simple_ranch" "pm_standard_fences" "pm_unrefrigerated" "pm_slaughterhouses" }
			}
            create_building={
				building="building_logging_camp"
				add_ownership={
					building={
						type="building_logging_camp"
						country="c:B10"
						levels=1
						region="STATE_NIDI_BIKEHA"
					}
				}
				reserves=1
				activate_production_methods={ "pm_saw_mills" "pm_no_equipment" "pm_road_carts" "pm_no_hardwood" }
			}
            create_building={
				building="building_furniture_manufacturies"
				add_ownership={
					building={
						type="building_furniture_manufacturies"
						country="c:B10"
						levels=1
						region="STATE_NIDI_BIKEHA"
					}
				}
				reserves=1
				activate_production_methods={ "pm_handcrafted_furniture" "pm_no_luxuries" "pm_automation_disabled" }
			}
        }
    }
    
    s:STATE_NANI_NOLIHE = {
        region_state:B10 = {
            create_building={
				building="building_textile_mills"
				add_ownership={
					building={
						type="building_textile_mills"
						country="c:B10"
						levels=1
						region="STATE_NANI_NOLIHE"
					}
				}
				reserves=1
				activate_production_methods={ "pm_handsewn_clothes" "pm_no_luxury_clothes" "pm_traditional_looms" }
			}
            create_building={    
                building="building_wheat_farm"
                add_ownership={
                    building={
                        type="building_manor_house"
                        country="c:B10"
                        levels=1
                        region="STATE_NANI_NOLIHE"
                    }
                }
                reserves=1
                activate_production_methods={ "pm_simple_farming" "pm_tools_disabled" }
            }
            create_building={
				building="building_livestock_ranch"
				add_ownership={
					building={
						type="building_manor_house"
						country="c:B10"
						levels=2
						region="STATE_NANI_NOLIHE"
					}
				}
				reserves=1
				activate_production_methods={ "pm_simple_ranch" "pm_standard_fences" "pm_unrefrigerated" "pm_slaughterhouses" }
			}
            create_building={
				building="building_government_administration"
				add_ownership={
					country={
						country="c:B10"
						levels=1
					}
				}
				reserves=1
				activate_production_methods={ "pm_simple_organization"  }
			}
        }
    }

    s:STATE_AUVUL_TADIH = {
        region_state:B10={
            create_building={
				building="building_livestock_ranch"
				add_ownership={
					building={
						type="building_manor_house"
						country="c:B10"
						levels=2
						region="STATE_AUVUL_TADIH"
					}
				}
				reserves=1
				activate_production_methods={ "pm_simple_ranch" "pm_standard_fences" "pm_unrefrigerated" "pm_slaughterhouses" }
			}
            create_building={
				building="building_logging_camp"
				add_ownership={
					building={
						type="building_logging_camp"
						country="c:B10"
						levels=1
						region="STATE_AUVUL_TADIH"
					}
				}
				reserves=1
				activate_production_methods={ "pm_saw_mills" "pm_no_equipment" "pm_road_carts" "pm_no_hardwood" }
			}
        }
    }

    s:STATE_E_E_KIDILE = {
        region_state:B07={
            create_building={
                building="building_maize_farm"
                    add_ownership={
                        building={
                            type="building_manor_house"
                            country="c:B07"
                            levels=1
                            region="STATE_E_E_KIDILE"
                        }
                        building={
                            type="building_maize_farm"
                            country="c:B07"
                            levels=1
                            region="STATE_E_E_KIDILE"
                        }
                    }
				reserves=1
				activate_production_methods={ "pm_simple_farming" "pm_no_secondary" "pm_tools_disabled" }
            }
        }
        region_state:B76={
            create_building={
				building="building_livestock_ranch"
				add_ownership={
					building={
						type="building_manor_house"
						country="c:B76"
						levels=2
						region="STATE_E_E_KIDILE"
					}
				}
				reserves=1
				activate_production_methods={ "pm_simple_ranch" "pm_standard_fences" "pm_unrefrigerated" "pm_open_air_stockyards" }
			}
            create_building={
				building="building_logging_camp"
				add_ownership={
					building={
						type="building_logging_camp"
						country="c:B76"
						levels=1
						region="STATE_E_E_KIDILE"
					}
				}
				reserves=1
				activate_production_methods={ "pm_saw_mills" "pm_no_equipment" "pm_road_carts" "pm_hardwood" }
			}
            create_building={
				building="building_paper_mills"
				add_ownership={
					building={
						type="building_financial_district"
						country="c:B07"
						levels=1
						region="STATE_GOOVRAZ"
					}
				}
				reserves=1
				activate_production_methods = { "pm_pulp_pressing" "pm_automation_disabled" }
			}
            create_building={
				building="building_port"
				add_ownership={
					country={
						country="c:B76"
						levels=1
					}
				}
				reserves=1
				activate_production_methods={ "pm_basic_port" }
			}
        }
    }

    s:STATE_GOMMIOCHAND = {
        region_state:B07={
            create_building={
				building="building_port"
				add_ownership={
					country={
						country="c:B07"
						levels=1
					}
				}
				reserves=1
				activate_production_methods={ "pm_basic_port" }
			}
            create_building={
                building="building_maize_farm"
                    add_ownership={
                        building={
                            type="building_maize_farm"
                            country="c:B07"
                            levels=3
                            region="STATE_GOMMIOCHAND"
                        }
                    }
				reserves=1
				activate_production_methods={ "pm_simple_farming" "pm_no_secondary" "pm_tools_disabled" }
            }
            create_building={
				building="building_banana_plantation"
				add_ownership={
					building={
						type="building_manor_house"
						country="c:B07"
						levels=1
						region="STATE_GOMMIOCHAND"
					}
                    building={
                        type="building_banana_plantation"
                        country="c:B07"
                        levels=1
                        region="STATE_GOMMIOCHAND"
                    }
				}
				reserves=1
				activate_production_methods={ "default_building_banana_plantation" "pm_no_enhancements" "pm_road_carts"  }
			}
            create_building={
                building="building_fishing_wharf"
                add_ownership={
					building={
						type="building_fishing_wharf"
						country="c:B07"
						levels=1
						region="STATE_GOMMIOCHAND"
					}
				}
                reserves=1
                activate_production_methods={ "pm_fishing_trawlers" "pm_unrefrigerated" }
            }
            create_building={
				building="building_iron_mine"
				add_ownership={
					building={
						type="building_financial_district"
						country="c:B07"
						levels=1
						region="STATE_GOMMIOCHAND"
					}
                    building={
						type="building_iron_mine"
						country="c:B07"
						levels=1
						region="STATE_GOMMIOCHAND"
					}
				}
				reserves=1
				activate_production_methods={ "pm_atmospheric_engine_pump_building_iron_mine" "pm_no_explosives" "pm_no_steam_automation" "pm_rail_transport_mine" }
			}
            create_building={
				building="building_lead_mine"
				add_ownership={
					building={
						type="building_financial_district"
						country="c:B07"
						levels=1
						region="STATE_GOMMIOCHAND"
					}
				}
				reserves=1
				activate_production_methods={ "pm_atmospheric_engine_pump_building_lead_mine" "pm_no_explosives" "pm_no_steam_automation" "pm_rail_transport_mine" }
			}
            create_building={
				building="building_furniture_manufacturies"
				add_ownership={
					building={
						type="building_financial_district"
						country="c:B07"
						levels=1
						region="STATE_GOMMIOCHAND"
					}
				}
				reserves=1
				activate_production_methods={ "pm_lathe" "pm_luxury_furniture" "pm_automation_disabled" }
			}
            create_building={
				building="building_shipyards"
				add_ownership={
					building={
						type="building_financial_district"
						country="c:B07"
						levels=1
						region="STATE_GOMMIOCHAND"
					}
				}
				reserves=1
				activate_production_methods={ "pm_basic_shipbuilding" "pm_automata_laborers_shipyards"  }
			}
            create_building={
                building="building_automatories"
                add_ownership={
                    building={
						type="building_financial_district"
						country="c:B07"
						levels=1
						region="STATE_GOMMIOCHAND"
					}
                }
                reserves=1
                activate_production_methods={ "pm_tampered_insyaan_processors" "pm_refurbished_insyaan_cores" "pm_steelforged_frame" "pm_no_automation" }
            }
            create_building={
				building="building_paper_mills"
				add_ownership={
					building={
						type="building_financial_district"
						country="c:B07"
						levels=1
						region="STATE_GOMMIOCHAND"
					}
				}
				reserves=1
				activate_production_methods = { "pm_pulp_pressing" "pm_automata_laborers_paper" }
			}
            create_building={
				building="building_government_administration"
				add_ownership={
					country={
						country="c:B07"
						levels=2
					}
				}
				reserves=1
				activate_production_methods={ "pm_horizontal_drawer_cabinets" "pm_secular_bureaucrats" }
			}
            create_building={
				building="building_construction_sector"
				add_ownership={
					country={
						country="c:B07"
						levels=1
					}
				}
				reserves=1
				activate_production_methods={ "pm_iron_frame_buildings" }
			}
            create_building={
				building="building_railway"
				add_ownership={
					country={
						country="c:B07"
						levels=1
					}
				}
				reserves=1
				activate_production_methods={ "pm_early_trains" "pm_no_passenger_trains" }
			}
        }
        region_state:B76={
            create_building={
                building="building_maize_farm"
                    add_ownership={
                        building={
                            type="building_manor_house"
                            country="c:B76"
                            levels=1
                            region="STATE_GOMMIOCHAND"
                        }
                    }
				reserves=1
				activate_production_methods={ "pm_simple_farming" "pm_no_secondary" "pm_tools_disabled" }
            }
            create_building={
				building="building_banana_plantation"
				add_ownership={
					building={
						type="building_manor_house"
						country="c:B07"
						levels=1
						region="STATE_GOMMIOCHAND"
					}
				}
				reserves=1
				activate_production_methods={ "default_building_banana_plantation" "pm_no_enhancements" "pm_road_carts"  }
			}
            create_building={
                building="building_fishing_wharf"
                add_ownership={
					building={
						type="building_fishing_wharf"
						country="c:B76"
						levels=1
						region="STATE_GOMMIOCHAND"
					}
				}
                reserves=1
                activate_production_methods={ "pm_fishing_trawlers" "pm_unrefrigerated" }
            }
            create_building={
				building="building_iron_mine"
				add_ownership={
					building={
						type="building_financial_district"
						country="c:B07"
						levels=1
						region="STATE_GOMMIOCHAND"
					}
				}
				reserves=1
				activate_production_methods={ "pm_picks_and_shovels_building_iron_mine" "pm_no_explosives" "pm_no_steam_automation" "pm_road_carts" }
			}
        }
    }

    s:STATE_MESTIKARDU = {
        region_state:B07={
            create_building={
				building="building_railway"
				add_ownership={
					country={
						country="c:B07"
						levels=1
					}
				}
				reserves=1
				activate_production_methods={ "pm_early_trains" "pm_no_passenger_trains" }
			}
            create_building={
				building="building_port"
				add_ownership={
					country={
						country="c:B07"
						levels=1
					}
				}
				reserves=1
				activate_production_methods={ "pm_basic_port" }
			}
            create_building={
                building="building_maize_farm"
                    add_ownership={
                        building={
                            type="building_maize_farm"
                            country="c:B07"
                            levels=1
                            region="STATE_MESTIKARDU"
                        }
                        building={
                            type="building_manor_house"
                            country="c:B07"
                            levels=1
                            region="STATE_MESTIKARDU"
                        }
                    }
				reserves=1
				activate_production_methods={ "pm_simple_farming" "pm_no_secondary" "pm_tools_disabled" }
            }
            create_building={
				building="building_livestock_ranch"
				add_ownership={
					building={
						type="building_manor_house"
						country="c:B07"
						levels=1
						region="STATE_MESTIKARDU"
					}
				}
				reserves=1
				activate_production_methods={ "pm_sheep_farms" "pm_standard_fences" "pm_unrefrigerated" "pm_butchering_tools" }
			}
            create_building={
				building="building_cotton_plantation"
				add_ownership={
					building={
						type="building_cotton_plantation"
						country="c:B07"
						levels=1
						region="STATE_MESTIKARDU"
					}
				}
				reserves=1
				activate_production_methods={ "default_building_cotton_plantation" "pm_no_enhancements" "pm_steam_rail_transport"  }
			}
            create_building={
                building="building_fishing_wharf"
                add_ownership={
					building={
						type="building_fishing_wharf"
						country="c:B07"
						levels=1
						region="STATE_MESTIKARDU"
					}
				}
                reserves=1
                activate_production_methods={ "pm_fishing_trawlers" "pm_unrefrigerated" }
            }
            create_building={
				building="building_logging_camp"
				add_ownership={
					building={
						type="building_logging_camp"
						country="c:B07"
						levels=1
						region="STATE_MESTIKARDU"
					}
                    building={
                        type="building_financial_district"
                        country="c:B07"
                        levels=1
                        region="STATE_MESTIKARDU"
                    }
				}
				reserves=1
				activate_production_methods={ "pm_saw_mills" "pm_no_equipment" "pm_rail_transport_building_logging_camp" "pm_no_hardwood" }
			}
            create_building={
                building="building_textile_mills"
                add_ownership={
                    building={
						type="building_financial_district"
						country="c:B07"
						levels=1
						region="STATE_MESTIKARDU"
					}
                }
                reserves=1
                activate_production_methods={ "pm_dye_workshops" "pm_traditional_looms" "pm_no_luxury_clothes" }
            }
            create_building={
                building="building_doodad_manufacturies"
                add_ownership={
                    building={
						type="building_financial_district"
						country="c:B07"
						levels=1
						region="STATE_MESTIKARDU"
					}
                }
                reserves=1
                activate_production_methods = { "pm_crystal_socketry_building_doodad_manufacturies" "pm_artisan_artificery_building_doodad_manufacturies" "pm_automata_laborers_doodad_manufacturies" }
            }
            create_building={
				building="building_tooling_workshops"
				add_ownership={
					building={
						type="building_financial_district"
						country="c:B07"
						levels=1
						region="STATE_MESTIKARDU"
					}
				}
				reserves=1
				activate_production_methods={ "pm_steel" "pm_brass_prosthesis" "pm_automata_laborers_tools" }
			}
            create_building={
				building="building_food_industry"
				add_ownership={
					building={
						type="building_financial_district"
						country="c:B07"
						levels=1
						region="STATE_MESTIKARDU"
					}
				}
				reserves=1
				activate_production_methods={ "pm_sweeteners" "pm_disabled_canning" "pm_manual_dough_processing" "pm_patent_stills" }
			}
            create_building={
				building="building_government_administration"
				add_ownership={
					country={
						country="c:B07"
						levels=1
					}
				}
				reserves=1
				activate_production_methods={ "pm_horizontal_drawer_cabinets" "pm_secular_bureaucrats" }
			}
            create_building={
				building="building_construction_sector"
				add_ownership={
					country={
						country="c:B07"
						levels=1
					}
				}
				reserves=1
				activate_production_methods={ "pm_iron_frame_buildings" }
			}
        }
    }

    s:STATE_ZURZUMEXIA = {
        region_state:B07={
            create_building={
				building="building_railway"
				add_ownership={
					country={
						country="c:B07"
						levels=1
					}
				}
				reserves=1
				activate_production_methods={ "pm_early_trains" "pm_no_passenger_trains" }
			}
            create_building={
				building="building_port"
				add_ownership={
					country={
						country="c:B07"
						levels=1
					}
				}
				reserves=1
				activate_production_methods={ "pm_basic_port" }
			}
            create_building={
                building="building_maize_farm"
                    add_ownership={
                        building={
                            type="building_maize_farm"
                            country="c:B07"
                            levels=2
                            region="STATE_ZURZUMEXIA"
                        }
                        building={
                            type="building_manor_house"
                            country="c:B07"
                            levels=1
                            region="STATE_ZURZUMEXIA"
                        }
                    }
				reserves=1
				activate_production_methods={ "pm_simple_farming" "pm_herb_gardens" "pm_tools_disabled" }
            }
            create_building={
				building="building_livestock_ranch"
				add_ownership={
					building={
						type="building_manor_house"
						country="c:B07"
						levels=1
						region="STATE_ZURZUMEXIA"
					}
				}
				reserves=1
				activate_production_methods={ "pm_sheep_farms" "pm_standard_fences" "pm_unrefrigerated" "pm_butchering_tools" }
			}
            create_building={
				building="building_dye_plantation"
				add_ownership={
					building={
						type="building_dye_plantation"
						country="c:B07"
						levels=1
						region="STATE_ZURZUMEXIA"
					}
				}
				reserves=1
				activate_production_methods={ "default_building_dye_plantation" "pm_no_enhancements" "pm_road_carts"  }
			}
            create_building={
				building="building_sugar_plantation"
				add_ownership={
					building={
						type="building_manor_house"
						country="c:B07"
						levels=2
						region="STATE_ZURZUMEXIA"
					}
				}
				reserves=1
				activate_production_methods={ "default_building_sugar_plantation" "pm_no_enhancements" "pm_road_carts"  }
			}
            create_building={
				building="building_logging_camp"
				add_ownership={
					building={
						type="building_financial_district"
						country="c:B07"
						levels=1
						region="STATE_ZURZUMEXIA"
					}
				}
				reserves=1
				activate_production_methods={ "pm_saw_mills" "pm_no_equipment" "pm_rail_transport_building_logging_camp" "pm_hardwood" }
			}
            create_building={
				building="building_iron_mine"
				add_ownership={
					building={
						type="building_financial_district"
						country="c:B07"
						levels=1
						region="STATE_ZURZUMEXIA"
					}
				}
				reserves=1
				activate_production_methods={ "pm_atmospheric_engine_pump_building_iron_mine" "pm_no_explosives" "pm_no_steam_automation" "pm_road_carts" }
			}
            create_building={
				building="building_coal_mine"
				add_ownership={
					building={
						type="building_financial_district"
						country="c:B07"
						levels=2
						region="STATE_ZURZUMEXIA"
					}
				}
				reserves=1
				activate_production_methods={ "pm_atmospheric_engine_pump_building_coal_mine" "pm_no_explosives" "pm_no_steam_automation" "pm_road_carts" }
			}
            create_building={
                building="building_damestear_mine"
                add_ownership={
                    building={
                        type="building_financial_district"
                        country="c:B07"
                        levels=1
                        region="STATE_ZURZUMEXIA"
                    }
                }
                reserves=1
                activate_production_methods={ "pm_picks_and_shovels_building_damestear_mine" "pm_no_explosives" "pm_no_steam_automation" "pm_road_carts" }
            }
            create_building={
                building="building_textile_mills"
                add_ownership={
                    building={
						type="building_financial_district"
						country="c:B07"
						levels=1
						region="STATE_MESTIKARDU"
					}
                }
                reserves=1
                activate_production_methods={ "pm_dye_workshops" "pm_traditional_looms" "pm_no_luxury_clothes" }
            }
            create_building={
				building="building_tooling_workshops"
				add_ownership={
					building={
						type="building_financial_district"
						country="c:B07"
						levels=1
						region="STATE_ZURZUMEXIA"
					}
				}
				reserves=1
				activate_production_methods={ "pm_steel" "pm_brass_prosthesis" "pm_automata_laborers_tools" }
			}
            create_building={
				building="building_government_administration"
				add_ownership={
					country={
						country="c:B07"
						levels=1
					}
				}
				reserves=1
				activate_production_methods={ "pm_horizontal_drawer_cabinets" "pm_secular_bureaucrats" }
			}
            create_building={
				building="building_construction_sector"
				add_ownership={
					country={
						country="c:B07"
						levels=1
					}
				}
				reserves=1
				activate_production_methods={ "pm_iron_frame_buildings" }
			}
        }
    }

    s:STATE_GOOVRAZ = {
        region_state:B07={
            create_building={
				building="building_glassworks"
				add_ownership={
					building={
						type="building_financial_district"
						country="c:B07"
						levels=1
						region="STATE_ZURZUMEXIA"
					}
				}
				reserves=1
				activate_production_methods={ "pm_leaded_glass" "pm_disabled_ceramics" "pm_manual_glassblowing" }
			}
            create_building={
				building="building_motor_industry"
				add_ownership={
					building={
						type="building_financial_district"
						country="c:B07"
						levels=1
						region="STATE_MESTIKARDU"
					}
				}
				reserves=1
				activate_production_methods={ "pm_steam_engines" "pm_automobiles_disabled" "pm_automata_machinists_motor" }
			}
            create_building={
				building="building_food_industry"
				add_ownership={
					building={
						type="building_financial_district"
						country="c:B07"
						levels=1
						region="STATE_GOMMIOCHAND"
					}
				}
				reserves=1
				activate_production_methods={ "pm_sweeteners" "pm_disabled_canning" "pm_manual_dough_processing" "pm_patent_stills" }
			}
            create_building={
                building="building_textile_mills"
                add_ownership={
                    building={
						type="building_financial_district"
						country="c:B07"
						levels=1
						region="STATE_GOMMIOCHAND"
					}
                }
                reserves=1
                activate_production_methods={ "pm_dye_workshops" "pm_traditional_looms" "pm_no_luxury_clothes" }
            }
            create_building={
                building="building_maize_farm"
                    add_ownership={
                        building={
                            type="building_maize_farm"
                            country="c:B07"
                            levels=1
                            region="STATE_GOOVRAZ"
                        }
                        building={
                            type="building_manor_house"
                            country="c:B07"
                            levels=1
                            region="STATE_GOOVRAZ"
                        }
                    }
				reserves=1
				activate_production_methods={ "pm_soil_enriching_farming" "pm_citrus_orchards" "pm_tools_disabled" }
            }
            create_building={
				building="building_livestock_ranch"
				add_ownership={
					building={
						type="building_manor_house"
						country="c:B07"
						levels=1
						region="STATE_GOOVRAZ"
					}
                    building={
						type="building_livestock_ranch"
						country="c:B07"
						levels=1
						region="STATE_GOOVRAZ"
					}
				}
				reserves=1
				activate_production_methods={ "pm_sheep_farms" "pm_standard_fences" "pm_unrefrigerated" "pm_butchering_tools" }
			}
            create_building={
				building="building_tobacco_plantation"
				add_ownership={
					building={
						type="building_tobacco_plantation"
						country="c:B07"
						levels=1
						region="STATE_GOOVRAZ"
					}
				}
				reserves=1
				activate_production_methods={ "default_building_tobacco_plantation" "pm_no_enhancements" "pm_road_carts"  }
			}
            create_building={
				building="building_coal_mine"
				add_ownership={
					building={
						type="building_coal_mine"
						country="c:B07"
						levels=2
						region="STATE_GOOVRAZ"
					}
				}
				reserves=1
				activate_production_methods={ "pm_atmospheric_engine_pump_building_coal_mine" "pm_no_explosives" "pm_no_steam_automation" "pm_road_carts" }
			}
            create_building={
				building="building_logging_camp"
				add_ownership={
					building={
						type="building_financial_district"
						country="c:B07"
						levels=1
						region="STATE_GOOVRAZ"
					}
				}
				reserves=1
				activate_production_methods={ "pm_saw_mills" "pm_no_equipment" "pm_road_carts" "pm_hardwood" }
			}
            create_building={
				building="building_iron_mine"
				add_ownership={
					building={
						type="building_iron_mine"
						country="c:B07"
						levels=1
						region="STATE_GOOVRAZ"
					}
				}
				reserves=1
				activate_production_methods={ "pm_atmospheric_engine_pump_building_iron_mine" "pm_no_explosives" "pm_no_steam_automation" "pm_road_carts" }
			}
            create_building={
				building="building_government_administration"
				add_ownership={
					country={
						country="c:B07"
						levels=1
					}
				}
				reserves=1
				activate_production_methods={ "pm_horizontal_drawer_cabinets" "pm_secular_bureaucrats" }
			}
			create_building={
				building="building_railway"
				add_ownership={
					country={
						country="c:B07"
						levels=1
					}
				}
				reserves=1
				activate_production_methods={ "pm_early_trains" "pm_no_passenger_trains" }
			}
        }
    }

    s:STATE_MANGROVY_COAST = {
        region_state:B71={ #Caylen
            create_building={
				building="building_government_administration"
				add_ownership={
					country={
						country="c:B71"
						levels=1
					}
				}
				reserves=1
				activate_production_methods={ "pm_horizontal_drawer_cabinets" "pm_secular_bureaucrats" }
			}
            create_building={
				building="building_port"
				add_ownership={
					country={
						country="c:B71"
						levels=1
					}
				}
				reserves=1
				activate_production_methods={ "pm_anchorage" }
			}
            create_building={
                building="building_maize_farm"
                    add_ownership={
                        building={
                            type="building_manor_house"
                            country="c:B71"
                            levels=2
                            region="STATE_MANGROVY_COAST"
                        }
                    }
				reserves=1
				activate_production_methods={ "pm_simple_farming" "pm_no_secondary" "pm_tools_disabled" }
            }
            create_building={
				building="building_cotton_plantation"
				add_ownership={
					building={
						type="building_manor_house"
						country="c:B71"
						levels=1
						region="STATE_MANGROVY_COAST"
					}
				}
				reserves=1
				activate_production_methods={ "default_building_cotton_plantation" "pm_no_enhancements" "pm_road_carts"  }
			}
            create_building={
				building="building_coffee_plantation"
				add_ownership={
					building={
						type="building_coffee_plantation"
						country="c:B71"
						levels=1
						region="STATE_MANGROVY_COAST"
					}
				}
				reserves=1
				activate_production_methods={ "default_building_coffee_plantation" "pm_no_enhancements" "pm_road_carts"  }
			}
            create_building={
				building="building_logging_camp"
				add_ownership={
					building={
						type="building_financial_district"
						country="c:B71"
						levels=1
						region="STATE_MANGROVY_COAST"
					}
				}
				reserves=1
				activate_production_methods={ "pm_saw_mills" "pm_no_equipment" "pm_road_carts" "pm_hardwood" }
			}
        }
        region_state:B09={ #Minaria
            create_building={
                building="building_maize_farm"
                    add_ownership={
                        building={
                            type="building_manor_house"
                            country="c:B09"
                            levels=1
                            region="STATE_MANGROVY_COAST"
                        }
                    }
				reserves=1
				activate_production_methods={ "pm_simple_farming" "pm_no_secondary" "pm_tools_disabled" }
            }
            create_building={
				building="building_livestock_ranch"
				add_ownership={
					building={
						type="building_livestock_ranch"
						country="c:B09"
						levels=2
						region="STATE_MANGROVY_COAST"
					}
				}
				reserves=1
				activate_production_methods={ "pm_simple_ranch" "pm_standard_fences" "pm_unrefrigerated" "pm_butchering_tools" }
			}
            create_building={
				building="building_logging_camp"
				add_ownership={
					building={
						type="building_logging_camp"
						country="c:B09"
						levels=1
						region="STATE_MANGROVY_COAST"
					}
				}
				reserves=1
				activate_production_methods={ "pm_saw_mills" "pm_no_equipment" "pm_road_carts" "pm_hardwood" }
			}
        }
    }

    s:STATE_TLACHIBAR = {
        region_state:B09={
            create_building={
				building="building_tobacco_plantation"
				add_ownership={
					building={
						type="building_manor_house"
						country="c:B09"
						levels=1
						region="STATE_TLACHIBAR"
					}
				}
				reserves=1
				activate_production_methods={ "default_building_tobacco_plantation" "pm_no_enhancements" "pm_road_carts"  }
			}
            create_building={
				building="building_sugar_plantation"
				add_ownership={
					building={
						type="building_manor_house"
						country="c:B09"
						levels=1
						region="STATE_TLACHIBAR"
					}
				}
				reserves=1
				activate_production_methods={ "default_building_sugar_plantation" "pm_no_enhancements" "pm_road_carts"  }
			}
        }
    }
    
    s:STATE_TAMETER = {
        region_state:B27={
            create_building={
                building="building_maize_farm"
                    add_ownership={
                        building={
                            type="building_manor_house"
                            country="c:B27"
                            levels=2
                            region="STATE_TAMETER"
                        }
                    }
				reserves=1
				activate_production_methods={ "pm_simple_farming" "pm_no_secondary" "pm_tools_disabled" }
            }
            create_building={
				building="building_iron_mine"
				add_ownership={
					building={
						type="building_financial_district"
						country="c:B27"
						levels=1
						region="STATE_TAMETER"
					}
				}
				reserves=1
				activate_production_methods={ "pm_picks_and_shovels_building_iron_mine" "pm_no_explosives" "pm_no_steam_automation" "pm_road_carts" }
			}
            create_building={
				building="building_coal_mine"
				add_ownership={
					building={
						type="building_financial_district"
						country="c:B27"
						levels=1
						region="STATE_TAMETER"
					}
				}
				reserves=1
				activate_production_methods={ "pm_picks_and_shovels_building_coal_mine" "pm_no_explosives" "pm_no_steam_automation" "pm_road_carts" }
			}
        }
    }
}