﻿object={
	name="cypress_mediterranean_sparse_generator_1_0"
	clamp_to_water_level=no
	render_under_water=no
	generated_content=yes
	layer="semidynamic"
	pdxmesh="tree_cypress_mediterranean_02_mesh"
	count=198
	transform="3806.236816 0.000000 2650.811035 0.000000 0.993523 0.000000 0.113631 0.199247 0.199247 0.199247
3809.210205 0.000000 2643.154541 0.000000 0.995604 0.000000 0.093666 0.199377 0.199377 0.199377
3793.722656 0.000000 2650.458496 0.000000 0.918420 0.000000 0.395607 0.241681 0.241681 0.241681
3809.062500 0.000000 2650.355225 0.000000 0.944718 0.000000 -0.327885 0.227401 0.227401 0.227401
3808.544434 0.000000 2645.612793 0.000000 0.969646 0.000000 -0.244514 0.273117 0.273117 0.273117
3813.432373 0.000000 2665.792725 0.000000 0.971933 0.000000 -0.235257 0.205374 0.205374 0.205374
3816.974609 0.000000 2666.287109 0.000000 0.788853 0.000000 0.614581 0.240926 0.240926 0.240926
3815.465576 0.000000 2664.651367 0.000000 0.831232 0.000000 -0.555926 0.246866 0.246866 0.246866
3904.255127 0.000000 2645.422119 0.000000 0.894248 0.000000 -0.447572 0.204121 0.204121 0.204121
3937.210205 0.000000 2643.154541 0.000000 0.603958 0.000000 0.797016 0.248094 0.248094 0.248094
3921.256836 0.000000 2632.996094 0.000000 0.325387 0.000000 0.945581 0.194600 0.194600 0.194600
3905.884521 0.000000 2649.333740 0.000000 0.988021 0.000000 -0.154316 0.270151 0.270151 0.270151
3915.941895 0.000000 2640.085205 0.000000 0.049742 0.000000 0.998762 0.209117 0.209117 0.209117
3927.371094 0.000000 2641.295166 0.000000 0.970945 0.000000 -0.239304 0.205976 0.205976 0.205976
3933.392090 0.000000 2642.954590 0.000000 0.370431 0.000000 0.928860 0.277247 0.277247 0.277247
3929.917236 0.000000 2643.047363 0.000000 0.400531 0.000000 0.916283 0.221859 0.221859 0.221859
3927.191895 0.000000 2644.171875 0.000000 0.991236 0.000000 0.132105 0.278978 0.278978 0.278978
3947.601562 0.000000 2651.181396 0.000000 0.709223 0.000000 0.704984 0.236973 0.236973 0.236973
3936.544434 0.000000 2645.612793 0.000000 0.506273 0.000000 0.862373 0.258043 0.258043 0.258043
3920.382568 0.000000 2654.097656 0.000000 0.168033 0.000000 0.985781 0.254409 0.254409 0.254409
3931.673340 0.000000 2651.054688 0.000000 0.829344 0.000000 -0.558738 0.257584 0.257584 0.257584
3938.508057 0.000000 2644.846924 0.000000 0.352064 0.000000 0.935976 0.276871 0.276871 0.276871
3930.529541 0.000000 2653.687988 0.000000 0.962414 0.000000 -0.271587 0.257926 0.257926 0.257926
3932.161133 0.000000 2646.893311 0.000000 0.885417 0.000000 0.464798 0.266866 0.266866 0.266866
3904.517090 0.000000 2648.058350 0.000000 0.329772 0.000000 0.944061 0.251458 0.251458 0.251458
3915.147217 0.000000 2636.446777 0.000000 0.636641 0.000000 0.771160 0.280367 0.280367 0.280367
3931.304688 0.000000 2643.419922 0.000000 0.632690 0.000000 0.774405 0.284277 0.284277 0.284277
3898.511719 0.000000 2675.275635 0.000000 0.322813 0.000000 0.946463 0.214590 0.214590 0.214590
3884.083252 0.000000 2674.826660 0.000000 0.658457 0.000000 0.752619 0.213534 0.213534 0.213534
3894.173828 0.000000 2660.949951 0.000000 0.807494 0.000000 0.589876 0.200633 0.200633 0.200633
3899.211426 0.000000 2684.383789 0.000000 0.177680 0.000000 0.984088 0.257850 0.257850 0.257850
3902.624512 0.000000 2663.585693 0.000000 0.985279 0.000000 0.170955 0.206807 0.206807 0.206807
3888.647949 0.000000 2695.241455 0.000000 0.985197 0.000000 -0.171429 0.217970 0.217970 0.217970
3884.412598 0.000000 2697.039307 0.000000 0.107877 0.000000 0.994164 0.205248 0.205248 0.205248
3900.832764 0.000000 2687.087402 0.000000 0.860368 0.000000 0.509673 0.227505 0.227505 0.227505
3896.639160 0.000000 2659.738037 0.000000 0.505576 0.000000 0.862782 0.225046 0.225046 0.225046
3893.427979 0.000000 2672.606934 0.000000 0.922869 0.000000 0.385113 0.248260 0.248260 0.248260
3894.158936 0.000000 2686.825439 0.000000 0.932818 0.000000 -0.360347 0.306502 0.306502 0.306502
3893.633789 0.000000 2691.822754 0.000000 0.866595 0.000000 -0.499013 0.254996 0.254996 0.254996
3903.814697 0.000000 2673.210205 0.000000 0.998675 0.000000 0.051465 0.264589 0.264589 0.264589
3903.163330 0.000000 2687.440186 0.000000 0.979960 0.000000 -0.199192 0.260463 0.260463 0.260463
3901.382568 0.000000 2685.067871 0.000000 0.942062 0.000000 -0.335440 0.265697 0.265697 0.265697
3897.814453 0.000000 2673.608154 0.000000 0.884478 0.000000 0.466582 0.262068 0.262068 0.262068
3896.654053 0.000000 2671.978516 0.000000 0.253771 0.000000 0.967264 0.277263 0.277263 0.277263
3896.710693 0.000000 2678.597168 0.000000 0.053593 0.000000 0.998563 0.256027 0.256027 0.256027
3885.531006 0.000000 2673.158691 0.000000 0.256103 0.000000 0.966650 0.274946 0.274946 0.274946
3892.777832 0.000000 2687.713623 0.000000 0.711672 0.000000 0.702512 0.286495 0.286495 0.286495
3949.516602 0.000000 2669.499023 0.000000 0.604405 0.000000 0.796677 0.233390 0.233390 0.233390
3925.705078 0.000000 2681.633301 0.000000 0.896602 0.000000 -0.442838 0.264244 0.264244 0.264244
3922.127686 0.000000 2668.041748 0.000000 0.951075 0.000000 0.308961 0.266546 0.266546 0.266546
3945.563477 0.000000 2681.256592 0.000000 0.827273 0.000000 -0.561801 0.205058 0.205058 0.205058
3935.758545 0.000000 2684.925293 0.000000 0.518931 0.000000 0.854816 0.239299 0.239299 0.239299
3927.890625 0.000000 2673.823242 0.000000 0.534735 0.000000 0.845020 0.214217 0.214217 0.214217
3942.893555 0.000000 2674.212891 0.000000 0.241530 0.000000 0.970393 0.217741 0.217741 0.217741
3927.491943 0.000000 2655.397217 0.000000 0.675314 0.000000 0.737530 0.209577 0.209577 0.209577
3904.098633 0.000000 2661.714600 0.000000 0.229726 0.000000 0.973255 0.242387 0.242387 0.242387
3911.914795 0.000000 2656.602539 0.000000 0.965309 0.000000 -0.261111 0.244567 0.244567 0.244567
3921.256836 0.000000 2689.480469 0.000000 0.999169 0.000000 -0.040771 0.285500 0.285500 0.285500
3940.045898 0.000000 2660.040527 0.000000 0.907106 0.000000 0.420903 0.285637 0.285637 0.285637
3916.552734 0.000000 2680.959717 0.000000 0.877278 0.000000 0.479982 0.225706 0.225706 0.225706
3918.220459 0.000000 2671.846436 0.000000 0.878035 0.000000 0.478597 0.269289 0.269289 0.269289
3910.330566 0.000000 2666.862549 0.000000 0.645407 0.000000 0.763839 0.198341 0.198341 0.198341
3938.015137 0.000000 2675.261230 0.000000 0.230141 0.000000 0.973157 0.261948 0.261948 0.261948
3910.424561 0.000000 2675.125732 0.000000 0.881540 0.000000 -0.472109 0.263474 0.263474 0.263474
3936.617920 0.000000 2658.131348 0.000000 0.733036 0.000000 0.680190 0.199762 0.199762 0.199762
3942.686279 0.000000 2655.071289 0.000000 0.735821 0.000000 0.677176 0.286990 0.286990 0.286990
3951.663086 0.000000 2664.777588 0.000000 0.942599 0.000000 0.333926 0.252693 0.252693 0.252693
3950.042969 0.000000 2660.620361 0.000000 0.929331 0.000000 0.369247 0.265127 0.265127 0.265127
3930.987305 0.000000 2654.854492 0.000000 0.832174 0.000000 -0.554515 0.281345 0.281345 0.281345
3915.487061 0.000000 2663.325195 0.000000 0.995723 0.000000 0.092391 0.294533 0.294533 0.294533
3912.667480 0.000000 2659.544922 0.000000 0.974090 0.000000 0.226161 0.219007 0.219007 0.219007
3916.526855 0.000000 2677.811523 0.000000 0.734848 0.000000 0.678231 0.285793 0.285793 0.285793
3923.991699 0.000000 2687.993164 0.000000 0.999552 0.000000 0.029922 0.299428 0.299428 0.299428
3920.939697 0.000000 2670.694336 0.000000 0.973710 0.000000 0.227793 0.295723 0.295723 0.295723
3934.952637 0.000000 2674.277832 0.000000 0.922266 0.000000 0.386557 0.257368 0.257368 0.257368
3905.451416 0.000000 2664.157959 0.000000 0.869624 0.000000 0.493715 0.231948 0.231948 0.231948
3918.979980 0.000000 2679.605713 0.000000 0.475005 0.000000 0.879983 0.211570 0.211570 0.211570
3926.782471 0.000000 2662.069092 0.000000 0.469101 0.000000 0.883144 0.222613 0.222613 0.222613
3927.068359 0.000000 2659.276855 0.000000 0.862488 0.000000 0.506078 0.281447 0.281447 0.281447
3914.329590 0.000000 2679.470215 0.000000 0.882223 0.000000 0.470832 0.241282 0.241282 0.241282
3942.646240 0.000000 2686.922852 0.000000 0.995315 0.000000 0.096685 0.298172 0.298172 0.298172
3926.077637 0.000000 2671.940186 0.000000 0.374555 0.000000 0.927204 0.240362 0.240362 0.240362
3912.173828 0.000000 2677.031982 0.000000 0.049980 0.000000 0.998750 0.270955 0.270955 0.270955
3910.363770 0.000000 2664.278320 0.000000 0.994006 0.000000 0.109328 0.247766 0.247766 0.247766
3947.095459 0.000000 2669.084229 0.000000 0.999145 0.000000 -0.041335 0.233743 0.233743 0.233743
3966.948242 0.000000 2656.919678 0.000000 0.883022 0.000000 -0.469332 0.239930 0.239930 0.239930
3909.141602 0.000000 2680.271973 0.000000 0.263609 0.000000 0.964630 0.270522 0.270522 0.270522
3927.885254 0.000000 2680.545654 0.000000 0.997768 0.000000 0.066771 0.298779 0.298779 0.298779
3910.028809 0.000000 2677.695312 0.000000 0.501825 0.000000 0.864969 0.280040 0.280040 0.280040
3944.179932 0.000000 2682.950195 0.000000 0.984231 0.000000 -0.176885 0.303276 0.303276 0.303276
3949.585205 0.000000 2665.198730 0.000000 0.883345 0.000000 0.468723 0.249293 0.249293 0.249293
3925.422607 0.000000 2679.120605 0.000000 0.886375 0.000000 -0.462967 0.309193 0.309193 0.309193
3929.598145 0.000000 2678.397217 0.000000 0.920685 0.000000 0.390307 0.292748 0.292748 0.292748
3954.709717 0.000000 2668.855469 0.000000 0.346941 0.000000 0.937887 0.273848 0.273848 0.273848
3904.597412 0.000000 2675.232910 0.000000 0.782474 0.000000 0.622683 0.287163 0.287163 0.287163
3925.008301 0.000000 2683.870605 0.000000 0.979364 0.000000 0.202105 0.262591 0.262591 0.262591
3929.304688 0.000000 2655.759277 0.000000 0.437063 0.000000 0.899431 0.257928 0.257928 0.257928
3954.999268 0.000000 2662.108398 0.000000 0.901541 0.000000 0.432694 0.282774 0.282774 0.282774
3916.062012 0.000000 2676.071045 0.000000 0.911016 0.000000 -0.412372 0.308102 0.308102 0.308102
3945.963623 0.000000 2662.294922 0.000000 0.652336 0.000000 0.757930 0.283927 0.283927 0.283927
3911.620850 0.000000 2660.994873 0.000000 0.998146 0.000000 0.060865 0.298837 0.298837 0.298837
3920.985107 0.000000 2676.941406 0.000000 0.830885 0.000000 -0.556445 0.293340 0.293340 0.293340
3920.728271 0.000000 2654.772217 0.000000 0.932207 0.000000 -0.361926 0.279465 0.279465 0.279465
3920.004883 0.000000 2672.233398 0.000000 0.915922 0.000000 -0.401357 0.280068 0.280068 0.280068
3917.642090 0.000000 2676.417236 0.000000 0.985913 0.000000 0.167261 0.296797 0.296797 0.296797
3922.929199 0.000000 2660.239746 0.000000 0.576243 0.000000 0.817278 0.283305 0.283305 0.283305
3941.265381 0.000000 2674.429199 0.000000 0.986319 0.000000 0.164847 0.297098 0.297098 0.297098
3939.595703 0.000000 2674.877441 0.000000 0.942376 0.000000 -0.334555 0.287202 0.287202 0.287202
3920.485107 0.000000 2679.877930 0.000000 0.209501 0.000000 0.977808 0.275508 0.275508 0.275508
3935.750977 0.000000 2661.348633 0.000000 0.976888 0.000000 0.213752 0.293571 0.293571 0.293571
3922.930176 0.000000 2678.628174 0.000000 0.999973 0.000000 -0.007394 0.300131 0.300131 0.300131
3910.267334 0.000000 2679.205566 0.000000 0.979140 0.000000 0.203185 0.296092 0.296092 0.296092
3916.996094 0.000000 2684.597412 0.000000 0.073591 0.000000 0.997288 0.272640 0.272640 0.272640
3923.521729 0.000000 2686.541260 0.000000 0.913110 0.000000 0.407713 0.291980 0.291980 0.291980
3911.363281 0.000000 2678.216064 0.000000 0.443689 0.000000 0.896181 0.278780 0.278780 0.278780
3913.525391 0.000000 2676.813477 0.000000 0.991575 0.000000 0.129532 0.297519 0.297519 0.297519
3906.009277 0.000000 2675.814453 0.000000 0.710563 0.000000 0.703633 0.285094 0.285094 0.285094
3938.757568 0.000000 2660.227539 0.000000 0.736689 0.000000 0.676231 0.285817 0.285817 0.285817
4058.122314 0.000000 2665.573975 0.000000 0.456449 0.000000 0.889750 0.233483 0.233483 0.233483
4070.893555 0.000000 2674.212891 0.000000 0.980855 0.000000 0.194740 0.228643 0.228643 0.228643
4076.083252 0.000000 2674.826660 0.000000 0.986829 0.000000 0.161766 0.198876 0.198876 0.198876
4066.015137 0.000000 2675.261230 0.000000 0.907708 0.000000 0.419602 0.215055 0.215055 0.215055
4055.293701 0.000000 2678.330322 0.000000 0.953600 0.000000 -0.301076 0.266971 0.266971 0.266971
4050.190674 0.000000 2664.287842 0.000000 0.447431 0.000000 0.894318 0.212307 0.212307 0.212307
4047.197021 0.000000 2666.398438 0.000000 0.084821 0.000000 0.996396 0.213792 0.213792 0.213792
4080.580566 0.000000 2685.206299 0.000000 0.815522 0.000000 -0.578726 0.235889 0.235889 0.235889
4055.407959 0.000000 2666.603760 0.000000 0.936974 0.000000 0.349400 0.279391 0.279391 0.279391
4077.942871 0.000000 2676.706543 0.000000 0.520961 0.000000 0.853581 0.234807 0.234807 0.234807
4033.042969 0.000000 2687.266602 0.000000 0.483839 0.000000 0.875157 0.281481 0.281481 0.281481
4059.966309 0.000000 2664.378662 0.000000 0.908494 0.000000 -0.417898 0.250444 0.250444 0.250444
4075.960938 0.000000 2676.867920 0.000000 0.590117 0.000000 0.807318 0.282055 0.282055 0.282055
4067.093018 0.000000 2677.141846 0.000000 0.991335 0.000000 0.131355 0.279541 0.279541 0.279541
4080.891357 0.000000 2683.139648 0.000000 0.933331 0.000000 -0.359016 0.292268 0.292268 0.292268
4054.338623 0.000000 2667.748047 0.000000 0.930922 0.000000 0.365218 0.279131 0.279131 0.279131
5629.638184 0.000000 1036.442017 0.000000 0.981307 0.000000 0.192449 0.227015 0.227015 0.227015
5627.815430 0.000000 1035.438599 0.000000 0.016992 0.000000 0.999856 0.234073 0.234073 0.234073
5403.698730 0.000000 1345.640015 0.000000 0.999915 0.000000 -0.013027 0.285074 0.285074 0.285074
5353.260742 0.000000 1399.847168 0.000000 0.895363 0.000000 -0.445338 0.203077 0.203077 0.203077
5351.299805 0.000000 1402.004395 0.000000 0.911665 0.000000 -0.410934 0.238110 0.238110 0.238110
5402.979980 0.000000 1397.457764 0.000000 0.885617 0.000000 0.464416 0.196865 0.196865 0.196865
5401.621582 0.000000 1403.499878 0.000000 0.429650 0.000000 0.902995 0.193384 0.193384 0.193384
5401.916992 0.000000 1400.391235 0.000000 0.999996 0.000000 0.002868 0.254587 0.254587 0.254587
5414.581055 0.000000 1390.749390 0.000000 0.841191 0.000000 -0.540739 0.247857 0.247857 0.247857
5399.191895 0.000000 1401.515625 0.000000 0.962319 0.000000 -0.271921 0.240660 0.240660 0.240660
5415.147461 0.000000 1392.528320 0.000000 0.955052 0.000000 0.296438 0.294816 0.294816 0.294816
5377.598145 0.000000 1359.190796 0.000000 0.965796 0.000000 -0.259302 0.304558 0.304558 0.304558
5475.765137 0.000000 1381.472290 0.000000 0.891672 0.000000 0.452682 0.202369 0.202369 0.202369
5421.516602 0.000000 1426.842651 0.000000 0.852347 0.000000 -0.522977 0.214685 0.214685 0.214685
5388.978516 0.000000 1412.845337 0.000000 0.623517 0.000000 0.781810 0.219825 0.219825 0.219825
5424.541992 0.000000 1434.694580 0.000000 0.232927 0.000000 0.972494 0.190863 0.190863 0.190863
5390.749512 0.000000 1412.140503 0.000000 0.991366 0.000000 0.131127 0.297597 0.297597 0.297597
5390.213379 0.000000 1413.814331 0.000000 0.933306 0.000000 -0.359081 0.306712 0.306712 0.306712
6740.089355 0.000000 1513.410645 0.000000 0.999185 0.000000 0.040355 0.269755 0.269755 0.269755
6753.947754 0.000000 1518.067261 0.000000 0.999911 0.000000 -0.013320 0.207665 0.207665 0.207665
6743.371094 0.000000 1511.607666 0.000000 0.095850 0.000000 0.995396 0.242109 0.242109 0.242109
6741.502930 0.000000 1516.912964 0.000000 0.998649 0.000000 0.051966 0.247310 0.247310 0.247310
6743.836426 0.000000 1519.206665 0.000000 0.860070 0.000000 -0.510176 0.309544 0.309544 0.309544
6726.057129 0.000000 1513.531494 0.000000 0.664939 0.000000 0.746898 0.281487 0.281487 0.281487
6753.062500 0.000000 1520.667725 0.000000 0.233527 0.000000 0.972350 0.247715 0.247715 0.247715
6739.443848 0.000000 1518.513550 0.000000 0.362543 0.000000 0.931967 0.260655 0.260655 0.260655
6734.401855 0.000000 1510.289551 0.000000 0.865884 0.000000 -0.500245 0.234408 0.234408 0.234408
6743.348633 0.000000 1521.592163 0.000000 0.990493 0.000000 0.137564 0.238048 0.238048 0.238048
6743.416992 0.000000 1516.526489 0.000000 0.725745 0.000000 0.687964 0.249632 0.249632 0.249632
6728.076660 0.000000 1512.647095 0.000000 0.840154 0.000000 0.542349 0.252473 0.252473 0.252473
4425.278320 0.000000 2365.942871 0.000000 0.853803 0.000000 0.520596 0.211939 0.211939 0.211939
4211.456055 0.000000 2592.085205 0.000000 0.834570 0.000000 -0.550902 0.203875 0.203875 0.203875
4207.868652 0.000000 2590.207764 0.000000 0.582158 0.000000 0.813076 0.212166 0.212166 0.212166
4204.376953 0.000000 2588.064453 0.000000 0.769939 0.000000 0.638118 0.221764 0.221764 0.221764
4227.510742 0.000000 2588.724854 0.000000 0.995107 0.000000 0.098802 0.245114 0.245114 0.245114
4225.118652 0.000000 2586.527100 0.000000 0.989954 0.000000 -0.141389 0.244392 0.244392 0.244392
4226.026855 0.000000 2590.423096 0.000000 0.475801 0.000000 0.879553 0.251630 0.251630 0.251630
4225.726074 0.000000 2584.701416 0.000000 0.186391 0.000000 0.982476 0.275705 0.275705 0.275705
4155.211426 0.000000 2627.899414 0.000000 0.193597 0.000000 0.981081 0.208445 0.208445 0.208445
4150.381836 0.000000 2627.608887 0.000000 0.988830 0.000000 0.149046 0.280374 0.280374 0.280374
4155.955078 0.000000 2629.336426 0.000000 0.995431 0.000000 0.095478 0.298206 0.298206 0.298206
4204.662598 0.000000 2648.861328 0.000000 0.996891 0.000000 0.078793 0.219204 0.219204 0.219204
4201.260742 0.000000 2642.503418 0.000000 0.950975 0.000000 0.309266 0.222061 0.222061 0.222061
4187.595215 0.000000 2648.804932 0.000000 0.946352 0.000000 -0.323137 0.244105 0.244105 0.244105
4183.836426 0.000000 2648.894043 0.000000 0.887852 0.000000 -0.460129 0.308416 0.308416 0.308416
4163.820801 0.000000 2612.086670 0.000000 0.847642 0.000000 0.530568 0.290303 0.290303 0.290303
4178.498535 0.000000 2602.099365 0.000000 0.971965 0.000000 -0.235123 0.289096 0.289096 0.289096
4216.742188 0.000000 2628.175049 0.000000 0.982696 0.000000 -0.185225 0.245444 0.245444 0.245444
4198.962402 0.000000 2642.461182 0.000000 0.308480 0.000000 0.951231 0.237568 0.237568 0.237568
4178.929199 0.000000 2603.755371 0.000000 0.453184 0.000000 0.891417 0.268456 0.268456 0.268456
4182.444824 0.000000 2649.979980 0.000000 0.876938 0.000000 0.480604 0.291176 0.291176 0.291176
4146.789551 0.000000 2666.853027 0.000000 0.445001 0.000000 0.895530 0.250187 0.250187 0.250187
4151.531250 0.000000 2665.369385 0.000000 0.999674 0.000000 0.025537 0.240904 0.240904 0.240904
4148.014648 0.000000 2663.608887 0.000000 0.691243 0.000000 0.722623 0.276015 0.276015 0.276015
4154.028320 0.000000 2667.864258 0.000000 0.997743 0.000000 0.067145 0.230441 0.230441 0.230441
4155.100586 0.000000 2664.858398 0.000000 0.305791 0.000000 0.952099 0.225782 0.225782 0.225782
4150.255859 0.000000 2663.525635 0.000000 0.115639 0.000000 0.993291 0.251786 0.251786 0.251786
4148.916016 0.000000 2662.128662 0.000000 0.850789 0.000000 0.525507 0.280039 0.280039 0.280039
4175.831543 0.000000 2658.937500 0.000000 0.042699 0.000000 0.999088 0.255868 0.255868 0.255868
4175.671387 0.000000 2656.294678 0.000000 0.993470 0.000000 0.114092 0.230538 0.230538 0.230538
4177.145996 0.000000 2657.319824 0.000000 0.826889 0.000000 -0.562365 0.310579 0.310579 0.310579
4239.831543 0.000000 2602.453125 0.000000 0.978508 0.000000 -0.206209 0.239961 0.239961 0.239961
4226.681152 0.000000 2620.499756 0.000000 0.971236 0.000000 -0.238118 0.281082 0.281082 0.281082
4236.241699 0.000000 2600.546143 0.000000 0.703692 0.000000 0.710506 0.270701 0.270701 0.270701
"}
object={
	name="cypress_mediterranean_sparse_generator_1_1"
	clamp_to_water_level=no
	render_under_water=no
	generated_content=yes
	layer="semidynamic"
	pdxmesh="tree_cypress_mediterranean_01_mesh"
	count=81
	transform="3821.747070 0.000000 2646.972900 0.000000 0.700860 0.000000 -0.713299 0.250244 0.250244 0.250244
3798.911865 0.000000 2639.270752 0.000000 0.067118 0.000000 -0.997745 0.285032 0.285032 0.285032
3918.875732 0.000000 2643.043213 0.000000 0.674105 0.000000 -0.738635 0.228901 0.228901 0.228901
3934.060547 0.000000 2646.436035 0.000000 0.026504 0.000000 -0.999649 0.255056 0.255056 0.255056
3923.253418 0.000000 2645.867920 0.000000 0.775809 0.000000 -0.630968 0.282073 0.282073 0.282073
3939.523193 0.000000 2642.927246 0.000000 0.802570 0.000000 -0.596558 0.299514 0.299514 0.299514
3943.778320 0.000000 2654.116211 0.000000 0.671743 0.000000 -0.740785 0.314589 0.314589 0.314589
3928.641113 0.000000 2654.005859 0.000000 0.462261 0.000000 -0.886744 0.289014 0.289014 0.289014
3921.862305 0.000000 2634.608643 0.000000 0.188902 0.000000 -0.981996 0.308039 0.308039 0.308039
3903.957764 0.000000 2675.664551 0.000000 0.667528 0.000000 -0.744585 0.254375 0.254375 0.254375
3901.512207 0.000000 2654.791748 0.000000 0.758487 0.000000 -0.651688 0.301852 0.301852 0.301852
3901.524170 0.000000 2671.835449 0.000000 0.679539 0.000000 -0.733639 0.214436 0.214436 0.214436
3893.013428 0.000000 2689.411865 0.000000 0.065712 0.000000 -0.997839 0.325205 0.325205 0.325205
3887.145508 0.000000 2672.913574 0.000000 0.180620 0.000000 -0.983553 0.229422 0.229422 0.229422
3892.463867 0.000000 2669.847412 0.000000 0.072883 0.000000 -0.997341 0.308543 0.308543 0.308543
3895.819336 0.000000 2673.596436 0.000000 0.252959 0.000000 -0.967477 0.243210 0.243210 0.243210
3888.587891 0.000000 2675.018799 0.000000 0.761976 0.000000 -0.647606 0.243896 0.243896 0.243896
3896.096680 0.000000 2682.409668 0.000000 0.774549 0.000000 -0.632514 0.292369 0.292369 0.292369
3899.529785 0.000000 2655.412598 0.000000 0.108110 0.000000 -0.994139 0.309311 0.309311 0.309311
3897.864990 0.000000 2683.356934 0.000000 0.542169 0.000000 -0.840269 0.297074 0.297074 0.297074
3895.822754 0.000000 2686.058838 0.000000 0.792201 0.000000 -0.610260 0.311577 0.311577 0.311577
3908.048096 0.000000 2663.115723 0.000000 0.738860 0.000000 -0.673859 0.267127 0.267127 0.267127
3944.015625 0.000000 2662.394287 0.000000 0.756890 0.000000 -0.653543 0.313310 0.313310 0.313310
3951.145508 0.000000 2672.913574 0.000000 0.347227 0.000000 -0.937781 0.219296 0.219296 0.219296
3915.442871 0.000000 2672.574219 0.000000 0.241042 0.000000 -0.970515 0.261027 0.261027 0.261027
3933.739258 0.000000 2676.228760 0.000000 0.485573 0.000000 -0.874196 0.279875 0.279875 0.279875
3907.099121 0.000000 2681.467285 0.000000 0.427827 0.000000 -0.903860 0.303482 0.303482 0.303482
3950.245605 0.000000 2674.688232 0.000000 0.094917 0.000000 -0.995485 0.324703 0.324703 0.324703
3946.257812 0.000000 2657.028076 0.000000 0.600919 0.000000 -0.799310 0.305942 0.305942 0.305942
3934.946045 0.000000 2683.229492 0.000000 0.225343 0.000000 -0.974280 0.285497 0.285497 0.285497
3939.182373 0.000000 2661.531982 0.000000 0.611628 0.000000 -0.791145 0.317431 0.317431 0.317431
3922.362793 0.000000 2687.402100 0.000000 0.631229 0.000000 -0.775597 0.316953 0.316953 0.316953
3922.442383 0.000000 2669.782227 0.000000 0.171806 0.000000 -0.985131 0.290109 0.290109 0.290109
3944.687744 0.000000 2677.266357 0.000000 0.197258 0.000000 -0.980352 0.304004 0.304004 0.304004
3935.972656 0.000000 2679.146484 0.000000 0.617394 0.000000 -0.786654 0.316986 0.316986 0.316986
3915.377686 0.000000 2674.309082 0.000000 0.370726 0.000000 -0.928742 0.322747 0.322747 0.322747
3904.043457 0.000000 2679.016602 0.000000 0.345151 0.000000 -0.938547 0.323270 0.323270 0.323270
3938.977539 0.000000 2669.265137 0.000000 0.175421 0.000000 -0.984493 0.324700 0.324700 0.324700
3922.172363 0.000000 2679.912842 0.000000 0.633287 0.000000 -0.773917 0.315709 0.315709 0.315709
3926.404541 0.000000 2680.380859 0.000000 0.406414 0.000000 -0.913689 0.321057 0.321057 0.321057
3910.813965 0.000000 2676.529541 0.000000 0.505102 0.000000 -0.863060 0.319887 0.319887 0.319887
3942.782471 0.000000 2682.775391 0.000000 0.141634 0.000000 -0.989919 0.326055 0.326055 0.326055
3922.397949 0.000000 2676.900879 0.000000 0.414038 0.000000 -0.910259 0.321847 0.321847 0.321847
3905.993652 0.000000 2678.215576 0.000000 0.001149 0.000000 -0.999999 0.329978 0.329978 0.329978
3910.753418 0.000000 2659.930420 0.000000 0.532350 0.000000 -0.846524 0.319279 0.319279 0.319279
3975.914795 0.000000 2656.602539 0.000000 0.713492 0.000000 -0.700663 0.272435 0.272435 0.272435
4002.735840 0.000000 2694.418701 0.000000 0.093845 0.000000 -0.995587 0.230165 0.230165 0.230165
4012.376709 0.000000 2701.033203 0.000000 0.505737 0.000000 -0.862688 0.273339 0.273339 0.273339
4088.551025 0.000000 2687.624756 0.000000 0.462122 0.000000 -0.886817 0.211597 0.211597 0.211597
4074.288330 0.000000 2677.913330 0.000000 0.497240 0.000000 -0.867613 0.320061 0.320061 0.320061
4090.028564 0.000000 2667.864258 0.000000 0.682300 0.000000 -0.731072 0.219797 0.219797 0.219797
4008.832275 0.000000 2714.751221 0.000000 0.604104 0.000000 -0.796906 0.206262 0.206262 0.206262
4006.824463 0.000000 2716.487793 0.000000 0.531086 0.000000 -0.847318 0.237214 0.237214 0.237214
4008.756348 0.000000 2716.716553 0.000000 0.764793 0.000000 -0.644276 0.282314 0.282314 0.282314
5626.511719 0.000000 1037.228760 0.000000 0.534813 0.000000 -0.844971 0.255598 0.255598 0.255598
5600.801270 0.000000 1045.033936 0.000000 0.750768 0.000000 -0.660566 0.295959 0.295959 0.295959
5353.322754 0.000000 1403.900635 0.000000 0.041496 0.000000 -0.999139 0.327088 0.327088 0.327088
5396.089355 0.000000 1400.441895 0.000000 0.063779 0.000000 -0.997964 0.210271 0.210271 0.210271
5380.679688 0.000000 1408.239990 0.000000 0.617988 0.000000 -0.786187 0.316159 0.316159 0.316159
5391.671387 0.000000 1413.638428 0.000000 0.508412 0.000000 -0.861114 0.318959 0.318959 0.318959
6740.968750 0.000000 1520.718872 0.000000 0.062274 0.000000 -0.998059 0.236149 0.236149 0.236149
6731.941895 0.000000 1510.397827 0.000000 0.550894 0.000000 -0.834575 0.256003 0.256003 0.256003
6755.689941 0.000000 1520.195435 0.000000 0.209748 0.000000 -0.977756 0.237335 0.237335 0.237335
6730.235840 0.000000 1512.277954 0.000000 0.469269 0.000000 -0.883055 0.253331 0.253331 0.253331
6741.843750 0.000000 1518.878418 0.000000 0.648586 0.000000 -0.761142 0.316522 0.316522 0.316522
6741.917480 0.000000 1512.855957 0.000000 0.497032 0.000000 -0.867732 0.284701 0.284701 0.284701
6726.562500 0.000000 1512.015747 0.000000 0.139759 0.000000 -0.990185 0.319319 0.319319 0.319319
6740.561035 0.000000 1519.359131 0.000000 0.140032 0.000000 -0.990147 0.327317 0.327317 0.327317
4427.959473 0.000000 2364.350342 0.000000 0.463661 0.000000 -0.886013 0.226262 0.226262 0.226262
4223.697754 0.000000 2586.520996 0.000000 0.756516 0.000000 -0.653975 0.280073 0.280073 0.280073
4206.671387 0.000000 2588.251465 0.000000 0.099125 0.000000 -0.995075 0.254937 0.254937 0.254937
4154.093750 0.000000 2628.718018 0.000000 0.401128 0.000000 -0.916022 0.321727 0.321727 0.321727
4215.062500 0.000000 2649.298828 0.000000 0.634500 0.000000 -0.772923 0.251809 0.251809 0.251809
4205.386719 0.000000 2652.988281 0.000000 0.428869 0.000000 -0.903367 0.238309 0.238309 0.238309
4185.618652 0.000000 2649.958496 0.000000 0.358269 0.000000 -0.933618 0.304655 0.304655 0.304655
4163.095703 0.000000 2613.731445 0.000000 0.807586 0.000000 -0.589749 0.310936 0.310936 0.310936
4206.953613 0.000000 2651.680908 0.000000 0.664994 0.000000 -0.746849 0.316106 0.316106 0.316106
4230.330566 0.000000 2610.378174 0.000000 0.733514 0.000000 -0.679674 0.216827 0.216827 0.216827
4227.837402 0.000000 2621.843262 0.000000 0.381910 0.000000 -0.924200 0.294708 0.294708 0.294708
4237.612305 0.000000 2601.409912 0.000000 0.672276 0.000000 -0.740300 0.295219 0.295219 0.295219
5426.798340 0.000000 2634.962402 0.000000 0.719426 0.000000 -0.694569 0.250564 0.250564 0.250564
"}
