﻿object={
	name="rainforest_sparse_generator_1_0"
	clamp_to_water_level=no
	render_under_water=no
	generated_content=yes
	layer="semidynamic"
	pdxmesh="tree_rainforest_001_mesh"
	count=160
	transform="2530.111328 0.000000 1556.693359 0.000000 0.480200 0.000000 0.877159 0.279726 0.279726 0.279726
2705.939453 0.000000 1792.811157 0.000000 0.107662 0.000000 0.994188 0.197895 0.197895 0.197895
2700.457520 0.000000 1802.791504 0.000000 0.490776 0.000000 0.871286 0.280669 0.280669 0.280669
2612.014648 0.000000 1872.827637 0.000000 0.507066 0.000000 0.861907 0.224559 0.224559 0.224559
2679.060791 0.000000 1905.584106 0.000000 0.243181 0.000000 0.969981 0.215792 0.215792 0.215792
2681.190430 0.000000 1906.091187 0.000000 0.024703 0.000000 0.999695 0.229443 0.229443 0.229443
2677.449463 0.000000 1913.875854 0.000000 0.260263 0.000000 0.965538 0.247597 0.247597 0.247597
2747.211426 0.000000 1837.118164 0.000000 0.464807 0.000000 0.885412 0.201827 0.201827 0.201827
2720.448975 0.000000 1833.495361 0.000000 0.003443 0.000000 0.999994 0.222099 0.222099 0.222099
2723.991211 0.000000 1879.710815 0.000000 0.213985 0.000000 0.976837 0.203194 0.203194 0.203194
2689.884521 0.000000 1915.036865 0.000000 0.481358 0.000000 0.876524 0.208081 0.208081 0.208081
2717.020508 0.000000 1876.814697 0.000000 0.564484 0.000000 0.825444 0.215048 0.215048 0.215048
2702.979980 0.000000 1888.824585 0.000000 0.319630 0.000000 0.947542 0.225934 0.225934 0.225934
2706.128174 0.000000 1884.745972 0.000000 0.387942 0.000000 0.921684 0.221723 0.221723 0.221723
2716.928223 0.000000 1881.864502 0.000000 0.482378 0.000000 0.875963 0.267986 0.267986 0.267986
2749.251953 0.000000 1870.798950 0.000000 0.338561 0.000000 0.940944 0.228117 0.228117 0.228117
2616.639160 0.000000 1981.925415 0.000000 0.457493 0.000000 0.889213 0.229000 0.229000 0.229000
2665.563477 0.000000 2003.444092 0.000000 0.191410 0.000000 0.981510 0.190744 0.190744 0.190744
2666.288330 0.000000 2000.100952 0.000000 0.033511 0.000000 0.999438 0.229067 0.229067 0.229067
2709.705078 0.000000 1947.336426 0.000000 0.123060 0.000000 0.992399 0.210748 0.210748 0.210748
2702.007324 0.000000 1951.359009 0.000000 0.529199 0.000000 0.848498 0.192994 0.192994 0.192994
2720.032227 0.000000 1957.406616 0.000000 0.556916 0.000000 0.830569 0.193246 0.193246 0.193246
2723.764893 0.000000 1946.316040 0.000000 0.171396 0.000000 0.985202 0.234943 0.234943 0.234943
2718.953613 0.000000 1976.721313 0.000000 0.352052 0.000000 0.935981 0.201862 0.201862 0.201862
2741.633789 0.000000 1957.526001 0.000000 0.177993 0.000000 0.984032 0.222951 0.222951 0.222951
2716.928223 0.000000 1938.348877 0.000000 0.114100 0.000000 0.993469 0.222769 0.222769 0.222769
2751.697998 0.000000 1965.192871 0.000000 0.270613 0.000000 0.962688 0.228823 0.228823 0.228823
2707.576416 0.000000 1955.920410 0.000000 0.154460 0.000000 0.987999 0.246181 0.246181 0.246181
2751.374512 0.000000 1960.564209 0.000000 0.136870 0.000000 0.990589 0.247367 0.247367 0.247367
2709.008301 0.000000 1949.573853 0.000000 0.432327 0.000000 0.901717 0.241121 0.241121 0.241121
2761.063721 0.000000 1950.930786 0.000000 0.253204 0.000000 0.967413 0.223743 0.223743 0.223743
2763.406250 0.000000 1953.539551 0.000000 0.461111 0.000000 0.887343 0.233541 0.233541 0.233541
2758.724365 0.000000 1953.976196 0.000000 0.277949 0.000000 0.960596 0.223025 0.223025 0.223025
2754.822754 0.000000 1954.436890 0.000000 0.476529 0.000000 0.879159 0.212092 0.212092 0.212092
2758.952881 0.000000 1956.078979 0.000000 0.402852 0.000000 0.915265 0.260805 0.260805 0.260805
2746.807129 0.000000 1983.607666 0.000000 0.489422 0.000000 0.872047 0.220320 0.220320 0.220320
2689.017578 0.000000 2003.646240 0.000000 0.428245 0.000000 0.903662 0.193883 0.193883 0.193883
2743.531250 0.000000 1987.556763 0.000000 0.303580 0.000000 0.952806 0.237995 0.237995 0.237995
2703.831299 0.000000 1981.125000 0.000000 0.079920 0.000000 0.996801 0.233867 0.233867 0.233867
2722.934814 0.000000 1980.522339 0.000000 0.339043 0.000000 0.940771 0.241372 0.241372 0.241372
2738.317871 0.000000 1981.406250 0.000000 0.076883 0.000000 0.997040 0.237148 0.237148 0.237148
5674.009766 0.000000 2257.827393 0.000000 0.565945 0.000000 0.824443 0.247506 0.247506 0.247506
5693.251953 0.000000 2209.705078 0.000000 0.151943 0.000000 0.988389 0.272913 0.272913 0.272913
5734.535645 0.000000 2232.398682 0.000000 0.274966 0.000000 0.961454 0.209176 0.209176 0.209176
5734.889160 0.000000 2226.330322 0.000000 0.033211 0.000000 0.999448 0.254343 0.254343 0.254343
5736.284180 0.000000 2241.357178 0.000000 0.113006 0.000000 0.993594 0.255495 0.255495 0.255495
5753.129395 0.000000 2241.709229 0.000000 0.129436 0.000000 0.991588 0.255733 0.255733 0.255733
5769.604492 0.000000 2230.344971 0.000000 0.110171 0.000000 0.993913 0.233268 0.233268 0.233268
5772.526855 0.000000 2225.936523 0.000000 0.492157 0.000000 0.870506 0.279409 0.279409 0.279409
5928.389160 0.000000 2143.552246 0.000000 0.390540 0.000000 0.920586 0.247934 0.247934 0.247934
5943.432129 0.000000 2139.005615 0.000000 0.186197 0.000000 0.982512 0.273577 0.273577 0.273577
5954.944824 0.000000 2107.317871 0.000000 0.500242 0.000000 0.865886 0.234538 0.234538 0.234538
5954.026855 0.000000 2138.548096 0.000000 0.407679 0.000000 0.913125 0.224929 0.224929 0.224929
6071.819336 0.000000 2108.752686 0.000000 0.206676 0.000000 0.978410 0.220815 0.220815 0.220815
5993.563477 0.000000 2172.897217 0.000000 0.142992 0.000000 0.989724 0.272740 0.272740 0.272740
6011.211426 0.000000 2176.024414 0.000000 0.090858 0.000000 0.995864 0.200216 0.200216 0.200216
6006.381836 0.000000 2175.733887 0.000000 0.552096 0.000000 0.833781 0.234714 0.234714 0.234714
6003.213867 0.000000 2192.663574 0.000000 0.514328 0.000000 0.857593 0.235725 0.235725 0.235725
5970.579102 0.000000 2201.595215 0.000000 0.018397 0.000000 0.999831 0.221778 0.221778 0.221778
5999.145508 0.000000 2164.554199 0.000000 0.496610 0.000000 0.867974 0.256898 0.256898 0.256898
5979.595215 0.000000 2196.929932 0.000000 0.557036 0.000000 0.830488 0.231745 0.231745 0.231745
6005.860840 0.000000 2194.472656 0.000000 0.056563 0.000000 0.998399 0.201892 0.201892 0.201892
5985.448730 0.000000 2169.703125 0.000000 0.102066 0.000000 0.994778 0.215891 0.215891 0.215891
5966.979980 0.000000 2171.246338 0.000000 0.185363 0.000000 0.982670 0.219624 0.219624 0.219624
5985.412109 0.000000 2161.363281 0.000000 0.519978 0.000000 0.854180 0.260744 0.260744 0.260744
6008.630371 0.000000 2199.861328 0.000000 0.565551 0.000000 0.824713 0.245489 0.245489 0.245489
5975.348633 0.000000 2199.404785 0.000000 0.022272 0.000000 0.999752 0.262917 0.262917 0.262917
6007.794922 0.000000 2159.412354 0.000000 0.154576 0.000000 0.987981 0.275350 0.275350 0.275350
5997.585449 0.000000 2156.839355 0.000000 0.336646 0.000000 0.941631 0.254944 0.254944 0.254944
6013.282227 0.000000 2190.361572 0.000000 0.412610 0.000000 0.910908 0.246771 0.246771 0.246771
6010.520996 0.000000 2200.318848 0.000000 0.051299 0.000000 0.998683 0.270980 0.270980 0.270980
6006.302246 0.000000 2160.693604 0.000000 0.492829 0.000000 0.870126 0.279842 0.279842 0.279842
5991.104492 0.000000 2158.299805 0.000000 0.040650 0.000000 0.999173 0.270777 0.270777 0.270777
5987.093262 0.000000 2168.782471 0.000000 0.330458 0.000000 0.943821 0.257266 0.257266 0.257266
5940.365234 0.000000 2242.156982 0.000000 0.013286 0.000000 0.999912 0.200566 0.200566 0.200566
5946.385254 0.000000 2205.482666 0.000000 0.251711 0.000000 0.967802 0.222748 0.222748 0.222748
5929.204590 0.000000 2239.451904 0.000000 0.425282 0.000000 0.905061 0.278390 0.278390 0.278390
5943.062500 0.000000 2253.908203 0.000000 0.254147 0.000000 0.967166 0.208987 0.208987 0.208987
5923.666992 0.000000 2239.376953 0.000000 0.300977 0.000000 0.953631 0.206924 0.206924 0.206924
5926.581055 0.000000 2238.015137 0.000000 0.250997 0.000000 0.967988 0.232496 0.232496 0.232496
5951.697754 0.000000 2247.614746 0.000000 0.306512 0.000000 0.951867 0.275950 0.275950 0.275950
5948.008301 0.000000 2245.167725 0.000000 0.194719 0.000000 0.980859 0.253372 0.253372 0.253372
5945.072754 0.000000 2253.007812 0.000000 0.141023 0.000000 0.990006 0.260584 0.260584 0.260584
5931.060059 0.000000 2237.024170 0.000000 0.198674 0.000000 0.980066 0.246292 0.246292 0.246292
5947.529785 0.000000 2203.537598 0.000000 0.574071 0.000000 0.818805 0.241583 0.241583 0.241583
5928.284180 0.000000 2241.357178 0.000000 0.582187 0.000000 0.813055 0.275757 0.275757 0.275757
6001.519043 0.000000 2209.220215 0.000000 0.026948 0.000000 0.999637 0.215169 0.215169 0.215169
5952.254883 0.000000 2250.031494 0.000000 0.403185 0.000000 0.915119 0.195717 0.195717 0.195717
5961.063965 0.000000 2233.352539 0.000000 0.448071 0.000000 0.893998 0.267881 0.267881 0.267881
6014.624512 0.000000 2211.710693 0.000000 0.030423 0.000000 0.999537 0.193383 0.193383 0.193383
5990.686523 0.000000 2203.196289 0.000000 0.042046 0.000000 0.999116 0.193469 0.193469 0.193469
5999.145508 0.000000 2221.038574 0.000000 0.417080 0.000000 0.908870 0.227527 0.227527 0.227527
5998.042969 0.000000 2208.745361 0.000000 0.320417 0.000000 0.947277 0.268621 0.268621 0.268621
5952.894531 0.000000 2233.190674 0.000000 0.064848 0.000000 0.997895 0.271239 0.271239 0.271239
5956.384766 0.000000 2253.663330 0.000000 0.362112 0.000000 0.932135 0.228879 0.228879 0.228879
5990.792969 0.000000 2205.702637 0.000000 0.101387 0.000000 0.994847 0.252055 0.252055 0.252055
5955.099121 0.000000 2229.592285 0.000000 0.092838 0.000000 0.995681 0.242070 0.242070 0.242070
6036.968750 0.000000 2198.531250 0.000000 0.055172 0.000000 0.998477 0.201393 0.201393 0.201393
6054.230957 0.000000 2184.935303 0.000000 0.272015 0.000000 0.962293 0.191592 0.191592 0.191592
6057.563477 0.000000 2172.897217 0.000000 0.499687 0.000000 0.866206 0.207240 0.207240 0.207240
6053.982422 0.000000 2196.667969 0.000000 0.304625 0.000000 0.952472 0.191561 0.191561 0.191561
6030.953125 0.000000 2200.377930 0.000000 0.102652 0.000000 0.994717 0.252541 0.252541 0.252541
6028.552734 0.000000 2172.600342 0.000000 0.311284 0.000000 0.950317 0.198009 0.198009 0.198009
6041.505859 0.000000 2200.177979 0.000000 0.550602 0.000000 0.834768 0.275634 0.275634 0.275634
6016.894531 0.000000 2176.706299 0.000000 0.403335 0.000000 0.915053 0.277929 0.277929 0.277929
6051.666992 0.000000 2182.892578 0.000000 0.015716 0.000000 0.999876 0.223653 0.223653 0.223653
6028.457520 0.000000 2198.182129 0.000000 0.022949 0.000000 0.999737 0.238842 0.238842 0.238842
6049.099609 0.000000 2180.355957 0.000000 0.378775 0.000000 0.925489 0.257515 0.257515 0.257515
6029.099609 0.000000 2166.182861 0.000000 0.404532 0.000000 0.914524 0.268110 0.268110 0.268110
6055.591309 0.000000 2188.242188 0.000000 0.046578 0.000000 0.998915 0.271689 0.271689 0.271689
6072.096680 0.000000 2174.050293 0.000000 0.465804 0.000000 0.884888 0.237591 0.237591 0.237591
6043.443848 0.000000 2178.671143 0.000000 0.229895 0.000000 0.973216 0.276386 0.276386 0.276386
6036.821777 0.000000 2177.517334 0.000000 0.245906 0.000000 0.969294 0.228546 0.228546 0.228546
6058.638672 0.000000 2196.838867 0.000000 0.493205 0.000000 0.869913 0.244937 0.244937 0.244937
6043.528320 0.000000 2180.945557 0.000000 0.478819 0.000000 0.877914 0.279536 0.279536 0.279536
6042.529785 0.000000 2201.812988 0.000000 0.206697 0.000000 0.978405 0.275252 0.275252 0.275252
6020.948730 0.000000 2203.005615 0.000000 0.000555 0.000000 1.000000 0.234818 0.234818 0.234818
5880.473633 0.000000 2267.505859 0.000000 0.182341 0.000000 0.983235 0.221053 0.221053 0.221053
5936.541992 0.000000 2281.960205 0.000000 0.123766 0.000000 0.992311 0.219974 0.219974 0.219974
5911.890625 0.000000 2278.432617 0.000000 0.183636 0.000000 0.982994 0.247045 0.247045 0.247045
5926.893555 0.000000 2278.822266 0.000000 0.307973 0.000000 0.951395 0.195471 0.195471 0.195471
5944.550781 0.000000 2292.234131 0.000000 0.440310 0.000000 0.897846 0.219283 0.219283 0.219283
5921.947754 0.000000 2308.848633 0.000000 0.317965 0.000000 0.948103 0.276180 0.276180 0.276180
5949.611816 0.000000 2298.134766 0.000000 0.014348 0.000000 0.999897 0.199117 0.199117 0.199117
5939.759277 0.000000 2290.739746 0.000000 0.498097 0.000000 0.867122 0.201103 0.201103 0.201103
5908.832520 0.000000 2271.954590 0.000000 0.400452 0.000000 0.916318 0.237247 0.237247 0.237247
5898.564941 0.000000 2261.923828 0.000000 0.051654 0.000000 0.998665 0.232590 0.232590 0.232590
5946.561523 0.000000 2291.134277 0.000000 0.257574 0.000000 0.966259 0.250921 0.250921 0.250921
5927.778320 0.000000 2315.209961 0.000000 0.556736 0.000000 0.830689 0.254880 0.254880 0.254880
5953.017578 0.000000 2286.068115 0.000000 0.309551 0.000000 0.950883 0.208495 0.208495 0.208495
5956.763672 0.000000 2295.567139 0.000000 0.184710 0.000000 0.982793 0.196517 0.196517 0.196517
5973.502930 0.000000 2307.694092 0.000000 0.016622 0.000000 0.999862 0.194748 0.194748 0.194748
5952.009766 0.000000 2301.567627 0.000000 0.125308 0.000000 0.992118 0.206865 0.206865 0.206865
5952.894531 0.000000 2289.675049 0.000000 0.353378 0.000000 0.935481 0.206391 0.206391 0.206391
5908.569336 0.000000 2321.245850 0.000000 0.288097 0.000000 0.957601 0.212272 0.212272 0.212272
5943.531250 0.000000 2326.463135 0.000000 0.301430 0.000000 0.953488 0.191900 0.191900 0.191900
5905.664551 0.000000 2322.515381 0.000000 0.218439 0.000000 0.975851 0.218981 0.218981 0.218981
5934.693848 0.000000 2347.917969 0.000000 0.498517 0.000000 0.866880 0.230501 0.230501 0.230501
5958.507812 0.000000 2367.950439 0.000000 0.150327 0.000000 0.988636 0.218302 0.218302 0.218302
5961.795410 0.000000 2315.883789 0.000000 0.224746 0.000000 0.974417 0.223442 0.223442 0.223442
6246.581055 0.000000 2012.077515 0.000000 0.563563 0.000000 0.826073 0.282708 0.282708 0.282708
6253.465820 0.000000 2021.249023 0.000000 0.417042 0.000000 0.908887 0.253214 0.253214 0.253214
6302.060547 0.000000 2251.045410 0.000000 0.362443 0.000000 0.932006 0.208980 0.208980 0.208980
6268.832520 0.000000 2291.696777 0.000000 0.375929 0.000000 0.926648 0.224576 0.224576 0.224576
6251.095215 0.000000 2273.693604 0.000000 0.460921 0.000000 0.887441 0.272005 0.272005 0.272005
6247.465820 0.000000 2269.260742 0.000000 0.506065 0.000000 0.862495 0.237121 0.237121 0.237121
6269.382324 0.000000 2289.677246 0.000000 0.151835 0.000000 0.988406 0.266814 0.266814 0.266814
6219.406250 0.000000 2348.930176 0.000000 0.160343 0.000000 0.987061 0.197813 0.197813 0.197813
6252.352051 0.000000 2333.120361 0.000000 0.257344 0.000000 0.966320 0.209016 0.209016 0.209016
6264.742188 0.000000 2345.753174 0.000000 0.285129 0.000000 0.958489 0.232896 0.232896 0.232896
6250.440430 0.000000 2332.068359 0.000000 0.333096 0.000000 0.942893 0.237874 0.237874 0.237874
6310.230957 0.000000 2297.904053 0.000000 0.191412 0.000000 0.981510 0.202017 0.202017 0.202017
6297.505859 0.000000 2313.146729 0.000000 0.396994 0.000000 0.917821 0.198707 0.198707 0.198707
6306.932617 0.000000 2313.451904 0.000000 0.087256 0.000000 0.996186 0.198717 0.198717 0.198717
6313.322754 0.000000 2307.650635 0.000000 0.570981 0.000000 0.820963 0.282616 0.282616 0.282616
6274.356934 0.000000 2264.273193 0.000000 0.423046 0.000000 0.906108 0.236048 0.236048 0.236048
6279.213379 0.000000 2297.574951 0.000000 0.165501 0.000000 0.986210 0.249647 0.249647 0.249647
6310.646484 0.000000 2291.532227 0.000000 0.567104 0.000000 0.823646 0.227817 0.227817 0.227817
6356.094727 0.000000 2274.775879 0.000000 0.547094 0.000000 0.837071 0.216388 0.216388 0.216388
6320.918945 0.000000 2330.845459 0.000000 0.075628 0.000000 0.997136 0.227631 0.227631 0.227631
"}
object={
	name="rainforest_sparse_generator_1_1"
	clamp_to_water_level=no
	render_under_water=no
	generated_content=yes
	layer="semidynamic"
	pdxmesh="tree_rainforest_002_mesh"
	count=168
	transform="2527.334473 0.000000 1566.063599 0.000000 0.909826 0.000000 0.414991 0.201060 0.201060 0.201060
2527.330566 0.000000 1557.499268 0.000000 0.950893 0.000000 0.309521 0.247047 0.247047 0.247047
2531.523193 0.000000 1569.723999 0.000000 0.635381 0.000000 0.772199 0.283942 0.283942 0.283942
2527.373291 0.000000 1568.511230 0.000000 0.844232 0.000000 0.535978 0.239379 0.239379 0.239379
2534.962158 0.000000 1569.258057 0.000000 0.741743 0.000000 0.670684 0.256118 0.256118 0.256118
2538.281250 0.000000 1567.289917 0.000000 0.932284 0.000000 0.361727 0.243707 0.243707 0.243707
2539.629150 0.000000 1565.469238 0.000000 0.590365 0.000000 0.807137 0.246368 0.246368 0.246368
2709.208252 0.000000 1790.894897 0.000000 0.741808 0.000000 0.670613 0.242166 0.242166 0.242166
2716.380127 0.000000 1805.865967 0.000000 0.852003 0.000000 0.523537 0.262760 0.262760 0.262760
2719.328613 0.000000 1801.337524 0.000000 0.857693 0.000000 0.514163 0.285487 0.285487 0.285487
2702.401855 0.000000 1792.711426 0.000000 0.809015 0.000000 0.587788 0.242881 0.242881 0.242881
2678.816650 0.000000 1808.750732 0.000000 0.769324 0.000000 0.638859 0.196999 0.196999 0.196999
2605.516602 0.000000 1878.717651 0.000000 0.748655 0.000000 0.662960 0.213602 0.213602 0.213602
2604.063232 0.000000 1872.973511 0.000000 0.838597 0.000000 0.544752 0.212764 0.212764 0.212764
2604.194824 0.000000 1876.061768 0.000000 0.937714 0.000000 0.347408 0.241179 0.241179 0.241179
2671.722412 0.000000 1908.304077 0.000000 0.725729 0.000000 0.687981 0.197055 0.197055 0.197055
2685.248291 0.000000 1909.986450 0.000000 0.887823 0.000000 0.460185 0.206610 0.206610 0.206610
2667.596436 0.000000 1912.525879 0.000000 0.929881 0.000000 0.367861 0.249558 0.249558 0.249558
2666.281250 0.000000 1906.196167 0.000000 0.665645 0.000000 0.746268 0.256735 0.256735 0.256735
2674.394287 0.000000 1916.106201 0.000000 0.694344 0.000000 0.719643 0.263383 0.263383 0.263383
2674.216309 0.000000 1908.529175 0.000000 0.697736 0.000000 0.716355 0.250672 0.250672 0.250672
2744.065674 0.000000 1832.862549 0.000000 0.688275 0.000000 0.725450 0.200335 0.200335 0.200335
2784.032227 0.000000 1844.437866 0.000000 0.891430 0.000000 0.453158 0.223319 0.223319 0.223319
2717.423096 0.000000 1902.536255 0.000000 0.750892 0.000000 0.660425 0.280961 0.280961 0.280961
2713.706787 0.000000 1877.623779 0.000000 0.900237 0.000000 0.435400 0.250811 0.250811 0.250811
2721.910400 0.000000 1906.307251 0.000000 0.824452 0.000000 0.565932 0.228961 0.228961 0.228961
2721.411865 0.000000 1878.941528 0.000000 0.888099 0.000000 0.459653 0.227534 0.227534 0.227534
2727.465576 0.000000 1873.870117 0.000000 0.642979 0.000000 0.765884 0.265933 0.265933 0.265933
2587.635498 0.000000 1943.519165 0.000000 0.623505 0.000000 0.781819 0.210039 0.210039 0.210039
2618.807129 0.000000 1983.607666 0.000000 0.805524 0.000000 0.592564 0.195693 0.195693 0.195693
2631.671631 0.000000 2001.809692 0.000000 0.594578 0.000000 0.804038 0.207156 0.207156 0.207156
2630.424561 0.000000 1997.313232 0.000000 0.639369 0.000000 0.768900 0.220018 0.220018 0.220018
2685.738281 0.000000 2005.202271 0.000000 0.781615 0.000000 0.623761 0.247051 0.247051 0.247051
2735.722412 0.000000 1964.788452 0.000000 0.784477 0.000000 0.620158 0.199821 0.199821 0.199821
2702.953369 0.000000 1974.440430 0.000000 0.771987 0.000000 0.635639 0.205483 0.205483 0.205483
2750.419189 0.000000 1962.616089 0.000000 0.709638 0.000000 0.704567 0.229220 0.229220 0.229220
2732.412598 0.000000 1962.742432 0.000000 0.934413 0.000000 0.356193 0.203159 0.203159 0.203159
2699.616455 0.000000 1949.809937 0.000000 0.946490 0.000000 0.322733 0.234963 0.234963 0.234963
2707.362793 0.000000 1948.456543 0.000000 0.773176 0.000000 0.634192 0.246369 0.246369 0.246369
2741.789307 0.000000 1963.912476 0.000000 0.920223 0.000000 0.391395 0.245494 0.245494 0.245494
2708.822021 0.000000 1951.579712 0.000000 0.896721 0.000000 0.442596 0.241638 0.241638 0.241638
2741.007812 0.000000 1961.619141 0.000000 0.606216 0.000000 0.795300 0.241040 0.241040 0.241040
2765.507080 0.000000 1956.283203 0.000000 0.919957 0.000000 0.392019 0.201245 0.201245 0.201245
2756.755371 0.000000 1948.341431 0.000000 0.801586 0.000000 0.597880 0.200559 0.200559 0.200559
2752.894775 0.000000 1950.768921 0.000000 0.698678 0.000000 0.715436 0.216095 0.216095 0.216095
2785.411865 0.000000 1935.425903 0.000000 0.894275 0.000000 0.447517 0.236766 0.236766 0.236766
2754.310791 0.000000 1957.079834 0.000000 0.947255 0.000000 0.320480 0.249620 0.249620 0.249620
2753.118652 0.000000 1965.198853 0.000000 0.757614 0.000000 0.652703 0.241924 0.241924 0.241924
2720.617920 0.000000 1980.318726 0.000000 0.857202 0.000000 0.514980 0.245478 0.245478 0.245478
2740.003906 0.000000 1980.280640 0.000000 0.938060 0.000000 0.346472 0.230371 0.230371 0.230371
2703.671387 0.000000 1978.482178 0.000000 0.917412 0.000000 0.397939 0.217958 0.217958 0.217958
2744.473389 0.000000 1985.083862 0.000000 0.785277 0.000000 0.619145 0.287249 0.287249 0.287249
2721.049316 0.000000 1978.203369 0.000000 0.683318 0.000000 0.730121 0.265707 0.265707 0.265707
2718.725830 0.000000 1980.545654 0.000000 0.684232 0.000000 0.729265 0.254012 0.254012 0.254012
5693.292480 0.000000 2215.449707 0.000000 0.755918 0.000000 0.654666 0.195207 0.195207 0.195207
5667.991211 0.000000 2218.617188 0.000000 0.787709 0.000000 0.616047 0.215713 0.215713 0.215713
5734.230957 0.000000 2241.419678 0.000000 0.828333 0.000000 0.560236 0.216322 0.216322 0.216322
5748.365234 0.000000 2242.156982 0.000000 0.790991 0.000000 0.611828 0.195611 0.195611 0.195611
5746.216309 0.000000 2247.435547 0.000000 0.944926 0.000000 0.327285 0.282981 0.282981 0.282981
5865.204590 0.000000 2239.451904 0.000000 0.856626 0.000000 0.515939 0.207177 0.207177 0.207177
5951.976562 0.000000 2140.537354 0.000000 0.835412 0.000000 0.549624 0.288886 0.288886 0.288886
5945.072754 0.000000 2140.039062 0.000000 0.699604 0.000000 0.714531 0.284798 0.284798 0.284798
5937.262695 0.000000 2144.482910 0.000000 0.891297 0.000000 0.453420 0.291012 0.291012 0.291012
5954.500488 0.000000 2109.666016 0.000000 0.794291 0.000000 0.607538 0.288777 0.288777 0.288777
5952.514160 0.000000 2106.002686 0.000000 0.767823 0.000000 0.640661 0.217535 0.217535 0.217535
5952.712402 0.000000 2108.142822 0.000000 0.696573 0.000000 0.717486 0.284718 0.284718 0.284718
5952.597656 0.000000 2110.389160 0.000000 0.810299 0.000000 0.586017 0.245528 0.245528 0.245528
6064.918945 0.000000 2104.907959 0.000000 0.848229 0.000000 0.529630 0.289340 0.289340 0.289340
6066.709961 0.000000 2104.011719 0.000000 0.948186 0.000000 0.317715 0.293825 0.293825 0.293825
6067.561035 0.000000 2116.183838 0.000000 0.737370 0.000000 0.675489 0.272458 0.272458 0.272458
5936.023926 0.000000 2198.941162 0.000000 0.803884 0.000000 0.594787 0.201118 0.201118 0.201118
5933.386719 0.000000 2201.113281 0.000000 0.915213 0.000000 0.402972 0.243202 0.243202 0.243202
5990.893555 0.000000 2165.853516 0.000000 0.922156 0.000000 0.386817 0.197343 0.197343 0.197343
6004.365234 0.000000 2185.672607 0.000000 0.812262 0.000000 0.583293 0.220832 0.220832 0.220832
6013.248047 0.000000 2192.408203 0.000000 0.679285 0.000000 0.733874 0.194281 0.194281 0.194281
5987.765137 0.000000 2172.253418 0.000000 0.717443 0.000000 0.696617 0.229335 0.229335 0.229335
6002.584961 0.000000 2174.300537 0.000000 0.916815 0.000000 0.399313 0.201728 0.201728 0.201728
6015.586426 0.000000 2199.840820 0.000000 0.814420 0.000000 0.580276 0.215048 0.215048 0.215048
5973.208496 0.000000 2186.285400 0.000000 0.944785 0.000000 0.327692 0.244118 0.244118 0.244118
6005.994141 0.000000 2167.692383 0.000000 0.618532 0.000000 0.785759 0.197566 0.197566 0.197566
5960.908691 0.000000 2192.306152 0.000000 0.737207 0.000000 0.675667 0.219727 0.219727 0.219727
6011.981445 0.000000 2201.625488 0.000000 0.782138 0.000000 0.623105 0.287152 0.287152 0.287152
5999.917480 0.000000 2183.188232 0.000000 0.727360 0.000000 0.686256 0.240368 0.240368 0.240368
5993.064941 0.000000 2198.111816 0.000000 0.946314 0.000000 0.323248 0.212680 0.212680 0.212680
5994.835938 0.000000 2152.412598 0.000000 0.766636 0.000000 0.642082 0.244166 0.244166 0.244166
5993.676758 0.000000 2164.473145 0.000000 0.921540 0.000000 0.388284 0.292384 0.292384 0.292384
5964.112305 0.000000 2161.312988 0.000000 0.926823 0.000000 0.375498 0.282169 0.282169 0.282169
5987.200195 0.000000 2159.203125 0.000000 0.862195 0.000000 0.506577 0.289914 0.289914 0.289914
5999.447754 0.000000 2159.092041 0.000000 0.876328 0.000000 0.481715 0.278207 0.278207 0.278207
5952.090332 0.000000 2149.701904 0.000000 0.781372 0.000000 0.624065 0.287903 0.287903 0.287903
5975.068359 0.000000 2150.917480 0.000000 0.610005 0.000000 0.792398 0.282530 0.282530 0.282530
6013.638184 0.000000 2166.129395 0.000000 0.734413 0.000000 0.678702 0.272391 0.272391 0.272391
6015.697754 0.000000 2191.130371 0.000000 0.866376 0.000000 0.499393 0.229752 0.229752 0.229752
5982.816895 0.000000 2160.843994 0.000000 0.929157 0.000000 0.369686 0.268340 0.268340 0.268340
5975.885254 0.000000 2172.186279 0.000000 0.671809 0.000000 0.740724 0.228683 0.228683 0.228683
6006.255859 0.000000 2155.166260 0.000000 0.854794 0.000000 0.518967 0.239072 0.239072 0.239072
6011.003418 0.000000 2192.416016 0.000000 0.847273 0.000000 0.531157 0.265788 0.265788 0.265788
6011.815430 0.000000 2165.125977 0.000000 0.865685 0.000000 0.500589 0.289987 0.289987 0.289987
5977.598145 0.000000 2170.037842 0.000000 0.668831 0.000000 0.743415 0.238919 0.238919 0.238919
5990.819824 0.000000 2198.657959 0.000000 0.689071 0.000000 0.724694 0.285521 0.285521 0.285521
5920.032227 0.000000 2239.828613 0.000000 0.786801 0.000000 0.617207 0.199848 0.199848 0.199848
5946.504395 0.000000 2226.649414 0.000000 0.588411 0.000000 0.808562 0.219409 0.219409 0.219409
5912.535645 0.000000 2219.245605 0.000000 0.829421 0.000000 0.558624 0.226406 0.226406 0.226406
5931.659668 0.000000 2239.070312 0.000000 0.910803 0.000000 0.412841 0.291872 0.291872 0.291872
5949.251953 0.000000 2209.705078 0.000000 0.788953 0.000000 0.614454 0.287784 0.287784 0.287784
5941.007812 0.000000 2244.041016 0.000000 0.840364 0.000000 0.542023 0.261936 0.261936 0.261936
5948.271484 0.000000 2211.404053 0.000000 0.636689 0.000000 0.771121 0.283182 0.283182 0.283182
5923.093262 0.000000 2225.266846 0.000000 0.751686 0.000000 0.659522 0.254766 0.254766 0.254766
6013.512207 0.000000 2202.916748 0.000000 0.770405 0.000000 0.637555 0.226487 0.226487 0.226487
5987.200195 0.000000 2215.687500 0.000000 0.918268 0.000000 0.395959 0.236300 0.236300 0.236300
5970.498535 0.000000 2206.708740 0.000000 0.920264 0.000000 0.391297 0.292322 0.292322 0.292322
5954.627930 0.000000 2231.597900 0.000000 0.881775 0.000000 0.471670 0.290619 0.290619 0.290619
5978.165527 0.000000 2211.148438 0.000000 0.638341 0.000000 0.769754 0.238971 0.238971 0.238971
5971.236816 0.000000 2214.213623 0.000000 0.672174 0.000000 0.740393 0.277115 0.277115 0.277115
6037.705078 0.000000 2173.273926 0.000000 0.865179 0.000000 0.501464 0.196341 0.196341 0.196341
6065.272949 0.000000 2180.031250 0.000000 0.810932 0.000000 0.585141 0.195646 0.195646 0.195646
6057.260742 0.000000 2190.628418 0.000000 0.882433 0.000000 0.470437 0.211350 0.211350 0.211350
6045.237305 0.000000 2179.928467 0.000000 0.926841 0.000000 0.375453 0.260743 0.260743 0.260743
6045.530273 0.000000 2173.698730 0.000000 0.685415 0.000000 0.728152 0.254544 0.254544 0.254544
6063.917480 0.000000 2183.188232 0.000000 0.820098 0.000000 0.572223 0.279154 0.279154 0.279154
6018.356934 0.000000 2151.304443 0.000000 0.768189 0.000000 0.640223 0.287121 0.287121 0.287121
6024.667480 0.000000 2151.185547 0.000000 0.917516 0.000000 0.397699 0.216340 0.216340 0.216340
6025.084961 0.000000 2157.224121 0.000000 0.689188 0.000000 0.724582 0.235117 0.235117 0.235117
6019.820801 0.000000 2160.211670 0.000000 0.920442 0.000000 0.390880 0.227739 0.227739 0.227739
6061.814941 0.000000 2182.952393 0.000000 0.855584 0.000000 0.517665 0.282279 0.282279 0.282279
6078.854492 0.000000 2172.989746 0.000000 0.640707 0.000000 0.767786 0.275444 0.275444 0.275444
6030.368652 0.000000 2202.259766 0.000000 0.867099 0.000000 0.498135 0.280018 0.280018 0.280018
6083.837402 0.000000 2169.968262 0.000000 0.897650 0.000000 0.440709 0.245936 0.245936 0.245936
6085.141602 0.000000 2171.912598 0.000000 0.789024 0.000000 0.614362 0.277809 0.277809 0.277809
6028.978516 0.000000 2203.626709 0.000000 0.661626 0.000000 0.749834 0.196413 0.196413 0.196413
6024.667480 0.000000 2207.669922 0.000000 0.766061 0.000000 0.642767 0.221706 0.221706 0.221706
6036.994629 0.000000 2205.443359 0.000000 0.699768 0.000000 0.714371 0.230629 0.230629 0.230629
6050.934570 0.000000 2206.459717 0.000000 0.722618 0.000000 0.691248 0.272129 0.272129 0.272129
6022.912598 0.000000 2202.892334 0.000000 0.684035 0.000000 0.729449 0.268767 0.268767 0.268767
5900.978516 0.000000 2260.111084 0.000000 0.930417 0.000000 0.366504 0.205790 0.205790 0.205790
5902.220703 0.000000 2276.455811 0.000000 0.681901 0.000000 0.731445 0.207570 0.207570 0.207570
5915.131348 0.000000 2275.496094 0.000000 0.946128 0.000000 0.323794 0.246331 0.246331 0.246331
5915.932617 0.000000 2279.644531 0.000000 0.885234 0.000000 0.465146 0.253064 0.253064 0.253064
5930.288574 0.000000 2282.522705 0.000000 0.710723 0.000000 0.703472 0.241641 0.241641 0.241641
5892.948730 0.000000 2259.489990 0.000000 0.783678 0.000000 0.621167 0.217761 0.217761 0.217761
5909.235840 0.000000 2279.236084 0.000000 0.602177 0.000000 0.798363 0.233360 0.233360 0.233360
5951.374512 0.000000 2299.470459 0.000000 0.942887 0.000000 0.333113 0.249461 0.249461 0.249461
5927.260742 0.000000 2280.979004 0.000000 0.810849 0.000000 0.585256 0.254436 0.254436 0.254436
5915.504395 0.000000 2273.353271 0.000000 0.846453 0.000000 0.532463 0.257359 0.257359 0.257359
5963.959473 0.000000 2307.865967 0.000000 0.893822 0.000000 0.448423 0.204560 0.204560 0.204560
5959.979980 0.000000 2301.510254 0.000000 0.713274 0.000000 0.700886 0.197975 0.197975 0.197975
5952.163086 0.000000 2294.121582 0.000000 0.700851 0.000000 0.713308 0.273181 0.273181 0.273181
5975.371094 0.000000 2302.388916 0.000000 0.615110 0.000000 0.788442 0.237103 0.237103 0.237103
5954.575684 0.000000 2300.501953 0.000000 0.799645 0.000000 0.600473 0.231161 0.231161 0.231161
5933.434082 0.000000 2345.588623 0.000000 0.727875 0.000000 0.685710 0.205481 0.205481 0.205481
5936.580566 0.000000 2346.300049 0.000000 0.695183 0.000000 0.718833 0.211369 0.211369 0.211369
5941.633789 0.000000 2352.916504 0.000000 0.708024 0.000000 0.706189 0.248801 0.248801 0.248801
5958.215332 0.000000 2364.797119 0.000000 0.710752 0.000000 0.703443 0.194799 0.194799 0.194799
6247.147461 0.000000 2013.856445 0.000000 0.927844 0.000000 0.372967 0.293201 0.293201 0.293201
6295.371094 0.000000 2245.904541 0.000000 0.875531 0.000000 0.483161 0.209622 0.209622 0.209622
6284.457520 0.000000 2254.666504 0.000000 0.738300 0.000000 0.674472 0.232768 0.232768 0.232768
6300.161133 0.000000 2251.502686 0.000000 0.766880 0.000000 0.641790 0.253516 0.253516 0.253516
6271.487305 0.000000 2289.602783 0.000000 0.644868 0.000000 0.764294 0.224718 0.224718 0.224718
6267.211426 0.000000 2288.993164 0.000000 0.892810 0.000000 0.450433 0.252738 0.252738 0.252738
6266.561523 0.000000 2291.134277 0.000000 0.718763 0.000000 0.695255 0.245386 0.245386 0.245386
6217.203613 0.000000 2351.560059 0.000000 0.705358 0.000000 0.708851 0.194493 0.194493 0.194493
6252.083496 0.000000 2335.920410 0.000000 0.808545 0.000000 0.588434 0.229737 0.229737 0.229737
6298.709961 0.000000 2296.415039 0.000000 0.621030 0.000000 0.783787 0.242276 0.242276 0.242276
6281.866211 0.000000 2298.447266 0.000000 0.641263 0.000000 0.767321 0.250216 0.250216 0.250216
6303.328613 0.000000 2309.696777 0.000000 0.895183 0.000000 0.445699 0.224470 0.224470 0.224470
6315.628906 0.000000 2299.766113 0.000000 0.728877 0.000000 0.684645 0.252780 0.252780 0.252780
6298.074219 0.000000 2346.375732 0.000000 0.917114 0.000000 0.398625 0.197144 0.197144 0.197144
6316.352051 0.000000 2333.120361 0.000000 0.840960 0.000000 0.541097 0.225551 0.225551 0.225551
"}
object={
	name="rainforest_sparse_generator_1_2"
	clamp_to_water_level=no
	render_under_water=no
	generated_content=yes
	layer="semidynamic"
	pdxmesh="tree_rainforest_004_mesh"
	count=163
	transform="2543.722412 0.000000 1569.397827 0.000000 0.964789 0.000000 -0.263027 0.201728 0.201728 0.201728
2526.060547 0.000000 1573.233032 0.000000 0.981173 0.000000 0.193133 0.276413 0.276413 0.276413
2532.620605 0.000000 1571.786621 0.000000 0.971875 0.000000 -0.235496 0.304264 0.304264 0.304264
2524.947998 0.000000 1555.149902 0.000000 0.996094 0.000000 -0.088297 0.278875 0.278875 0.278875
2526.716309 0.000000 1571.316162 0.000000 0.996805 0.000000 0.079869 0.277540 0.277540 0.277540
2721.947754 0.000000 1800.489136 0.000000 0.978268 0.000000 -0.207343 0.222841 0.222841 0.222841
2692.384766 0.000000 1801.788330 0.000000 0.990834 0.000000 0.135081 0.231438 0.231438 0.231438
2695.440674 0.000000 1801.422729 0.000000 0.953406 0.000000 -0.301691 0.283200 0.283200 0.283200
2564.458496 0.000000 1918.450317 0.000000 0.997944 0.000000 -0.064085 0.223261 0.223261 0.223261
2609.519043 0.000000 1870.313965 0.000000 0.957024 0.000000 0.290010 0.198002 0.198002 0.198002
2590.236816 0.000000 1916.514282 0.000000 0.997273 0.000000 -0.073796 0.200503 0.200503 0.200503
2595.764893 0.000000 1889.831665 0.000000 0.993626 0.000000 0.112726 0.199224 0.199224 0.199224
2615.531250 0.000000 1874.588013 0.000000 0.993366 0.000000 -0.114994 0.224283 0.224283 0.224283
2604.083252 0.000000 1884.045410 0.000000 0.993615 0.000000 -0.112825 0.233887 0.233887 0.233887
2609.687988 0.000000 1872.936890 0.000000 0.998387 0.000000 0.056772 0.232214 0.232214 0.232214
2668.662354 0.000000 1914.564575 0.000000 0.994011 0.000000 -0.109278 0.256504 0.256504 0.256504
2677.861084 0.000000 1912.050781 0.000000 0.993833 0.000000 -0.110883 0.266160 0.266160 0.266160
2669.942871 0.000000 1885.925293 0.000000 0.999009 0.000000 0.044503 0.246837 0.246837 0.246837
2673.129150 0.000000 1914.390259 0.000000 0.991661 0.000000 -0.128870 0.302221 0.302221 0.302221
2746.504395 0.000000 1831.258911 0.000000 0.993405 0.000000 0.114658 0.237182 0.237182 0.237182
2744.096680 0.000000 1835.143921 0.000000 0.959333 0.000000 -0.282277 0.245954 0.245954 0.245954
2746.807129 0.000000 1870.638916 0.000000 0.997788 0.000000 -0.066482 0.200463 0.200463 0.200463
2720.426758 0.000000 1876.422241 0.000000 0.997275 0.000000 0.073772 0.203103 0.203103 0.203103
2728.974609 0.000000 1875.505981 0.000000 0.961926 0.000000 0.273311 0.256191 0.256191 0.256191
2723.200439 0.000000 1876.781372 0.000000 0.993057 0.000000 0.117630 0.239366 0.239366 0.239366
2711.068359 0.000000 1868.495483 0.000000 0.994370 0.000000 -0.105968 0.227030 0.227030 0.227030
2698.329590 0.000000 1888.688965 0.000000 0.951951 0.000000 -0.306250 0.257783 0.257783 0.257783
2718.816895 0.000000 1878.422119 0.000000 0.998850 0.000000 -0.047947 0.283357 0.283357 0.283357
2716.979980 0.000000 1879.263550 0.000000 0.966975 0.000000 -0.254871 0.298650 0.298650 0.298650
2773.208252 0.000000 1903.863647 0.000000 0.963390 0.000000 0.268103 0.214252 0.214252 0.214252
2614.816650 0.000000 1978.203857 0.000000 0.999823 0.000000 0.018822 0.239298 0.239298 0.239298
2676.365479 0.000000 2016.219360 0.000000 0.993532 0.000000 0.113555 0.222228 0.222228 0.222228
2645.208252 0.000000 2016.832397 0.000000 0.998915 0.000000 -0.046561 0.234357 0.234357 0.234357
2636.526855 0.000000 1999.998901 0.000000 0.957680 0.000000 0.287836 0.256001 0.256001 0.256001
2628.756592 0.000000 1995.746338 0.000000 0.954613 0.000000 -0.297848 0.242093 0.242093 0.242093
2666.678223 0.000000 2015.128174 0.000000 0.951242 0.000000 0.308446 0.238378 0.238378 0.238378
2686.854736 0.000000 2003.536499 0.000000 0.995200 0.000000 -0.097865 0.270518 0.270518 0.270518
2715.131592 0.000000 1936.589966 0.000000 0.956012 0.000000 -0.293327 0.241467 0.241467 0.241467
2747.211426 0.000000 1950.086914 0.000000 0.999628 0.000000 0.027258 0.206237 0.206237 0.206237
2723.666992 0.000000 1956.954956 0.000000 0.992955 0.000000 0.118494 0.248768 0.248768 0.248768
2749.032959 0.000000 1942.656860 0.000000 0.996927 0.000000 -0.078342 0.301442 0.301442 0.301442
2746.637451 0.000000 1947.402466 0.000000 0.997448 0.000000 0.071400 0.244865 0.244865 0.244865
2749.738281 0.000000 1948.717896 0.000000 0.970188 0.000000 -0.242355 0.258712 0.258712 0.258712
2731.407227 0.000000 1964.696777 0.000000 0.980258 0.000000 -0.197723 0.251296 0.251296 0.251296
2780.793701 0.000000 1923.310547 0.000000 0.986136 0.000000 0.165939 0.198872 0.198872 0.198872
2761.203857 0.000000 1956.169556 0.000000 0.998558 0.000000 -0.053692 0.301002 0.301002 0.301002
2793.260742 0.000000 1964.690918 0.000000 0.997018 0.000000 -0.077176 0.200525 0.200525 0.200525
2799.868652 0.000000 1968.879761 0.000000 0.957574 0.000000 -0.288187 0.249480 0.249480 0.249480
2780.431641 0.000000 1927.976562 0.000000 0.971920 0.000000 0.235313 0.213439 0.213439 0.213439
2758.395264 0.000000 1950.524414 0.000000 0.980479 0.000000 0.196625 0.239067 0.239067 0.239067
2754.026611 0.000000 1969.094971 0.000000 0.971749 0.000000 0.236018 0.241920 0.241920 0.241920
2763.263184 0.000000 1957.031128 0.000000 0.992083 0.000000 -0.125581 0.267489 0.267489 0.267489
2795.407227 0.000000 1964.696777 0.000000 0.967237 0.000000 0.253874 0.249357 0.249357 0.249357
2696.407471 0.000000 1984.765503 0.000000 0.954330 0.000000 0.298755 0.200335 0.200335 0.200335
2722.900879 0.000000 1977.017822 0.000000 0.956497 0.000000 0.291742 0.253237 0.253237 0.253237
2733.943604 0.000000 1979.308105 0.000000 0.968892 0.000000 -0.247484 0.204323 0.204323 0.204323
2740.014648 0.000000 1985.796387 0.000000 0.975133 0.000000 -0.221619 0.258453 0.258453 0.258453
2714.987305 0.000000 1977.041870 0.000000 0.957289 0.000000 0.289131 0.217889 0.217889 0.217889
2747.100830 0.000000 1987.045898 0.000000 0.970002 0.000000 -0.243095 0.219729 0.219729 0.219729
2715.677979 0.000000 1981.967285 0.000000 0.978592 0.000000 0.205808 0.243357 0.243357 0.243357
5684.014648 0.000000 2211.733887 0.000000 0.999303 0.000000 0.037326 0.218447 0.218447 0.218447
5738.288574 0.000000 2226.038330 0.000000 0.999555 0.000000 -0.029819 0.210037 0.210037 0.210037
5754.561523 0.000000 2234.649902 0.000000 0.971926 0.000000 0.235285 0.257231 0.257231 0.257231
5786.245605 0.000000 2221.402588 0.000000 0.973870 0.000000 -0.227105 0.253934 0.253934 0.253934
5868.376953 0.000000 2249.158203 0.000000 0.997530 0.000000 0.070247 0.258782 0.258782 0.258782
5927.299805 0.000000 2136.301270 0.000000 0.976608 0.000000 -0.215026 0.279589 0.279589 0.279589
5946.520996 0.000000 2143.834473 0.000000 0.982958 0.000000 0.183829 0.265580 0.265580 0.265580
5935.350098 0.000000 2144.665039 0.000000 0.986399 0.000000 0.164367 0.267496 0.267496 0.267496
6065.394043 0.000000 2115.251709 0.000000 0.992743 0.000000 0.120259 0.297910 0.297910 0.297910
6066.516602 0.000000 2105.953369 0.000000 0.981312 0.000000 0.192423 0.296302 0.296302 0.296302
6066.395020 0.000000 2119.938477 0.000000 0.990762 0.000000 0.135613 0.268445 0.268445 0.268445
5950.390625 0.000000 2202.166748 0.000000 0.975284 0.000000 -0.220953 0.259592 0.259592 0.259592
5928.647949 0.000000 2147.732910 0.000000 0.986315 0.000000 -0.164873 0.294273 0.294273 0.294273
5933.836426 0.000000 2199.039062 0.000000 0.982592 0.000000 -0.185778 0.249445 0.249445 0.249445
5994.009766 0.000000 2201.343018 0.000000 0.976007 0.000000 -0.217738 0.210946 0.210946 0.210946
6009.910645 0.000000 2194.357178 0.000000 0.997350 0.000000 0.072759 0.298609 0.298609 0.298609
6010.305176 0.000000 2190.387695 0.000000 0.992926 0.000000 -0.118735 0.302202 0.302202 0.302202
5977.681152 0.000000 2180.183838 0.000000 0.955178 0.000000 0.296033 0.228179 0.228179 0.228179
6000.580566 0.000000 2176.846924 0.000000 0.999265 0.000000 0.038325 0.299271 0.299271 0.299271
6010.637207 0.000000 2173.339844 0.000000 0.959476 0.000000 -0.281792 0.222940 0.222940 0.222940
5962.329590 0.000000 2171.110840 0.000000 0.988472 0.000000 0.151402 0.266023 0.266023 0.266023
5993.128906 0.000000 2167.271973 0.000000 0.975951 0.000000 0.217991 0.241575 0.241575 0.241575
5970.498535 0.000000 2150.224365 0.000000 0.974283 0.000000 0.225328 0.270471 0.270471 0.270471
6007.044922 0.000000 2185.494629 0.000000 0.999960 0.000000 0.008890 0.276902 0.276902 0.276902
6006.180664 0.000000 2170.256348 0.000000 0.973256 0.000000 0.229722 0.238706 0.238706 0.238706
6002.103516 0.000000 2194.739258 0.000000 0.982924 0.000000 0.184013 0.243054 0.243054 0.243054
6013.382324 0.000000 2176.708496 0.000000 0.969498 0.000000 0.245099 0.295271 0.295271 0.295271
5987.217285 0.000000 2157.244873 0.000000 0.990647 0.000000 0.136450 0.297417 0.297417 0.297417
5973.843750 0.000000 2196.690918 0.000000 0.974164 0.000000 0.225842 0.296016 0.296016 0.296016
5958.912598 0.000000 2146.407959 0.000000 0.956277 0.000000 0.292462 0.294476 0.294476 0.294476
6009.007324 0.000000 2192.066895 0.000000 0.997424 0.000000 -0.071733 0.267339 0.267339 0.267339
5980.161133 0.000000 2195.018311 0.000000 0.991345 0.000000 0.131285 0.297722 0.297722 0.297722
5892.458496 0.000000 2257.356689 0.000000 0.999832 0.000000 0.018331 0.199874 0.199874 0.199874
5946.807129 0.000000 2209.545166 0.000000 0.974628 0.000000 -0.223830 0.304311 0.304311 0.304311
5935.722656 0.000000 2247.210205 0.000000 0.998143 0.000000 0.060920 0.268917 0.268917 0.268917
5929.260742 0.000000 2247.112793 0.000000 0.989176 0.000000 -0.146732 0.266064 0.266064 0.266064
5949.248047 0.000000 2248.892578 0.000000 0.997830 0.000000 0.065845 0.235464 0.235464 0.235464
5933.434082 0.000000 2232.619873 0.000000 0.997383 0.000000 -0.072294 0.203042 0.203042 0.203042
5950.270020 0.000000 2207.322021 0.000000 0.986631 0.000000 -0.162967 0.248614 0.248614 0.248614
5944.473633 0.000000 2211.021484 0.000000 0.982385 0.000000 -0.186866 0.253454 0.253454 0.253454
5932.051758 0.000000 2234.984863 0.000000 0.991413 0.000000 0.130767 0.297540 0.297540 0.297540
5934.782227 0.000000 2244.954834 0.000000 0.975898 0.000000 -0.218226 0.242949 0.242949 0.242949
5951.273438 0.000000 2214.281738 0.000000 0.954531 0.000000 -0.298111 0.305657 0.305657 0.305657
5941.789062 0.000000 2246.334473 0.000000 0.963464 0.000000 -0.267838 0.240616 0.240616 0.240616
5937.031738 0.000000 2249.229248 0.000000 0.997711 0.000000 -0.067619 0.263898 0.263898 0.263898
5938.216309 0.000000 2247.435547 0.000000 0.996248 0.000000 -0.086540 0.257359 0.257359 0.257359
5989.432617 0.000000 2213.917725 0.000000 0.967980 0.000000 -0.251027 0.291657 0.291657 0.291657
5961.604492 0.000000 2230.344971 0.000000 0.951830 0.000000 -0.306627 0.242189 0.242189 0.242189
5969.664551 0.000000 2209.546631 0.000000 0.966039 0.000000 -0.258396 0.253160 0.253160 0.253160
5989.463867 0.000000 2210.496094 0.000000 0.962006 0.000000 0.273029 0.294718 0.294718 0.294718
5976.535645 0.000000 2219.245605 0.000000 0.998563 0.000000 -0.053589 0.231049 0.231049 0.231049
5953.118652 0.000000 2247.620850 0.000000 0.977012 0.000000 0.213186 0.233950 0.233950 0.233950
5961.322266 0.000000 2221.858154 0.000000 0.986720 0.000000 -0.162431 0.256582 0.256582 0.256582
5987.217285 0.000000 2213.729248 0.000000 0.985463 0.000000 -0.169889 0.273789 0.273789 0.273789
6020.458496 0.000000 2200.872314 0.000000 0.989628 0.000000 -0.143652 0.200946 0.200946 0.200946
6060.760254 0.000000 2184.911377 0.000000 0.987145 0.000000 -0.159828 0.238336 0.238336 0.238336
6070.381836 0.000000 2175.733887 0.000000 0.980409 0.000000 0.196973 0.227521 0.227521 0.227521
6045.392090 0.000000 2191.079590 0.000000 0.957097 0.000000 0.289767 0.204777 0.204777 0.204777
6048.449219 0.000000 2172.401611 0.000000 0.993674 0.000000 -0.112307 0.212944 0.212944 0.212944
6052.029297 0.000000 2164.958984 0.000000 0.968163 0.000000 0.250322 0.216598 0.216598 0.216598
6034.128418 0.000000 2167.167969 0.000000 0.977508 0.000000 0.210900 0.253165 0.253165 0.253165
6062.693848 0.000000 2178.464844 0.000000 0.969878 0.000000 -0.243590 0.246094 0.246094 0.246094
6035.362793 0.000000 2174.394043 0.000000 0.974705 0.000000 -0.223496 0.288912 0.288912 0.288912
6059.596680 0.000000 2194.947754 0.000000 0.999425 0.000000 -0.033892 0.246035 0.246035 0.246035
6016.144043 0.000000 2174.806396 0.000000 0.987216 0.000000 -0.159388 0.293042 0.293042 0.293042
6052.045898 0.000000 2208.165527 0.000000 0.989188 0.000000 -0.146654 0.302811 0.302811 0.302811
6025.084961 0.000000 2213.708496 0.000000 0.954608 0.000000 0.297866 0.213992 0.213992 0.213992
6039.068359 0.000000 2207.401855 0.000000 0.999840 0.000000 0.017860 0.238190 0.238190 0.238190
6022.363770 0.000000 2212.403320 0.000000 0.951373 0.000000 -0.308040 0.235858 0.235858 0.235858
6026.618164 0.000000 2216.435059 0.000000 0.997005 0.000000 0.077343 0.259248 0.259248 0.259248
5906.127930 0.000000 2272.651123 0.000000 0.983484 0.000000 0.180996 0.230430 0.230430 0.230430
5943.107910 0.000000 2304.576416 0.000000 0.955540 0.000000 0.294862 0.231458 0.231458 0.231458
5893.464844 0.000000 2264.156982 0.000000 0.999952 0.000000 -0.009837 0.245207 0.245207 0.245207
5921.448730 0.000000 2282.671875 0.000000 0.998513 0.000000 -0.054513 0.235563 0.235563 0.235563
5904.939453 0.000000 2275.303711 0.000000 0.996279 0.000000 0.086189 0.257471 0.257471 0.257471
5911.408203 0.000000 2271.213135 0.000000 0.972457 0.000000 0.233081 0.234837 0.234837 0.234837
5910.077637 0.000000 2276.549561 0.000000 0.984989 0.000000 -0.172616 0.244735 0.244735 0.244735
5951.697754 0.000000 2304.099121 0.000000 0.982498 0.000000 0.186272 0.230377 0.230377 0.230377
5912.535645 0.000000 2275.729980 0.000000 0.984695 0.000000 0.174286 0.234904 0.234904 0.234904
5914.245605 0.000000 2277.886963 0.000000 0.995710 0.000000 0.092533 0.231305 0.231305 0.231305
5951.163574 0.000000 2292.049561 0.000000 0.999906 0.000000 0.013677 0.299756 0.299756 0.299756
5928.688965 0.000000 2283.775391 0.000000 0.970213 0.000000 -0.242254 0.254115 0.254115 0.254115
5898.618164 0.000000 2272.919434 0.000000 0.988615 0.000000 0.150470 0.252256 0.252256 0.252256
5972.089355 0.000000 2304.191895 0.000000 0.988739 0.000000 0.149647 0.231846 0.231846 0.231846
5973.208496 0.000000 2299.254150 0.000000 0.973452 0.000000 0.228890 0.236525 0.236525 0.236525
5932.051758 0.000000 2347.953613 0.000000 0.999984 0.000000 -0.005733 0.230587 0.230587 0.230587
5955.837402 0.000000 2339.421387 0.000000 0.990974 0.000000 -0.134057 0.234098 0.234098 0.234098
5961.084961 0.000000 2326.677246 0.000000 0.973752 0.000000 -0.227612 0.224738 0.224738 0.224738
6248.284180 0.000000 2015.419678 0.000000 0.991899 0.000000 -0.127031 0.266373 0.266373 0.266373
6266.028320 0.000000 2272.473633 0.000000 0.998466 0.000000 -0.055374 0.239514 0.239514 0.239514
6253.375000 0.000000 2340.781006 0.000000 0.978174 0.000000 0.207787 0.203216 0.203216 0.203216
6227.576660 0.000000 2351.311035 0.000000 0.962272 0.000000 -0.272089 0.255628 0.255628 0.255628
6293.208496 0.000000 2299.254150 0.000000 0.977619 0.000000 0.210382 0.203747 0.203747 0.203747
6304.426758 0.000000 2271.812744 0.000000 0.995380 0.000000 0.096019 0.276749 0.276749 0.276749
6310.535645 0.000000 2288.883057 0.000000 0.976058 0.000000 -0.217512 0.209233 0.209233 0.209233
6295.836426 0.000000 2309.987793 0.000000 0.975570 0.000000 0.219689 0.250866 0.250866 0.250866
6313.967773 0.000000 2289.192871 0.000000 0.985339 0.000000 -0.170605 0.225357 0.225357 0.225357
6308.759766 0.000000 2280.751221 0.000000 0.985734 0.000000 -0.168311 0.253804 0.253804 0.253804
6306.111328 0.000000 2290.990234 0.000000 0.981853 0.000000 -0.189643 0.232372 0.232372 0.232372
6312.199219 0.000000 2290.220947 0.000000 0.990306 0.000000 0.138906 0.249082 0.249082 0.249082
6290.979980 0.000000 2299.388916 0.000000 0.999848 0.000000 -0.017431 0.300319 0.300319 0.300319
6353.939453 0.000000 2301.170654 0.000000 0.958105 0.000000 -0.286417 0.248883 0.248883 0.248883
6301.237305 0.000000 2349.381592 0.000000 0.968072 0.000000 0.250672 0.210019 0.210019 0.210019
"}
object={
	name="rainforest_sparse_generator_1_3"
	clamp_to_water_level=no
	render_under_water=no
	generated_content=yes
	layer="semidynamic"
	pdxmesh="tree_rainforest_005_mesh"
	count=163
	transform="2529.947754 0.000000 1574.551636 0.000000 0.752229 0.000000 -0.658901 0.266879 0.266879 0.266879
2540.412598 0.000000 1567.351807 0.000000 0.940258 0.000000 -0.340463 0.250094 0.250094 0.250094
2528.544434 0.000000 1572.409668 0.000000 0.929501 0.000000 -0.368820 0.307214 0.307214 0.307214
2523.444092 0.000000 1557.343140 0.000000 0.941276 0.000000 -0.337637 0.272119 0.272119 0.272119
2698.618408 0.000000 1802.458862 0.000000 0.904252 0.000000 -0.427000 0.299317 0.299317 0.299317
2682.385010 0.000000 1810.092041 0.000000 0.898300 0.000000 -0.439383 0.213354 0.213354 0.213354
2657.062500 0.000000 1859.573975 0.000000 0.934962 0.000000 -0.354747 0.251426 0.251426 0.251426
2682.368164 0.000000 1915.910278 0.000000 0.888712 0.000000 -0.458465 0.208280 0.208280 0.208280
2661.432373 0.000000 1875.011475 0.000000 0.819327 0.000000 -0.573326 0.228137 0.228137 0.228137
2679.107910 0.000000 1909.185669 0.000000 0.665547 0.000000 -0.746356 0.221783 0.221783 0.221783
2672.024170 0.000000 1916.519409 0.000000 0.926867 0.000000 -0.375390 0.222067 0.222067 0.222067
2668.376709 0.000000 1910.252075 0.000000 0.947636 0.000000 -0.319352 0.283472 0.283472 0.283472
2665.656006 0.000000 1904.094116 0.000000 0.721452 0.000000 -0.692465 0.313405 0.313405 0.313405
2671.917480 0.000000 1900.766357 0.000000 0.920045 0.000000 -0.391812 0.240229 0.240229 0.240229
2670.782471 0.000000 1906.048462 0.000000 0.681056 0.000000 -0.732231 0.245094 0.245094 0.245094
2729.204590 0.000000 1844.061401 0.000000 0.828022 0.000000 -0.560695 0.210334 0.210334 0.210334
2719.453613 0.000000 1880.714478 0.000000 0.892863 0.000000 -0.450328 0.212285 0.212285 0.212285
2703.273193 0.000000 1885.902954 0.000000 0.887058 0.000000 -0.461657 0.245118 0.245118 0.245118
2707.007568 0.000000 1882.062744 0.000000 0.761014 0.000000 -0.648736 0.225416 0.225416 0.225416
2728.763184 0.000000 1879.106567 0.000000 0.752717 0.000000 -0.658345 0.210663 0.210663 0.210663
2694.424561 0.000000 1884.344482 0.000000 0.752794 0.000000 -0.658256 0.210069 0.210069 0.210069
2723.666992 0.000000 1900.470581 0.000000 0.900325 0.000000 -0.435217 0.251828 0.251828 0.251828
2730.835938 0.000000 1869.990601 0.000000 0.753976 0.000000 -0.656902 0.235052 0.235052 0.235052
2700.526855 0.000000 1887.030151 0.000000 0.834613 0.000000 -0.550836 0.217296 0.217296 0.217296
2770.230469 0.000000 1902.019897 0.000000 0.644738 0.000000 -0.764403 0.238920 0.238920 0.238920
2615.060791 0.000000 1962.068481 0.000000 0.864496 0.000000 -0.502639 0.222697 0.222697 0.222697
2611.634277 0.000000 1963.196655 0.000000 0.932085 0.000000 -0.362241 0.222524 0.222524 0.222524
2613.789307 0.000000 1963.912476 0.000000 0.845478 0.000000 -0.534010 0.242454 0.242454 0.242454
2687.487305 0.000000 1950.696411 0.000000 0.874206 0.000000 -0.485555 0.233074 0.233074 0.233074
2609.519043 0.000000 1983.282715 0.000000 0.891439 0.000000 -0.453140 0.203100 0.203100 0.203100
2610.317871 0.000000 1981.406250 0.000000 0.701995 0.000000 -0.712182 0.266571 0.266571 0.266571
2644.089355 0.000000 2021.770020 0.000000 0.851566 0.000000 -0.524247 0.243516 0.243516 0.243516
2680.315674 0.000000 2013.962158 0.000000 0.937375 0.000000 -0.348321 0.232805 0.232805 0.232805
2648.535645 0.000000 1993.308105 0.000000 0.887415 0.000000 -0.460972 0.250389 0.250389 0.250389
2746.544434 0.000000 1960.891846 0.000000 0.765141 0.000000 -0.643863 0.239067 0.239067 0.239067
2736.205322 0.000000 1976.927490 0.000000 0.942652 0.000000 -0.333777 0.202319 0.202319 0.202319
2695.671631 0.000000 1945.325317 0.000000 0.588351 0.000000 -0.808606 0.206184 0.206184 0.206184
2749.248291 0.000000 1966.470825 0.000000 0.683427 0.000000 -0.730019 0.205598 0.205598 0.205598
2749.212891 0.000000 1945.860474 0.000000 0.737900 0.000000 -0.674910 0.314149 0.314149 0.314149
2706.817383 0.000000 1950.912598 0.000000 0.641488 0.000000 -0.767133 0.303252 0.303252 0.303252
2704.244385 0.000000 1949.666626 0.000000 0.713779 0.000000 -0.700371 0.231411 0.231411 0.231411
2748.454834 0.000000 1960.807861 0.000000 0.719758 0.000000 -0.694225 0.262027 0.262027 0.262027
2752.009766 0.000000 1962.661255 0.000000 0.799109 0.000000 -0.601186 0.270150 0.270150 0.270150
2756.788818 0.000000 1954.325684 0.000000 0.635308 0.000000 -0.772259 0.273798 0.273798 0.273798
2753.725830 0.000000 1963.373169 0.000000 0.703241 0.000000 -0.710951 0.272014 0.272014 0.272014
2716.793701 0.000000 1979.794922 0.000000 0.790586 0.000000 -0.612351 0.273930 0.273930 0.273930
2694.330566 0.000000 1989.049927 0.000000 0.741965 0.000000 -0.670438 0.224472 0.224472 0.224472
2742.255859 0.000000 1985.713135 0.000000 0.948213 0.000000 -0.317634 0.305713 0.305713 0.305713
5694.624512 0.000000 2211.710693 0.000000 0.591626 0.000000 -0.806212 0.211689 0.211689 0.211689
5755.211426 0.000000 2232.508789 0.000000 0.881811 0.000000 -0.471604 0.215387 0.215387 0.215387
5696.514160 0.000000 2218.971436 0.000000 0.882749 0.000000 -0.469845 0.216538 0.216538 0.216538
5734.646484 0.000000 2235.047852 0.000000 0.789001 0.000000 -0.614392 0.253600 0.253600 0.253600
5736.688965 0.000000 2227.291016 0.000000 0.695568 0.000000 -0.718460 0.314949 0.314949 0.314949
5736.567383 0.000000 2237.573975 0.000000 0.859737 0.000000 -0.510737 0.296087 0.296087 0.296087
5775.272949 0.000000 2224.809082 0.000000 0.754538 0.000000 -0.656256 0.211236 0.211236 0.211236
5777.260254 0.000000 2229.347656 0.000000 0.900993 0.000000 -0.433833 0.237777 0.237777 0.237777
5766.395508 0.000000 2232.946289 0.000000 0.814720 0.000000 -0.579855 0.245986 0.245986 0.245986
5779.640625 0.000000 2228.202393 0.000000 0.924462 0.000000 -0.381275 0.245345 0.245345 0.245345
5767.143066 0.000000 2230.275146 0.000000 0.841253 0.000000 -0.540642 0.247264 0.247264 0.247264
5878.864258 0.000000 2257.889160 0.000000 0.731989 0.000000 -0.681317 0.247962 0.247962 0.247962
5883.981445 0.000000 2258.109863 0.000000 0.845340 0.000000 -0.534228 0.269703 0.269703 0.269703
5871.085449 0.000000 2241.718750 0.000000 0.806025 0.000000 -0.591881 0.300627 0.300627 0.300627
5941.860840 0.000000 2137.988281 0.000000 0.894477 0.000000 -0.447114 0.237339 0.237339 0.237339
5949.125000 0.000000 2142.401123 0.000000 0.941786 0.000000 -0.336213 0.306549 0.306549 0.306549
5951.814453 0.000000 2108.366455 0.000000 0.824045 0.000000 -0.566525 0.253532 0.253532 0.253532
5959.437500 0.000000 2144.965576 0.000000 0.900994 0.000000 -0.433831 0.239529 0.239529 0.239529
5987.689941 0.000000 2141.523438 0.000000 0.647837 0.000000 -0.761779 0.269304 0.269304 0.269304
5962.234863 0.000000 2137.367676 0.000000 0.774388 0.000000 -0.632711 0.256856 0.256856 0.256856
6063.663086 0.000000 2099.933838 0.000000 0.734023 0.000000 -0.679124 0.216821 0.216821 0.216821
5973.705078 0.000000 2173.273926 0.000000 0.933122 0.000000 -0.359559 0.202543 0.202543 0.202543
5983.453613 0.000000 2163.136475 0.000000 0.813895 0.000000 -0.581012 0.310657 0.310657 0.310657
5987.991211 0.000000 2162.132812 0.000000 0.650594 0.000000 -0.759426 0.268648 0.268648 0.268648
6003.863281 0.000000 2170.779053 0.000000 0.895309 0.000000 -0.445446 0.216900 0.216900 0.216900
6000.746582 0.000000 2149.643799 0.000000 0.591838 0.000000 -0.806057 0.243227 0.243227 0.243227
5953.451660 0.000000 2155.798584 0.000000 0.813145 0.000000 -0.582062 0.311865 0.311865 0.311865
6013.125000 0.000000 2198.885498 0.000000 0.873734 0.000000 -0.486404 0.296835 0.296835 0.296835
6011.000977 0.000000 2184.207275 0.000000 0.871235 0.000000 -0.490866 0.225510 0.225510 0.225510
5974.077637 0.000000 2163.580811 0.000000 0.920317 0.000000 -0.391174 0.298092 0.298092 0.298092
5966.686523 0.000000 2160.997803 0.000000 0.791761 0.000000 -0.610831 0.311443 0.311443 0.311443
5998.693848 0.000000 2178.464844 0.000000 0.869304 0.000000 -0.494278 0.259063 0.259063 0.259063
5985.365723 0.000000 2156.581055 0.000000 0.611356 0.000000 -0.791356 0.310085 0.310085 0.310085
6009.072754 0.000000 2196.523438 0.000000 0.950588 0.000000 -0.310456 0.301352 0.301352 0.301352
5970.979980 0.000000 2186.420166 0.000000 0.699020 0.000000 -0.715102 0.315217 0.315217 0.315217
5995.311523 0.000000 2171.553955 0.000000 0.814017 0.000000 -0.580842 0.268035 0.268035 0.268035
6002.317871 0.000000 2150.859375 0.000000 0.670162 0.000000 -0.742215 0.315973 0.315973 0.315973
6009.360352 0.000000 2157.662842 0.000000 0.928296 0.000000 -0.371842 0.306663 0.306663 0.306663
6000.943848 0.000000 2157.994629 0.000000 0.739306 0.000000 -0.673370 0.291964 0.291964 0.291964
5926.230957 0.000000 2241.419678 0.000000 0.766840 0.000000 -0.641839 0.221772 0.221772 0.221772
5949.512207 0.000000 2202.916748 0.000000 0.837406 0.000000 -0.546582 0.311044 0.311044 0.311044
5923.765137 0.000000 2228.737793 0.000000 0.770654 0.000000 -0.637253 0.220535 0.220535 0.220535
5949.658691 0.000000 2238.206299 0.000000 0.856688 0.000000 -0.515835 0.206426 0.206426 0.206426
5943.060547 0.000000 2244.490234 0.000000 0.759786 0.000000 -0.650173 0.313518 0.313518 0.313518
5941.860840 0.000000 2250.957031 0.000000 0.874141 0.000000 -0.485672 0.255410 0.255410 0.255410
5927.299805 0.000000 2249.270020 0.000000 0.858676 0.000000 -0.512518 0.232779 0.232779 0.232779
5947.305664 0.000000 2252.669678 0.000000 0.850706 0.000000 -0.525642 0.260679 0.260679 0.260679
5919.888672 0.000000 2224.434814 0.000000 0.828403 0.000000 -0.560132 0.261765 0.261765 0.261765
5928.567383 0.000000 2237.573975 0.000000 0.742241 0.000000 -0.670133 0.312926 0.312926 0.312926
5967.272949 0.000000 2224.809082 0.000000 0.949070 0.000000 -0.315065 0.202113 0.202113 0.202113
5973.668945 0.000000 2212.679443 0.000000 0.656371 0.000000 -0.754438 0.220681 0.220681 0.220681
5979.932617 0.000000 2223.160156 0.000000 0.781969 0.000000 -0.623317 0.309140 0.309140 0.309140
5965.506836 0.000000 2238.705078 0.000000 0.617223 0.000000 -0.786788 0.215666 0.215666 0.215666
5970.230469 0.000000 2240.926270 0.000000 0.779455 0.000000 -0.626458 0.212720 0.212720 0.212720
5964.457520 0.000000 2254.666504 0.000000 0.852576 0.000000 -0.522603 0.216441 0.216441 0.216441
5955.510742 0.000000 2249.818604 0.000000 0.749674 0.000000 -0.661808 0.223778 0.223778 0.223778
5953.451660 0.000000 2212.282959 0.000000 0.856073 0.000000 -0.516854 0.296199 0.296199 0.296199
5952.090332 0.000000 2206.186279 0.000000 0.653812 0.000000 -0.756657 0.236386 0.236386 0.236386
5975.408203 0.000000 2214.728760 0.000000 0.791052 0.000000 -0.611749 0.230937 0.230937 0.230937
5971.253418 0.000000 2250.477295 0.000000 0.747029 0.000000 -0.664791 0.263961 0.263961 0.263961
5971.576660 0.000000 2238.342285 0.000000 0.906273 0.000000 -0.422692 0.245827 0.245827 0.245827
6011.529785 0.000000 2203.537598 0.000000 0.771513 0.000000 -0.636214 0.280961 0.280961 0.280961
5997.587891 0.000000 2210.662842 0.000000 0.727753 0.000000 -0.685839 0.263702 0.263702 0.263702
5952.144043 0.000000 2231.290771 0.000000 0.918669 0.000000 -0.395029 0.307756 0.307756 0.307756
6077.212891 0.000000 2171.798096 0.000000 0.906639 0.000000 -0.421906 0.203012 0.203012 0.203012
6037.208496 0.000000 2186.285400 0.000000 0.667077 0.000000 -0.744989 0.299017 0.299017 0.299017
6026.351562 0.000000 2167.285156 0.000000 0.729785 0.000000 -0.683676 0.245592 0.245592 0.245592
6042.364746 0.000000 2171.967529 0.000000 0.618354 0.000000 -0.785900 0.237427 0.237427 0.237427
6069.013672 0.000000 2181.052490 0.000000 0.938883 0.000000 -0.344238 0.208511 0.208511 0.208511
6046.953613 0.000000 2202.658691 0.000000 0.921499 0.000000 -0.388380 0.207130 0.207130 0.207130
6054.346680 0.000000 2200.663818 0.000000 0.708542 0.000000 -0.705668 0.262216 0.262216 0.262216
6027.616211 0.000000 2175.747314 0.000000 0.590566 0.000000 -0.806990 0.245684 0.245684 0.245684
6061.747070 0.000000 2195.097900 0.000000 0.893972 0.000000 -0.448122 0.269021 0.269021 0.269021
6034.979980 0.000000 2186.420166 0.000000 0.820227 0.000000 -0.572038 0.275662 0.275662 0.275662
6046.945801 0.000000 2174.870117 0.000000 0.888714 0.000000 -0.458461 0.293965 0.293965 0.293965
6087.671387 0.000000 2171.262695 0.000000 0.710365 0.000000 -0.703834 0.313830 0.313830 0.313830
6081.017578 0.000000 2173.099365 0.000000 0.609126 0.000000 -0.793073 0.299564 0.299564 0.299564
6080.936035 0.000000 2169.015869 0.000000 0.706944 0.000000 -0.707269 0.229100 0.229100 0.229100
6036.569336 0.000000 2208.277100 0.000000 0.832416 0.000000 -0.554151 0.211450 0.211450 0.211450
6027.929688 0.000000 2214.896484 0.000000 0.868084 0.000000 -0.496418 0.254372 0.254372 0.254372
6054.824707 0.000000 2208.128418 0.000000 0.918262 0.000000 -0.395973 0.227483 0.227483 0.227483
6036.805176 0.000000 2202.958252 0.000000 0.637996 0.000000 -0.770040 0.240218 0.240218 0.240218
5886.948242 0.000000 2261.529053 0.000000 0.864599 0.000000 -0.502462 0.252092 0.252092 0.252092
5914.122559 0.000000 2270.183350 0.000000 0.615907 0.000000 -0.787819 0.206070 0.206070 0.206070
5888.098633 0.000000 2266.323975 0.000000 0.925166 0.000000 -0.379562 0.203015 0.203015 0.203015
5910.937012 0.000000 2273.802246 0.000000 0.746725 0.000000 -0.665132 0.205032 0.205032 0.205032
5892.047852 0.000000 2267.725098 0.000000 0.936732 0.000000 -0.350046 0.212018 0.212018 0.212018
5946.631836 0.000000 2294.511475 0.000000 0.710549 0.000000 -0.703648 0.284046 0.284046 0.284046
5913.706543 0.000000 2273.014404 0.000000 0.833211 0.000000 -0.552956 0.248606 0.248606 0.248606
5951.509766 0.000000 2296.593506 0.000000 0.616144 0.000000 -0.787634 0.316744 0.316744 0.316744
5894.912598 0.000000 2259.376709 0.000000 0.611124 0.000000 -0.791535 0.263755 0.263755 0.263755
5924.742188 0.000000 2312.580078 0.000000 0.721521 0.000000 -0.692392 0.314120 0.314120 0.314120
5966.875488 0.000000 2304.136963 0.000000 0.697971 0.000000 -0.716126 0.213046 0.213046 0.213046
5969.360840 0.000000 2305.535400 0.000000 0.604374 0.000000 -0.796701 0.316673 0.316673 0.316673
5974.911621 0.000000 2300.364502 0.000000 0.754352 0.000000 -0.656470 0.257812 0.257812 0.257812
5929.563477 0.000000 2342.350342 0.000000 0.703306 0.000000 -0.710888 0.229145 0.229145 0.229145
5937.272949 0.000000 2349.484375 0.000000 0.948844 0.000000 -0.315745 0.211160 0.211160 0.211160
5943.819336 0.000000 2334.690186 0.000000 0.719436 0.000000 -0.694559 0.249359 0.249359 0.249359
5924.575195 0.000000 2318.248291 0.000000 0.802801 0.000000 -0.596247 0.228389 0.228389 0.228389
5965.487793 0.000000 2325.875977 0.000000 0.942696 0.000000 -0.333653 0.245381 0.245381 0.245381
6011.739258 0.000000 2320.365967 0.000000 0.713176 0.000000 -0.700985 0.314835 0.314835 0.314835
6281.641113 0.000000 2256.078369 0.000000 0.884471 0.000000 -0.466596 0.210678 0.210678 0.210678
6286.401855 0.000000 2244.586426 0.000000 0.676956 0.000000 -0.736023 0.239110 0.239110 0.239110
6243.104004 0.000000 2267.916992 0.000000 0.657607 0.000000 -0.753361 0.224277 0.224277 0.224277
6302.236816 0.000000 2311.904785 0.000000 0.892036 0.000000 -0.451965 0.213464 0.213464 0.213464
6327.107910 0.000000 2304.576416 0.000000 0.913688 0.000000 -0.406417 0.206116 0.206116 0.206116
6308.276367 0.000000 2292.621826 0.000000 0.638392 0.000000 -0.769711 0.228714 0.228714 0.228714
6289.256836 0.000000 2294.089844 0.000000 0.678177 0.000000 -0.734899 0.230055 0.230055 0.230055
6298.364746 0.000000 2284.936279 0.000000 0.789064 0.000000 -0.614311 0.239289 0.239289 0.239289
6305.947754 0.000000 2308.848633 0.000000 0.604258 0.000000 -0.796788 0.210368 0.210368 0.210368
6286.401855 0.000000 2301.070801 0.000000 0.694982 0.000000 -0.719027 0.302108 0.302108 0.302108
6296.641113 0.000000 2315.099609 0.000000 0.920875 0.000000 -0.389857 0.257100 0.257100 0.257100
6339.505371 0.000000 2302.801270 0.000000 0.785431 0.000000 -0.618949 0.237561 0.237561 0.237561
6312.974609 0.000000 2327.380859 0.000000 0.798489 0.000000 -0.602009 0.233198 0.233198 0.233198
6283.616211 0.000000 2345.200439 0.000000 0.936748 0.000000 -0.350005 0.234558 0.234558 0.234558
"}
object={
	name="rainforest_sparse_generator_1_4"
	clamp_to_water_level=no
	render_under_water=no
	generated_content=yes
	layer="semidynamic"
	pdxmesh="tree_rainforest_005_mesh"
	count=163
	transform="2529.210205 0.000000 1569.951416 0.000000 0.471301 0.000000 -0.881972 0.317294 0.317294 0.317294
2529.099609 0.000000 1559.027832 0.000000 0.246869 0.000000 -0.969049 0.268586 0.268586 0.268586
2535.299805 0.000000 1571.457520 0.000000 0.361663 0.000000 -0.932309 0.278519 0.278519 0.278519
2535.591309 0.000000 1566.914185 0.000000 0.447703 0.000000 -0.894183 0.248627 0.248627 0.248627
2529.910400 0.000000 1567.401001 0.000000 0.244089 0.000000 -0.969753 0.240782 0.240782 0.240782
2532.952637 0.000000 1565.555054 0.000000 0.311915 0.000000 -0.950110 0.247001 0.247001 0.247001
2530.508057 0.000000 1571.643799 0.000000 0.502401 0.000000 -0.864635 0.319947 0.319947 0.319947
2678.864258 0.000000 1806.014282 0.000000 0.204369 0.000000 -0.978894 0.253819 0.253819 0.253819
2699.959473 0.000000 1799.506470 0.000000 0.059615 0.000000 -0.998221 0.226655 0.226655 0.226655
2597.982422 0.000000 1914.246216 0.000000 0.021159 0.000000 -0.999776 0.223165 0.223165 0.223165
2597.098633 0.000000 1906.855347 0.000000 0.268452 0.000000 -0.963293 0.232405 0.232405 0.232405
2593.947754 0.000000 1913.457886 0.000000 0.161982 0.000000 -0.986794 0.233992 0.233992 0.233992
2605.942871 0.000000 1885.925293 0.000000 0.517450 0.000000 -0.855714 0.242889 0.242889 0.242889
2675.456055 0.000000 1914.272583 0.000000 0.042595 0.000000 -0.999092 0.277532 0.277532 0.277532
2665.260742 0.000000 1908.206543 0.000000 0.089733 0.000000 -0.995966 0.210352 0.210352 0.210352
2676.365479 0.000000 1903.250610 0.000000 0.166322 0.000000 -0.986071 0.212011 0.212011 0.212011
2687.586426 0.000000 1917.418945 0.000000 0.217992 0.000000 -0.975950 0.212876 0.212876 0.212876
2681.910400 0.000000 1911.935425 0.000000 0.166059 0.000000 -0.986116 0.252319 0.252319 0.252319
2675.402588 0.000000 1917.951660 0.000000 0.272666 0.000000 -0.962109 0.293175 0.293175 0.293175
2670.671387 0.000000 1910.438843 0.000000 0.032189 0.000000 -0.999482 0.273757 0.273757 0.273757
2670.880859 0.000000 1914.520020 0.000000 0.531646 0.000000 -0.846967 0.258107 0.258107 0.258107
2674.103760 0.000000 1912.317261 0.000000 0.555377 0.000000 -0.831599 0.254714 0.254714 0.254714
2669.465576 0.000000 1908.280273 0.000000 0.564332 0.000000 -0.825548 0.299793 0.299793 0.299793
2666.440430 0.000000 1880.193359 0.000000 0.465543 0.000000 -0.885026 0.276420 0.276420 0.276420
2723.764893 0.000000 1833.347290 0.000000 0.510485 0.000000 -0.859887 0.213015 0.213015 0.213015
2746.511719 0.000000 1828.010010 0.000000 0.358019 0.000000 -0.933714 0.261543 0.261543 0.261543
2748.832764 0.000000 1839.821777 0.000000 0.130545 0.000000 -0.991442 0.222926 0.222926 0.222926
2721.448975 0.000000 1830.796753 0.000000 0.333492 0.000000 -0.942753 0.237407 0.237407 0.237407
2726.337891 0.000000 1877.720581 0.000000 0.272436 0.000000 -0.962174 0.239878 0.239878 0.239878
2729.650879 0.000000 1873.271118 0.000000 0.121983 0.000000 -0.992532 0.292754 0.292754 0.292754
2608.647949 0.000000 1960.944458 0.000000 0.511013 0.000000 -0.859573 0.252818 0.252818 0.252818
2668.760498 0.000000 2015.458252 0.000000 0.456874 0.000000 -0.889532 0.259694 0.259694 0.259694
2685.212891 0.000000 2002.344849 0.000000 0.522901 0.000000 -0.852393 0.217769 0.217769 0.217769
2651.131592 0.000000 1993.074341 0.000000 0.206554 0.000000 -0.978435 0.285111 0.285111 0.285111
2629.119141 0.000000 1993.387329 0.000000 0.546783 0.000000 -0.837274 0.243160 0.243160 0.243160
2644.435791 0.000000 2019.224976 0.000000 0.555182 0.000000 -0.831729 0.263954 0.263954 0.263954
2726.231201 0.000000 1958.997803 0.000000 0.457116 0.000000 -0.889407 0.207662 0.207662 0.207662
2714.122314 0.000000 1931.277100 0.000000 0.465797 0.000000 -0.884892 0.207512 0.207512 0.207512
2740.365479 0.000000 1959.734985 0.000000 0.406486 0.000000 -0.913657 0.237920 0.237920 0.237920
2705.256836 0.000000 1955.183594 0.000000 0.276012 0.000000 -0.961154 0.244863 0.244863 0.244863
2725.098633 0.000000 1963.339722 0.000000 0.147564 0.000000 -0.989053 0.228447 0.228447 0.228447
2743.060791 0.000000 1962.068481 0.000000 0.225020 0.000000 -0.974354 0.216555 0.216555 0.216555
2729.656006 0.000000 1960.578491 0.000000 0.007724 0.000000 -0.999970 0.224539 0.224539 0.224539
2749.612061 0.000000 1959.228394 0.000000 0.289917 0.000000 -0.957052 0.289717 0.289717 0.289717
2688.894775 0.000000 1950.768921 0.000000 0.237442 0.000000 -0.971402 0.267427 0.267427 0.267427
2722.857422 0.000000 1949.597656 0.000000 0.412028 0.000000 -0.911171 0.248411 0.248411 0.248411
2748.832764 0.000000 1952.790527 0.000000 0.112157 0.000000 -0.993691 0.233803 0.233803 0.233803
2697.604492 0.000000 1947.923096 0.000000 0.283249 0.000000 -0.959046 0.275765 0.275765 0.275765
2747.001221 0.000000 1958.269775 0.000000 0.473737 0.000000 -0.880666 0.241534 0.241534 0.241534
2733.465576 0.000000 1964.764648 0.000000 0.279160 0.000000 -0.960245 0.255533 0.255533 0.255533
2755.510986 0.000000 1967.396729 0.000000 0.021235 0.000000 -0.999775 0.263507 0.263507 0.263507
2718.608887 0.000000 1982.492798 0.000000 0.452452 0.000000 -0.891789 0.267853 0.267853 0.267853
5685.994141 0.000000 2224.176758 0.000000 0.394129 0.000000 -0.919055 0.247989 0.247989 0.247989
5752.550781 0.000000 2235.749756 0.000000 0.003174 0.000000 -0.999995 0.210723 0.210723 0.210723
5737.204590 0.000000 2239.451904 0.000000 0.469552 0.000000 -0.882905 0.281995 0.281995 0.281995
5726.952637 0.000000 2222.402832 0.000000 0.234428 0.000000 -0.972133 0.291159 0.291159 0.291159
5751.044922 0.000000 2241.979004 0.000000 0.565933 0.000000 -0.824451 0.304134 0.304134 0.304134
5756.008301 0.000000 2245.167725 0.000000 0.482628 0.000000 -0.875825 0.268688 0.268688 0.268688
5732.682129 0.000000 2226.679932 0.000000 0.432174 0.000000 -0.901790 0.301505 0.301505 0.301505
5868.760254 0.000000 2241.395752 0.000000 0.356387 0.000000 -0.934338 0.214905 0.214905 0.214905
5872.647949 0.000000 2243.366455 0.000000 0.288162 0.000000 -0.957582 0.218541 0.218541 0.218541
5943.062500 0.000000 2140.939453 0.000000 0.243724 0.000000 -0.969845 0.325298 0.325298 0.325298
5949.638184 0.000000 2109.645020 0.000000 0.283834 0.000000 -0.958873 0.256743 0.256743 0.256743
5964.457520 0.000000 2141.697754 0.000000 0.066648 0.000000 -0.997777 0.225332 0.225332 0.225332
6070.158691 0.000000 2121.981689 0.000000 0.527992 0.000000 -0.849249 0.246452 0.246452 0.246452
6082.069824 0.000000 2114.743652 0.000000 0.296429 0.000000 -0.955055 0.271147 0.271147 0.271147
5972.968750 0.000000 2198.531250 0.000000 0.019387 0.000000 -0.999812 0.226984 0.226984 0.226984
5989.982422 0.000000 2196.667969 0.000000 0.131576 0.000000 -0.991306 0.287422 0.287422 0.287422
6010.368164 0.000000 2198.332275 0.000000 0.032342 0.000000 -0.999477 0.219914 0.219914 0.219914
6001.272949 0.000000 2180.031250 0.000000 0.340193 0.000000 -0.940356 0.246076 0.246076 0.246076
6000.541992 0.000000 2168.991455 0.000000 0.441600 0.000000 -0.897212 0.289971 0.289971 0.289971
6014.419434 0.000000 2188.553467 0.000000 0.115222 0.000000 -0.993340 0.211755 0.211755 0.211755
6013.507812 0.000000 2196.183105 0.000000 0.559084 0.000000 -0.829111 0.215009 0.215009 0.215009
5973.502930 0.000000 2194.725342 0.000000 0.546495 0.000000 -0.837462 0.227279 0.227279 0.227279
5994.288574 0.000000 2169.553955 0.000000 0.038878 0.000000 -0.999244 0.228727 0.228727 0.228727
6012.832520 0.000000 2178.728027 0.000000 0.558301 0.000000 -0.829639 0.284333 0.284333 0.284333
5996.194824 0.000000 2158.483643 0.000000 0.292934 0.000000 -0.956133 0.286476 0.286476 0.286476
6013.032715 0.000000 2168.594238 0.000000 0.013581 0.000000 -0.999908 0.281811 0.281811 0.281811
5997.942871 0.000000 2168.347168 0.000000 0.089430 0.000000 -0.995993 0.277596 0.277596 0.277596
6013.251953 0.000000 2153.220703 0.000000 0.342927 0.000000 -0.939362 0.271183 0.271183 0.271183
5999.645996 0.000000 2154.104248 0.000000 0.087988 0.000000 -0.996122 0.272435 0.272435 0.272435
5992.688965 0.000000 2170.806641 0.000000 0.564177 0.000000 -0.825654 0.318552 0.318552 0.318552
5992.389160 0.000000 2200.036621 0.000000 0.419663 0.000000 -0.907680 0.288419 0.288419 0.288419
5981.418457 0.000000 2196.403809 0.000000 0.363195 0.000000 -0.931713 0.300101 0.300101 0.300101
5943.107910 0.000000 2248.092041 0.000000 0.162496 0.000000 -0.986709 0.215784 0.215784 0.215784
5914.709961 0.000000 2239.930664 0.000000 0.232118 0.000000 -0.972688 0.256688 0.256688 0.256688
5933.311035 0.000000 2237.240479 0.000000 0.014991 0.000000 -0.999888 0.225116 0.225116 0.225116
5924.620605 0.000000 2249.599121 0.000000 0.003600 0.000000 -0.999994 0.267596 0.267596 0.267596
5945.910645 0.000000 2250.841553 0.000000 0.128857 0.000000 -0.991663 0.292657 0.292657 0.292657
5936.918945 0.000000 2217.876709 0.000000 0.379934 0.000000 -0.925014 0.223336 0.223336 0.223336
5916.944336 0.000000 2238.758057 0.000000 0.028240 0.000000 -0.999601 0.329461 0.329461 0.329461
5923.522949 0.000000 2247.536621 0.000000 0.432397 0.000000 -0.901683 0.254396 0.254396 0.254396
5949.252441 0.000000 2213.316895 0.000000 0.442385 0.000000 -0.896825 0.321248 0.321248 0.321248
5980.793945 0.000000 2205.732422 0.000000 0.396895 0.000000 -0.917864 0.214578 0.214578 0.214578
5996.062988 0.000000 2211.879639 0.000000 0.320467 0.000000 -0.947260 0.269574 0.269574 0.269574
5952.098633 0.000000 2209.839600 0.000000 0.143409 0.000000 -0.989664 0.325542 0.325542 0.325542
5988.045898 0.000000 2208.165527 0.000000 0.061951 0.000000 -0.998079 0.314657 0.314657 0.314657
5979.131348 0.000000 2219.011719 0.000000 0.280762 0.000000 -0.959777 0.300767 0.300767 0.300767
5952.163086 0.000000 2237.637207 0.000000 0.411933 0.000000 -0.911214 0.216294 0.216294 0.216294
5955.837402 0.000000 2226.452637 0.000000 0.346818 0.000000 -0.937932 0.210056 0.210056 0.210056
5994.673340 0.000000 2203.034424 0.000000 0.184933 0.000000 -0.982751 0.258481 0.258481 0.258481
6004.003906 0.000000 2206.218262 0.000000 0.502051 0.000000 -0.864838 0.214913 0.214913 0.214913
5987.104004 0.000000 2211.432617 0.000000 0.407885 0.000000 -0.913034 0.244728 0.244728 0.244728
5969.722656 0.000000 2255.067871 0.000000 0.001317 0.000000 -0.999999 0.276739 0.276739 0.276739
5972.832520 0.000000 2215.470215 0.000000 0.179203 0.000000 -0.983812 0.269406 0.269406 0.269406
5990.824707 0.000000 2208.128418 0.000000 0.079519 0.000000 -0.996833 0.328480 0.328480 0.328480
5959.143066 0.000000 2230.275146 0.000000 0.323723 0.000000 -0.946152 0.249383 0.249383 0.249383
5953.042969 0.000000 2235.391602 0.000000 0.299182 0.000000 -0.954196 0.324197 0.324197 0.324197
5999.882812 0.000000 2207.914307 0.000000 0.447832 0.000000 -0.894118 0.294918 0.294918 0.294918
6031.272949 0.000000 2168.324707 0.000000 0.549403 0.000000 -0.835558 0.210253 0.210253 0.210253
6049.210449 0.000000 2191.279541 0.000000 0.361997 0.000000 -0.932179 0.232780 0.232780 0.232780
6025.063965 0.000000 2176.868164 0.000000 0.552445 0.000000 -0.833549 0.206741 0.206741 0.206741
6057.322754 0.000000 2194.681885 0.000000 0.338228 0.000000 -0.941064 0.232383 0.232383 0.232383
6060.376953 0.000000 2192.673828 0.000000 0.003754 0.000000 -0.999993 0.288490 0.288490 0.288490
6041.681152 0.000000 2180.183838 0.000000 0.303445 0.000000 -0.952849 0.236450 0.236450 0.236450
6032.382324 0.000000 2202.222656 0.000000 0.358967 0.000000 -0.933350 0.321005 0.321005 0.321005
6043.673340 0.000000 2199.179688 0.000000 0.510843 0.000000 -0.859674 0.279490 0.279490 0.279490
6063.085449 0.000000 2185.234375 0.000000 0.278233 0.000000 -0.960513 0.315664 0.315664 0.315664
6058.219238 0.000000 2192.620850 0.000000 0.179076 0.000000 -0.983835 0.266847 0.266847 0.266847
6017.654297 0.000000 2160.764404 0.000000 0.394603 0.000000 -0.918852 0.308511 0.308511 0.308511
6059.407227 0.000000 2190.634277 0.000000 0.579117 0.000000 -0.815244 0.266689 0.266689 0.266689
6039.416992 0.000000 2194.339111 0.000000 0.423543 0.000000 -0.905876 0.276393 0.276393 0.276393
6037.843750 0.000000 2196.690918 0.000000 0.302497 0.000000 -0.953150 0.302354 0.302354 0.302354
6046.288086 0.000000 2200.868652 0.000000 0.442468 0.000000 -0.896784 0.305766 0.305766 0.305766
6050.967773 0.000000 2181.148926 0.000000 0.008182 0.000000 -0.999967 0.281226 0.281226 0.281226
6023.914551 0.000000 2204.727539 0.000000 0.056167 0.000000 -0.998421 0.210285 0.210285 0.210285
6034.283691 0.000000 2204.023438 0.000000 0.308631 0.000000 -0.951182 0.221473 0.221473 0.221473
6041.237793 0.000000 2209.049561 0.000000 0.016134 0.000000 -0.999870 0.311408 0.311408 0.311408
6048.618164 0.000000 2206.256348 0.000000 0.427092 0.000000 -0.904208 0.243279 0.243279 0.243279
5882.385254 0.000000 2261.967041 0.000000 0.102672 0.000000 -0.994715 0.228826 0.228826 0.228826
5883.739258 0.000000 2263.881592 0.000000 0.213325 0.000000 -0.976981 0.277953 0.277953 0.277953
5925.982422 0.000000 2309.636719 0.000000 0.508454 0.000000 -0.861089 0.206863 0.206863 0.206863
5918.530273 0.000000 2282.834961 0.000000 0.343227 0.000000 -0.939253 0.255438 0.255438 0.255438
5895.914551 0.000000 2261.211914 0.000000 0.117941 0.000000 -0.993021 0.219256 0.219256 0.219256
5909.668945 0.000000 2269.163818 0.000000 0.188029 0.000000 -0.982163 0.238168 0.238168 0.238168
5950.419434 0.000000 2301.522217 0.000000 0.220323 0.000000 -0.975427 0.236608 0.236608 0.236608
5948.832520 0.000000 2291.696777 0.000000 0.413007 0.000000 -0.910728 0.229820 0.229820 0.229820
5918.952637 0.000000 2278.887207 0.000000 0.365271 0.000000 -0.930901 0.230269 0.230269 0.230269
5923.689941 0.000000 2310.976562 0.000000 0.027138 0.000000 -0.999632 0.329482 0.329482 0.329482
5916.928223 0.000000 2277.255127 0.000000 0.452855 0.000000 -0.891584 0.237441 0.237441 0.237441
5901.612305 0.000000 2262.503662 0.000000 0.329105 0.000000 -0.944293 0.269465 0.269465 0.269465
5949.382324 0.000000 2289.677246 0.000000 0.039493 0.000000 -0.999220 0.262011 0.262011 0.262011
5943.432129 0.000000 2308.458740 0.000000 0.076022 0.000000 -0.997106 0.309153 0.309153 0.309153
5953.884766 0.000000 2310.427490 0.000000 0.068346 0.000000 -0.997662 0.211462 0.211462 0.211462
5961.278320 0.000000 2309.458496 0.000000 0.222637 0.000000 -0.974901 0.254256 0.254256 0.254256
5975.191895 0.000000 2305.265625 0.000000 0.239356 0.000000 -0.970932 0.233295 0.233295 0.233295
5954.311035 0.000000 2295.986084 0.000000 0.332806 0.000000 -0.942995 0.305075 0.305075 0.305075
5953.118652 0.000000 2304.105225 0.000000 0.091189 0.000000 -0.995834 0.321455 0.321455 0.321455
5964.112305 0.000000 2330.766113 0.000000 0.072041 0.000000 -0.997402 0.293454 0.293454 0.293454
5958.363770 0.000000 2325.372070 0.000000 0.155333 0.000000 -0.987862 0.327021 0.327021 0.327021
6329.384766 0.000000 2259.142334 0.000000 0.175399 0.000000 -0.984497 0.247143 0.247143 0.247143
6252.352051 0.000000 2276.635986 0.000000 0.530388 0.000000 -0.847755 0.229884 0.229884 0.229884
6287.130859 0.000000 2298.746826 0.000000 0.384336 0.000000 -0.923193 0.241872 0.241872 0.241872
6313.563477 0.000000 2285.865967 0.000000 0.425497 0.000000 -0.904960 0.275738 0.275738 0.275738
6330.305176 0.000000 2303.356445 0.000000 0.551073 0.000000 -0.834457 0.219936 0.219936 0.219936
6310.581055 0.000000 2294.499512 0.000000 0.175393 0.000000 -0.984498 0.264332 0.264332 0.264332
6329.460938 0.000000 2259.478271 0.000000 0.115000 0.000000 -0.993366 0.247748 0.247748 0.247748
6295.339844 0.000000 2291.782471 0.000000 0.311489 0.000000 -0.950250 0.260209 0.260209 0.260209
6332.008301 0.000000 2301.652100 0.000000 0.282751 0.000000 -0.959193 0.261810 0.261810 0.261810
6308.550293 0.000000 2290.168945 0.000000 0.537776 0.000000 -0.843088 0.244493 0.244493 0.244493
6340.047852 0.000000 2267.725098 0.000000 0.156687 0.000000 -0.987648 0.258793 0.258793 0.258793
6297.661133 0.000000 2318.925537 0.000000 0.258573 0.000000 -0.965992 0.261459 0.261459 0.261459
6288.244141 0.000000 2345.057129 0.000000 0.449503 0.000000 -0.893279 0.263525 0.263525 0.263525
"}
