﻿# CHI_deport_missionaries_button = {
# 	name = "CHI_deport_missionaries_button"
# 	desc = "CHI_deport_missionaries_button_desc"

# 	visible = { always = yes }

# 	possible = {
# 		NOT = {
# 			any_neighbouring_state = {
# 				is_treaty_port = yes
# 				owner = {
# 					religion = {
# 						has_discrimination_trait = christian
# 					}
# 				}
# 			}
# 		}
# 		authority >= 200
# 	}

# 	selected = {
# 		has_variable = CHI_deported_missionaries
# 	}

# 	effect = {
# 		add_modifier = {
# 			name = modifier_chi_deporting_missionaries
# 			months = normal_modifier_time
# 		}
# 		every_country = {
# 			limit = {
# 				has_diplomatic_relevance = root
# 				religion = {
# 					has_discrimination_trait = christian
# 				}
# 				OR = {
# 					has_law = law_type:law_state_religion
# 					has_law = law_type:law_freedom_of_conscience
# 				}
# 			}
# 			change_relations = {
# 				country = root
# 				value = -25
# 			}
# 		}
# 		set_variable = CHI_deported_missionaries
# 	}
# }

# ban_opium_button = {
# 	name = "ban_opium"
# 	desc = "ban_opium_desc"

# 	visible = { 
# 		has_journal_entry = je_opium_obsession
# 		exists = market
# 		market.owner = root
# 		NOT = { is_banning_goods = g:opium }
# 	}

# 	possible = {
# 		has_journal_entry = je_opium_obsession
# 		NOT = { has_law = law_type:law_free_trade }
# 		custom_tooltip = {
# 			text = not_lost_opium_wars_tt
# 			NOT = { has_variable = lost_opium_wars }
# 		}
# 		exists = market	
# 	}

# 	effect = {
# 		add_banned_goods = g:opium
# 		add_modifier = {
# 			name = opium_ban_authority
# 		}
# 	}

# 	ai_chance = {
#         base = 0
# 		modifier = {
# 			trigger = {
# 				OR = {
# 					has_strategy = ai_strategy_conservative_agenda
# 					has_strategy = ai_strategy_reactionary_agenda
# 					# has_strategy = ai_strategy_maintain_mandate_of_heaven
# 				}
# 			}
# 			add = 10
# 		}		 
#     }
# }


# unban_opium_button = {
# 	name = "remove_opium_ban"
# 	desc = "remove_opium_ban_desc"

# 	visible = { 
# 		has_journal_entry = je_opium_obsession
# 		is_banning_goods = g:opium
# 		exists = market
# 		market.owner = root
# 	}

# 	possible = {
# 		always = yes
# 	}

# 	effect = {
# 		remove_banned_goods = g:opium
# 		remove_modifier = opium_ban_authority
# 	}

# 	ai_chance = {
# 		base = 0
# 		  modifier = {
# 			  trigger = {
# 				  has_strategy = ai_strategy_progressive_agenda
# 			  }
# 			  add = 10
# 		  }		 
# 	 }	
# }