POPS = {
	s:STATE_KHETERAT = {
		region_state:L01 = {
			create_pop = {
				culture = hapremiti
				size = 2878280
			}
			create_pop = {
				culture = sorrowmane_gnoll
				size = 2510840
			}
			create_pop = {
				culture = delta_gnome
				size = 183720
			}
			create_pop = {
				culture = hapremiti
				size = 183720
				religion = aakhetist
			}
			create_pop = {
				culture = deshaki
				size = 122480
				pop_type = slaves
			}
			create_pop = {
				culture = barumandi_orc
				size = 61240
				religion = corinite
				pop_type = slaves
			}
			create_pop = {
				culture = mantimatu
				size = 122480
				religion = nirakhetist
				pop_type = slaves
			}
			create_pop = {
				culture = sun_elven
				size = 61240
				religion = elikhetist
				pop_type = slaves
			}
		}
	}
	s:STATE_UPPER_SORROW = {
		region_state:L01 = {
			create_pop = {
				culture = hapremiti
				size = 960960
			}
			create_pop = {
				culture = hapremiti
				size = 221760
				religion = nirakhetist
			}
			create_pop = {
				culture = sorrowmane_gnoll
				size = 517440
			}
			create_pop = {
				culture = mantimatu
				size = 55440
				religion = nirakhetist
				pop_type = slaves
			}
			create_pop = {
				culture = kudemtu
				size = 92400
				religion = nirakhetist
				pop_type = slaves
			}
		}
	}
	s:STATE_LOWER_SORROW = {
		region_state:L01 = {
			create_pop = {
				culture = hapremiti
				size = 953800
			}
			create_pop = {
				culture = hapremiti
				size = 401600
				religion = nirakhetist
			}
			create_pop = {
				culture = hapremiti
				size = 175700
				religion = aakhetist
			}
			create_pop = {
				culture = sorrowmane_gnoll
				size = 753000
			}
			create_pop = {
				culture = delta_gnome
				size = 75300
			}
			create_pop = {
				culture = copper_dwarf
				size = 25100
				pop_type = slaves
			}
			create_pop = {
				culture = brasanni
				size = 125500
				pop_type = slaves
			}
		}
	}
	s:STATE_MOTHERS_DELTA = {
		region_state:L01 = {
			create_pop = {
				culture = hapremiti
				size = 1361600
			}
			create_pop = {
				culture = hapremiti
				size = 1104000
				religion = aakhetist
			}
			create_pop = {
				culture = hapremiti
				size = 184000
				religion = nirakhetist
			}
			create_pop = {
				culture = sorrowmane_gnoll
				size = 588800
			}
			create_pop = {
				culture = delta_gnome
				size = 73600
			}
			create_pop = {
				culture = barumandi_orc
				size = 257600
				religion = corinite
				pop_type = slaves
			}
			create_pop = {
				culture = brasanni
				size = 110400
				pop_type = slaves
			}
		}
	}
	s:STATE_COAST_OF_TEARS = {
		region_state:L01 = {
			create_pop = {
				culture = korosheshi
				size = 1060650
			}
			create_pop = {
				culture = korosheshi
				size = 164990
				religion = nirakhetist
			}
			create_pop = {
				culture = delta_gnome
				size = 707100
			}
			create_pop = {
				culture = sorrowmane_gnoll
				size = 117850
			}
			create_pop = {
				culture = sun_elven
				size = 94280
			}
			create_pop = {
				culture = tinker_gnome
				size = 70710
			}
			create_pop = {
				culture = brasanni
				size = 47140
				pop_type = slaves
			}
			create_pop = {
				culture = tefori
				size = 70710
				pop_type = slaves
			}
			create_pop = {
				culture = busilari
				size = 23570
				pop_type = slaves
			}
		}
	}
	s:STATE_IBTAT = {
		region_state:F02 = {
			create_pop = {
				culture = sun_elven
				size = 225500
			}
			create_pop = {
				culture = brasanni
				size = 123000
			}
			create_pop = {
				culture = shasouran
				size = 61500
				religion = the_jadd
			}
		}
		region_state:L01 = {
			create_pop = {
				culture = shasouran
				size = 306240
			}
			create_pop = {
				culture = shasouran
				size = 64960
				religion = aakhetist
			}
			create_pop = {
				culture = shasouran
				size = 37120
				religion = nirakhetist
			}
			create_pop = {
				culture = sorrowmane_gnoll
				size = 32480
			}
			create_pop = {
				culture = brasanni
				size = 13920
				pop_type = slaves
			}
			create_pop = {
				culture = busilari
				size = 9280
				pop_type = slaves
			}
		}
	}
	s:STATE_AWAASHESH = {
		region_state:L01 = {
			create_pop = {
				culture = shasouran
				size = 205500
			}
			create_pop = {
				culture = shasouran
				size = 41100
				religion = aakhetist
			}
			create_pop = {
				culture = shasouran
				size = 69870
				religion = nirakhetist
			}
			create_pop = {
				culture = hapremiti
				size = 24660
			}
			create_pop = {
				culture = sorrowmane_gnoll
				size = 49320
			}
			create_pop = {
				culture = tefori
				size = 20550
				pop_type = slaves
			}
		}
	}
	s:STATE_SHASOURA = {
		region_state:L01 = {
			create_pop = {
				culture = shasouran
				size = 905200
			}
			create_pop = {
				culture = shasouran
				size = 262800
				religion = aakhetist
			}
			create_pop = {
				culture = shasouran
				size = 73000
				religion = nirakhetist
			}
			create_pop = {
				culture = sorrowmane_gnoll
				size = 87600
			}
			create_pop = {
				culture = brasanni
				size = 73000
				pop_type = slaves
			}
			create_pop = {
				culture = barumandi_orc
				size = 58400
				religion = corinite
				pop_type = slaves
			}
		}
	}
	s:STATE_RASUSOPOT = {
		region_state:L01 = {
			create_pop = {
				culture = hapremiti
				size = 395600
			}
			create_pop = {
				culture = hapremiti
				size = 60200
				religion = nirakhetist
			}
			create_pop = {
				culture = windhowler_gnoll
				size = 240800
				religion = elikhetist
			}
			create_pop = {
				culture = sorrowmane_gnoll
				size = 68800
			}
			create_pop = {
				culture = deshaki
				size = 60200
				pop_type = slaves
			}
			create_pop = {
				culture = busilari
				size = 34400
				pop_type = slaves
			}
		}
	}
	s:STATE_GOLKORA = {
		region_state:L01 = {
			create_pop = {
				culture = sorrowmane_gnoll
				size = 2047920
			}
			create_pop = {
				culture = hapremiti
				size = 267120
			}
			create_pop = {
				culture = hapremiti
				size = 237440
				religion = nirakhetist
			}
			create_pop = {
				culture = irsmahapan
				size = 326480
			}
			create_pop = {
				culture = ndurubu
				size = 59360
				pop_type = slaves
				religion = fangaulan_pantheon
			}
			create_pop = {
				culture = mantimatu
				size = 29680
				pop_type = slaves
			}
		}
	}
	s:STATE_IRSMAHAP = {
		region_state:L01 = {
			create_pop = {
				culture = irsmahapan
				size = 741180
			}
			create_pop = {
				culture = irsmahapan
				size = 314440
				religion = elikhetist
			}
			create_pop = {
				culture = irsmahapan
				size = 202140
				religion = aakhetist
			}
			create_pop = {
				culture = sorrowmane_gnoll
				size = 673800
			}
			create_pop = {
				culture = pyreclaw_gnoll
				size = 202140
				religion = elikhetist
			}
			create_pop = {
				culture = kudemtu
				size = 44920
				pop_type = slaves
			}
			create_pop = {
				culture = ofehibi
				size = 67380
				pop_type = slaves
			}
		}
	}
	s:STATE_HAPGESH = {
		region_state:L01 = {
			create_pop = {
				culture = irsmahapan
				size = 715920
			}
			create_pop = {
				culture = irsmahapan
				size = 244920
				religion = elikhetist
			}
			create_pop = {
				culture = irsmahapan
				size = 150720
				religion = aakhetist
			}
			create_pop = {
				culture = sorrowmane_gnoll
				size = 376800
			}
			create_pop = {
				culture = pyreclaw_gnoll
				size = 282600
				religion = elikhetist
			}
			create_pop = {
				culture = ofehibi
				size = 37680
				pop_type = slaves
			}
			create_pop = {
				culture = zuvunwa
				size = 75360
				pop_type = slaves
			}
		}
	}
	s:STATE_NIRAMIT = {
		region_state:L01 = {
			create_pop = {
				culture = tijarikheti
				size = 1605900
			}
			create_pop = {
				culture = sorrowmane_gnoll
				size = 696900
			}
			create_pop = {
				culture = irsmahapan
				size = 151500
			}
			create_pop = {
				culture = tijarikheti
				size = 424200
				religion = elikhetist
			}
			create_pop = {
				culture = kudemtu
				size = 90900
				pop_type = slaves
			}
			create_pop = {
				culture = ofehibi
				size = 60600
				pop_type = slaves
			}
		}
	}
	s:STATE_CENTRAL_SALAHAD = {
		region_state:L01 = {
			create_pop = {
				culture = sorrowmane_gnoll
				size = 33200
			}
			create_pop = {
				culture = pyreclaw_gnoll
				size = 20750
				religion = elikhetist
			}
			create_pop = {
				culture = pyreclaw_gnoll
				size = 17430
			}
			create_pop = {
				culture = sandfang_gnoll
				size = 11620
				religion = xhazobkult
			}
		}
		region_state:L16 = {
			create_pop = {
				culture = pyreclaw_gnoll
				size = 112050
			}
			create_pop = {
				culture = sandfang_gnoll
				size = 107070
				religion = the_jadd
			}
			create_pop = {
				culture = pyreclaw_gnoll
				size = 29880
				religion = elikhetist
			}
		}
	}
	s:STATE_DESHAK = {
		region_state:A09 = {
			create_pop = {
				culture = deshaki
				size = 1062050
			}
			create_pop = {
				culture = stonewing_harpy
				size = 193100
			}
			create_pop = {
				culture = skygaze_cyclop
				size = 154480
			}
			create_pop = {
				culture = deshaki
				size = 193100
				religion = ravelian
			}
			create_pop = {
				culture = deshaki
				size = 328270
				religion = corinite
			}
		}
		region_state:L03 = {
			create_pop = {
				culture = sorrowmane_gnoll
				size = 214250
			}
			create_pop = {
				culture = seascourge_gnoll
				size = 385650
				religion = elikhetist
			}
			create_pop = {
				culture = deshaki
				size = 85700
			}
			create_pop = {
				culture = seascourge_gnoll
				size = 171400
			}
		}
	}
	s:STATE_KHASA = {
		region_state:L04 = {
			create_pop = {
				culture = khasani
				size = 1352350
			}
			create_pop = {
				culture = stonewing_harpy
				size = 408850
			}
			create_pop = {
				culture = skygaze_cyclop
				size = 220150
			}
			create_pop = {
				culture = khasani
				size = 62900
				religion = ravelian
			}
			create_pop = {
				culture = khasani
				size = 1100750
				religion = corinite
			}
		}
	}
	s:STATE_EKHA = {
		region_state:A09 = {
			create_pop = {
				culture = ekaski
				size = 894800
			}
			create_pop = {
				culture = stonewing_harpy
				size = 156590
			}
			create_pop = {
				culture = skygaze_cyclop
				size = 89480
			}
			create_pop = {
				culture = ekaski
				size = 738210
				religion = ravelian
			}
			create_pop = {
				culture = ekaski
				size = 313180
				religion = corinite
			}
			create_pop = {
				culture = taafi
				size = 44740
			}
		}
	}
	s:STATE_AKASIK_MOUNTAINS = {
		region_state:L04 = {
			create_pop = {
				culture = khasani
				size = 349200
			}
			create_pop = {
				culture = stonewing_harpy
				size = 261900
			}
			create_pop = {
				culture = skygaze_cyclop
				size = 130950
			}
			create_pop = {
				culture = deshaki
				size = 87300
			}
			create_pop = {
				culture = khasani
				size = 43650
				religion = corinite
			}
		}
	}
	s:STATE_HOHKROGAR = {
		region_state:L01 = {
			create_pop = {
				culture = windhowler_gnoll
				size = 258780
				religion = elikhetist
			}
			create_pop = {
				culture = windhowler_gnoll
				size = 122580
			}
			create_pop = {
				culture = sorrowmane_gnoll
				size = 49940
			}
			create_pop = {
				culture = deshaki
				size = 22700
				pop_type = slaves
			}
		}
	}
	s:STATE_NORTHERN_SANDSPITE = {
		region_state:L07 = {
			create_pop = {
				culture = seascourge_gnoll
				size = 107250
			}
			create_pop = {
				culture = windhowler_gnoll
				size = 35750
			}
		}
		region_state:L08 = {
			create_pop = {
				culture = seascourge_gnoll
				size = 87400
			}
			create_pop = {
				culture = mukkaron
				size = 11500
			}
			create_pop = {
				culture = windhowler_gnoll
				size = 16100
			}
		}
		region_state:L09 = {
			create_pop = {
				culture = windhowler_gnoll
				size = 89540
			}
			create_pop = {
				culture = mukkaron
				size = 18150
			}
			create_pop = {
				culture = seascourge_gnoll
				size = 13310
			}
		}
		region_state:L10 = {
			create_pop = {
				culture = windhowler_gnoll
				size = 66750
			}
			create_pop = {
				culture = mukkaron
				size = 22250
			}
		}
	}
	s:STATE_SOUTHERN_SANDSPITE = {
		region_state:L10 = {
			create_pop = {
				culture = windhowler_gnoll
				size = 26650
			}
			create_pop = {
				culture = mukkaron
				size = 14350
			}
		}
		region_state:L11 = {
			create_pop = {
				culture = windhowler_gnoll
				size = 108000
			}
			create_pop = {
				culture = mukkaron
				size = 27000
			}
		}
		region_state:L12 = {
			create_pop = {
				culture = windhowler_gnoll
				size = 54600
			}
			create_pop = {
				culture = mukkaron
				size = 10400
			}
		}
	}
	s:STATE_WESTERN_SALAHAD = {
		region_state:L01 = {
			create_pop = {
				culture = windhowler_gnoll
				size = 28000
				religion = elikhetist
			}
			create_pop = {
				culture = sorrowmane_gnoll
				size = 11200
			}
			create_pop = {
				culture = windhowler_gnoll
				size = 16800
			}
		}
		region_state:L13 = {
			create_pop = {
				culture = windhowler_gnoll
				size = 50400
			}
			create_pop = {
				culture = mukkaron
				size = 21600
			}
		}
		region_state:L14 = {
			create_pop = {
				culture = windhowler_gnoll
				size = 88200
			}
			create_pop = {
				culture = mukkaron
				size = 21420
			}
			create_pop = {
				culture = seascourge_gnoll
				size = 16380
			}
		}
		region_state:L15 = {
			create_pop = {
				culture = windhowler_gnoll
				size = 90400
			}
			create_pop = {
				culture = mukkaron
				size = 22600
			}
		}
	}
	s:STATE_DUWARKANI = {
		region_state:L17 = {
			create_pop = {
				culture = tijarikheti
				size = 703050
			}
			create_pop = {
				culture = nzeri_harpy
				size = 506850
			}
			create_pop = {
				culture = echenka
				size = 81750
			}
			create_pop = {
				culture = pyreclaw_gnoll
				size = 16350
			}
			create_pop = {
				culture = echenka
				size = 81750
				religion = aakhetist
			}
			create_pop = {
				culture = irsmahapan
				size = 245250
				religion = aakhetist
			}
		}
	}
	s:STATE_MUKIS = {
		region_state:L17 = {
			create_pop = {
				culture = tijarikheti
				size = 1144000
			}
			create_pop = {
				culture = nzeri_harpy
				size = 264000
			}
			create_pop = {
				culture = gumzemo
				size = 176000
				religion = aakhetist
			}
			create_pop = {
				culture = ichiadza_lizardfolk
				size = 88000
				religion = aakhetist
			}
			create_pop = {
				culture = gumzemo
				size = 88000
				religion = noukahi_pantheon
			}
		}
	}
	s:STATE_IMIDKIS = {
		region_state:L17 = {
			create_pop = {
				culture = tijarikheti
				size = 1642900
			}
			create_pop = {
				culture = nzeri_harpy
				size = 117350
			}
			create_pop = {
				culture = tijarikheti
				size = 586750
				religion = nirakhetist
			}
		}
	}
	s:STATE_GRIZAKEKAL = {
		region_state:L01 = {
			create_pop = {
				culture = pyreclaw_gnoll
				size = 436000
				religion = elikhetist
			}
			create_pop = {
				culture = pyreclaw_gnoll
				size = 78480
			}
			create_pop = {
				culture = sorrowmane_gnoll
				size = 191840
			}
			create_pop = {
				culture = tijarikheti
				size = 43600
			}
			create_pop = {
				culture = ofehibi
				size = 69760
				pop_type = slaves
			}
			create_pop = {
				culture = swamp_troll
				size = 52320
				pop_type = slaves
			}
		}
	}
	s:STATE_KOGZALLA = {
		region_state:L18 = {
			create_pop = {
				culture = ironpelt_gnoll
				size = 1150680
			}
			create_pop = {
				culture = echenka
				size = 120420
				religion = kvangahga
			}
			create_pop = {
				culture = fieldstalker_gnoll
				size = 53520
			}
			create_pop = {
				culture = sandfang_gnoll
				size = 13380
				religion = xhazobkult
			}
			
		}
	}
	s:STATE_KOGGRAFFA = {
		region_state:L18 = {
			create_pop = {
				culture = maqeti
				size = 1061320
				religion = old_sun_cult
			}
			create_pop = {
				culture = ironpelt_gnoll
				size = 591890
			}
			create_pop = {
				culture = maqeti
				size = 204100
				religion = kvangahga
			}
			create_pop = {
				culture = maqeti
				size = 142870
			}
			create_pop = {
				culture = sandfang_gnoll
				size = 40820
			}
		}
	}
	s:STATE_KOGXUL = {
		region_state:L01 = {
			create_pop = {
				culture = pyreclaw_gnoll
				size = 491640
				religion = elikhetist
			}
			create_pop = {
				culture = pyreclaw_gnoll
				size = 48200
			}
			create_pop = {
				culture = pyreclaw_gnoll
				size = 192800
			}
			create_pop = {
				culture = tijarikheti
				size = 38560
			}
			create_pop = {
				culture = ofehibi
				size = 125320
				pop_type = slaves
			}
			create_pop = {
				culture = swamp_troll
				size = 67480
				pop_type = slaves
			}
		}
	}
	s:STATE_NARAKUKKA = {
		region_state:L01 = {
			create_pop = {
				culture = fieldstalker_gnoll
				size = 303770
				religion = elikhetist
			}
			create_pop = {
				culture = fieldstalker_gnoll
				size = 65680
			}
			create_pop = {
				culture = pyreclaw_gnoll
				size = 106730
				religion = elikhetist
			}
			create_pop = {
				culture = pyreclaw_gnoll
				size = 32840
			}
			create_pop = {
				culture = sorrowmane_gnoll
				size = 106730
			}
			create_pop = {
				culture = irsmahapan
				size = 41050
				religion = aakhetist
			}
			create_pop = {
				culture = echenka
				size = 90310
				religion = aakhetist
				pop_type = slaves
			}
			create_pop = {
				culture = swamp_troll
				size = 73890
				pop_type = slaves
			}
		}
	}
	s:STATE_MAZEXHAD = {
		region_state:L18 = {
			create_pop = {
				culture = ironpelt_gnoll
				size = 682830
			}
			create_pop = {
				culture = echenka
				size = 126450
				religion = kvangahga
			}
			create_pop = {
				culture = fieldstalker_gnoll
				size = 33720
			}
		}
	}
	s:STATE_GARPIXEQQA = {
		region_state:L18 = {
			create_pop = {
				culture = ironpelt_gnoll
				size = 541320
			}
			create_pop = {
				culture = echenka
				size = 364350
				religion = kvangahga
			}
			create_pop = {
				culture = fieldstalker_gnoll
				size = 52050
			}
			create_pop = {
				culture = windhowler_gnoll
				size = 31230
				religion = kvangahga
			}
			create_pop = {
				culture = echenka
				size = 31230
			}
			create_pop = {
				culture = fieldstalker_gnoll
				size = 20820
				religion = shadow_pact
			}
		}
	}
	s:STATE_FIAREKAL = {
		region_state:L18 = {
			create_pop = {
				culture = echenka
				size = 644640
				religion = kvangahga
			}
			create_pop = {
				culture = ironpelt_gnoll
				size = 496910
			}
			create_pop = {
				culture = windhowler_gnoll
				size = 161160
				religion = kvangahga
			}
			create_pop = {
				culture = echenka
				size = 40290
			}
		}
	}
	s:STATE_KVANGRAAK = {
		region_state:L18 = {
			create_pop = {
				culture = ironpelt_gnoll
				size = 3039400
			}
			create_pop = {
				culture = echenka
				size = 911820
				religion = kvangahga
			}
			create_pop = {
				culture = windhowler_gnoll
				size = 260520
				religion = kvangahga
			}
			create_pop = {
				culture = maqeti
				size = 86840
				religion = kvangahga
			}
			create_pop = {
				culture = nalenian_harpy
				size = 43420
				religion = ravelian
			}
		}
	}
	s:STATE_GIZAN = {
		region_state:L18 = {
			create_pop = {
				culture = ironpelt_gnoll
				size = 1061220
			}
			create_pop = {
				culture = echenka
				size = 430640
				religion = kvangahga
			}
			create_pop = {
				culture = windhowler_gnoll
				size = 46140
				religion = kvangahga
			}
		}
	}
	s:STATE_DEMON_SANDS = {
		region_state:L20 = {
			create_pop = {
				culture = fieldstalker_gnoll
				size = 187600
			}
			create_pop = {
				culture = pyreclaw_gnoll
				size = 53600
			}
			create_pop = {
				culture = sandfang_gnoll
				size = 26800
			}
		}
		region_state:L19 = {
			create_pop = {
				culture = pyreclaw_gnoll
				size = 115500
			}
			create_pop = {
				culture = sandfang_gnoll
				size = 35000
				religion = xhazobkult
			}
			create_pop = {
				culture = fieldstalker_gnoll
				size = 24500
			}
		}
	}
	s:STATE_SAQRAXAT = {
		region_state:L21 = {
			create_pop = {
				culture = kudemtu
				size = 861700
			}
			create_pop = {
				culture = sorrowmane_gnoll
				size = 307750
			}
			create_pop = {
				culture = kudemtu
				size = 61550
				religion = noukahi_pantheon
			}
		}
	}
	s:STATE_IRSUKSHESH = {
		region_state:L21 = {
			create_pop = {
				culture = kudemtu
				size = 774800
				religion = noukahi_pantheon
			}
			create_pop = {
				culture = sorrowmane_gnoll
				size = 59600
			}
			create_pop = {
				culture = gomzumu
				size = 59600
				religion = noukahi_pantheon
			}
			create_pop = {
				culture = kudemtu
				size = 298000
			}
		}
	}
	s:STATE_KHAWIT = {
		region_state:L21 = {
			create_pop = {
				culture = mantimatu
				size = 298400
			}
			create_pop = {
				culture = lonanofi_halfling
				size = 186500
			}
			create_pop = {
				culture = kudemtu
				size = 74600
				religion = noukahi_pantheon
			}
			create_pop = {
				culture = mantimatu
				size = 111900
				religion = elikhetist
			}
			create_pop = {
				culture = sorrowmane_gnoll
				size = 37300
			}
			create_pop = {
				culture = lonanofi_halfling
				size = 37300
				religion = ravelian
			}
		}
	}
	s:STATE_KOGINGASA = {
		region_state:L22 = {
			create_pop = {
				culture = mantimatu
				size = 1004400
			}
			create_pop = {
				culture = windhowler_gnoll
				size = 55800
				religion = kvangahga
			}
			create_pop = {
				culture = mantimatu
				size = 55800
				religion = ravelian
			}
		}
	}
	s:STATE_ZUVAVIM = {
		region_state:L23 = {
			create_pop = {
				culture = zuvunwa
				size = 2190500
			}
			create_pop = {
				culture = kuivanhi
				size = 168500
			}
			create_pop = {
				culture = amezatany_halfling
				size = 168500
				religion = ravelian
			}
			create_pop = {
				culture = horakheti
				size = 168500
			}
			create_pop = {
				culture = zuvunwa
				size = 404400
				religion = noukahi_pantheon
			}
			create_pop = {
				culture = kuivanhi
				size = 168500
				religion = noukahi_pantheon
			}
			create_pop = {
				culture = amezatany_halfling
				size = 101100
			}
		}
	}
	s:STATE_KUNOLO = {
		region_state:L24 = {
			create_pop = {
				culture = tamajoba
				size = 478350
				religion = fangaulan_pantheon
			}
			create_pop = {
				culture = jiromji
				size = 425200
			}
			create_pop = {
				culture = lonanofi_halfling
				size = 106300
				religion = ravelian
			}
			create_pop = {
				culture = shyashkay_lizardfolk
				size = 53150
				religion = ravelian
			}
		}
		region_state:A03 = {
			create_pop = {
				culture = jiromji
				size = 1725500
			}
			create_pop = {
				culture = jiromji
				size = 739500
				religion = ravelian
			}
			create_pop = {
				culture = taafi
				size = 246500
			}
			create_pop = {
				culture = amezatany_halfling
				size = 493000
			}
			create_pop = {
				culture = amezatany_halfling
				size = 493000
				religion = fangaulan_pantheon
			}
			create_pop = {
				culture = vernman
				size = 49300
			}
			create_pop = {
				culture = lorentish
				size = 49300
			}
			create_pop = {
				culture = windhowler_gnoll
				size = 246500
				religion = fangaulan_pantheon
			}
			create_pop = {
				culture = shyashkay_lizardfolk
				size = 640900
				religion = fangaulan_pantheon
			}
			create_pop = {
				culture = zuvunwa
				size = 246500
			}
		}
	}
	s:STATE_MUZINGRAZI = {
		region_state:L17 = {
			create_pop = {
				culture = gomzumu
				size = 495600
				religion = aakhetist
			}
			create_pop = {
				culture = kudemtu
				size = 99120
				religion = noukahi_pantheon
			}
			create_pop = {
				culture = kuivanhi
				size = 61950
				religion = noukahi_pantheon
			}
			create_pop = {
				culture = tijarikheti
				size = 61950
			}
			create_pop = {
				culture = gomzumu
				size = 433650
				religion = noukahi_pantheon
			}
			create_pop = {
				culture = kudemtu
				size = 61950
				religion = aakhetist
			}
			create_pop = {
				culture = kudemtu
				size = 24780
				religion = elikhetist
			}
			
		}
	}
	s:STATE_ZENA = {
		region_state:L25 = {
			create_pop = {
				culture = zuvunwa
				size = 536250
			}
			create_pop = {
				culture = arraskay_lizardfolk
				size = 643500
			}
			create_pop = {
				culture = shagashay_lizardfolk
				size = 214500
			}
			create_pop = {
				culture = kuivanhi
				size = 107250
			}
			create_pop = {
				culture = egilshibi
				size = 107250
			}
			create_pop = {
				culture = zuvunwa
				size = 321750
				religion = noukahi_pantheon
			}
			create_pop = {
				culture = kuivanhi
				size = 107250
				religion = anzalkatsa
			}
			create_pop = {
				culture = kuivanhi
				size = 107250
				religion = noukahi_pantheon
			}
		}
	}
	s:STATE_IRIKIN = {
		region_state:L25 = {
			create_pop = {
				culture = kuivanhi
				size = 1444200
			}
			create_pop = {
				culture = arraskay_lizardfolk
				size = 1925600
			}
			create_pop = {
				culture = ichiadza_lizardfolk
				size = 481400
			}
			create_pop = {
				culture = egilshibi
				size = 240700
				religion = noukahi_pantheon
			}
			create_pop = {
				culture = kuivanhi
				size = 722100
				religion = noukahi_pantheon
			}
		}
	}
	s:STATE_IWIXARG = {
		region_state:L26 = {
			create_pop = {
				culture = ironpelt_gnoll
				size = 388740
			}
			create_pop = {
				culture = raindancer_gnoll
				size = 245520
			}
			create_pop = {
				culture = ofehibi
				size = 235290
			}
			create_pop = {
				culture = ofehibi
				size = 81840
				religion = kvangahga
			}
			create_pop = {
				culture = ekedza
				size = 51150
			}
			create_pop = {
				culture = ofehibi
				size = 20460
				religion = the_jadd
			}
		}
		region_state:L18 = {
			create_pop = {
				culture = ironpelt_gnoll
				size = 2027040
			}
			create_pop = {
				culture = echenka
				size = 271920
				religion = kvangahga
			}
			create_pop = {
				culture = ofehibi
				size = 74160
				religion = kvangahga
			}
			create_pop = {
				culture = ofehibi
				size = 49440
			}
			create_pop = {
				culture = nalenian_harpy
				size = 49440
				religion = sky_domain
			}
		}
	}
	s:STATE_BERPARWEDEB = {
		region_state:L26 = {
			create_pop = {
				culture = ofehibi
				size = 1097360
			}
			create_pop = {
				culture = ironpelt_gnoll
				size = 561440
			}
			create_pop = {
				culture = raindancer_gnoll
				size = 535920
			}
			create_pop = {
				culture = ekedza
				size = 178640
			}
			create_pop = {
				culture = ofehibi
				size = 127600
				religion = the_jadd
			}
			create_pop = {
				culture = nalenian_harpy
				size = 25520
				religion = sky_domain
			}
			create_pop = {
				culture = roaming_harimari
				size = 25520
			}
		}
		region_state:L18 = {
			create_pop = {
				culture = ironpelt_gnoll
				size = 1753360
			}
			create_pop = {
				culture = ofehibi
				size = 509040
				religion = kvangahga
			}
			create_pop = {
				culture = echenka
				size = 424200
				religion = kvangahga
			}
			create_pop = {
				culture = ofehibi
				size = 113120
			}
			create_pop = {
				culture = nalenian_harpy
				size = 28280
				religion = ravelian
			}
		}
	}
	s:STATE_HISOST = {
		region_state:L26 = {
			create_pop = {
				culture = ofehibi
				size = 4235920
			}
			create_pop = {
				culture = ironpelt_gnoll
				size = 2280880
			}
			create_pop = {
				culture = raindancer_gnoll
				size = 814600
			}
			create_pop = {
				culture = ofehibi
				size = 244380
				religion = kvangahga
			}
			create_pop = {
				culture = nalenian_harpy
				size = 81460
				religion = sky_domain
			}
			create_pop = {
				culture = ofehibi
				size = 488760
				religion = the_jadd
			}
		}
	}
	s:STATE_TAZOINE = {
		region_state:L18 = {
			create_pop = {
				culture = echenka
				size = 292000
				religion = kvangahga
			}
			create_pop = {
				culture = echenka
				size = 116800
			}
			create_pop = {
				culture = swamp_troll
				size = 58400
			}
			create_pop = {
				culture = ironpelt_gnoll
				size = 58400
			}
			create_pop = {
				culture = swamp_troll
				size = 11680
				religion = kvangahga
			}
		}
	}
	s:STATE_MYPODAUD = {
		region_state:L27 = {
			create_pop = {
				culture = talilibeti
				size = 625800
			}
			create_pop = {
				culture = swamp_troll
				size = 89400
			}
			create_pop = {
				culture = talilibeti
				size = 29800
				religion = shadow_pact
			}
		}
	}
	s:STATE_KAGDILGIR = {
		region_state:L25 = {
			create_pop = {
				culture = echenka
				size = 144540
			}
			create_pop = {
				culture = swamp_troll
				size = 135780
			}
			create_pop = {
				culture = arraskay_lizardfolk
				size = 70080
			}
			create_pop = {
				culture = ichiadza_lizardfolk
				size = 30660
				religion = shadow_pact
			}
			create_pop = {
				culture = ashhana_lizardfolk
				size = 21900
			}
			create_pop = {
				culture = ichiadza_lizardfolk
				size = 35040
			}
		}
	}
	s:STATE_AAKEIRITKI = {
		region_state:L28 = {
			create_pop = {
				culture = swamp_troll
				size = 926000
			}
		}
	}
	s:STATE_FEDONI = {
		region_state:L27 = {
			create_pop = {
				culture = metobesebi
				size = 3752310
			}
			create_pop = {
				culture = raindancer_gnoll
				size = 460810
			}
			create_pop = {
				culture = roaming_harimari
				size = 197490
			}
			create_pop = {
				culture = ofehibi
				size = 1579920
			}
			create_pop = {
				culture = nalenian_harpy
				size = 460810
				religion = sky_domain
			}
			create_pop = {
				culture = ofehibi
				size = 131660
				religion = the_jadd
			}
		}
	}
	s:STATE_SIMAHRIKA = {
		region_state:L27 = {
			create_pop = {
				culture = ofehibi
				size = 4800630
			}
			create_pop = {
				culture = roaming_harimari
				size = 1035430
				religion = sky_domain
			}
			create_pop = {
				culture = raghamidesh
				size = 564780
				religion = sky_domain
			}
			create_pop = {
				culture = nalenian_harpy
				size = 282390
				religion = sky_domain
			}
			create_pop = {
				culture = raindancer_gnoll
				size = 564780
			}
			create_pop = {
				culture = ofehibi
				size = 376520
				religion = the_jadd
			}
			create_pop = {
				culture = ekedza
				size = 1788470
			}
		}
	}
	s:STATE_CHAFALETI = {
		region_state:L27 = {
			create_pop = {
				culture = metobesebi
				size = 2983560
			}
			create_pop = {
				culture = nalenian_harpy
				size = 908040
				religion = sky_domain
			}
			create_pop = {
				culture = ofehibi
				size = 259440
			}
			create_pop = {
				culture = ekedza
				size = 172960
			}
		}
	}
	s:STATE_NALENI = {
		region_state:L29 = {
			create_pop = {
				culture = nalenian_harpy
				size = 1883400
				religion = sky_domain
			}
			create_pop = {
				culture = metobesebi
				size = 1182600
			}
			create_pop = {
				culture = ofehibi
				size = 832200
			}
			create_pop = {
				culture = ekedza
				size = 175200
			}
			create_pop = {
				culture = nalenian_harpy
				size = 175200
				religion = ravelian
			}
			create_pop = {
				culture = roaming_harimari
				size = 87600
				religion = sky_domain
			}
			create_pop = {
				culture = metobesebi
				size = 43800
				religion = ravelian
			}
		}
	}
	s:STATE_TEDALOK = {
		region_state:L27 = {
			create_pop = {
				culture = metobesebi
				size = 2449020
			}
			create_pop = {
				culture = yeteferen
				size = 2215780
			}
			create_pop = {
				culture = nalenian_harpy
				size = 758030
				religion = sky_domain
			}
			create_pop = {
				culture = raindancer_gnoll
				size = 349860
			}
			create_pop = {
				culture = roaming_harimari
				size = 58310
				religion = sky_domain
			}
		}
	}
	s:STATE_ZEDAHRIKA = {
		region_state:L27 = {
			create_pop = {
				culture = yeteferen
				size = 7426080
			}
			create_pop = {
				culture = wakoodak
				size = 825120
			}
			create_pop = {
				culture = nalenian_harpy
				size = 618840
				religion = sky_domain
			}
			create_pop = {
				culture = raindancer_gnoll
				size = 515700
			}
			create_pop = {
				culture = roaming_harimari
				size = 412560
				religion = sky_domain
			}
			create_pop = {
				culture = goldscale_kobold
				size = 309420
				religion = sky_domain
			}
			create_pop = {
				culture = yeteferen
				size = 206280
				religion = the_jadd
			}
		}
	}
	s:STATE_MARADEFI = {
		region_state:L27 = {
			create_pop = {
				culture = yeteferen
				size = 6673320
			}
			create_pop = {
				culture = metobesebi
				size = 1482960
			}
			create_pop = {
				culture = roaming_harimari
				size = 1606540
				religion = sky_domain
			}
			create_pop = {
				culture = nalenian_harpy
				size = 1606540
				religion = sky_domain
			}
			create_pop = {
				culture = raindancer_gnoll
				size = 988640
			}
		}
	}
	s:STATE_AFERET = {
		region_state:L27 = {
			create_pop = {
				culture = yeteferen
				size = 10613160
			}
			create_pop = {
				culture = raindancer_gnoll
				size = 570600
			}
			create_pop = {
				culture = roaming_harimari
				size = 228240
				religion = sky_domain
			}
		}
	}
	s:STATE_YETEDARA = {
		region_state:L27 = {
			create_pop = {
				culture = yeteferen
				size = 3318000
			}
			create_pop = {
				culture = sitewosi
				size = 1659000
			}
			create_pop = {
				culture = umsozidak
				size = 331800
				religion = sky_domain
			}
			create_pop = {
				culture = nalenian_harpy
				size = 221200
				religion = sky_domain
			}
		}
	}
	s:STATE_KIHEREGA = {
		region_state:L27 = {
			create_pop = {
				culture = talilibeti
				size = 1064770
			}
			create_pop = {
				culture = ofehibi
				size = 695360
			}
			create_pop = {
				culture = sitewosi
				size = 195570
			}
			create_pop = {
				culture = raindancer_gnoll
				size = 130380
			}
			create_pop = {
				culture = talilibeti
				size = 86920
				religion = shadow_pact
			}
		}
	}
	s:STATE_MEWOJALA = {
		region_state:L27 = {
			create_pop = {
				culture = ofehibi
				size = 5368890
			}
			create_pop = {
				culture = talilibeti
				size = 622480
			}
			create_pop = {
				culture = roaming_harimari
				size = 311240
			}
			create_pop = {
				culture = raindancer_gnoll
				size = 1167150
			}
			create_pop = {
				culture = ofehibi
				size = 233430
				religion = the_jadd
			}
			create_pop = {
				culture = talilibeti
				size = 77810
				religion = shadow_pact
			}
		}
	}
	s:STATE_MEREKAWI = {
		region_state:L27 = {
			create_pop = {
				culture = talilibeti
				size = 2113440
			}
			create_pop = {
				culture = ofehibi
				size = 1657600
			}
			create_pop = {
				culture = raindancer_gnoll
				size = 331520
			}
			create_pop = {
				culture = talilibeti
				size = 41440
				religion = shadow_pact
			}
		}
	}
	s:STATE_WEDLAYAWET = {
		region_state:L27 = {
			create_pop = {
				culture = sitewosi
				size = 5588640
			}
			create_pop = {
				culture = yeteferen
				size = 1552400
			}
			create_pop = {
				culture = talilibeti
				size = 310480
			}
			create_pop = {
				culture = raindancer_gnoll
				size = 155240
			}
			create_pop = {
				culture = talilibeti
				size = 155240
				religion = shadow_pact
			}
		}
	}
	s:STATE_TELEKIBE = {
		region_state:L27 = {
			create_pop = {
				culture = yeteferen
				size = 10527250
			}
			create_pop = {
				culture = tanizu
				size = 371550
				religion = sky_domain
			}
			create_pop = {
				culture = roaming_harimari
				size = 247700
				religion = sky_domain
			}
			create_pop = {
				culture = raindancer_gnoll
				size = 743100
			}
			create_pop = {
				culture = nalenian_harpy
				size = 495400
				religion = sky_domain
			}
		}
	}
	s:STATE_RUGRUSHYABA = {
		region_state:L30 = {
			create_pop = {
				culture = tanizu
				size = 1060580
				religion = sky_domain
			}
			create_pop = {
				culture = talilibeti
				size = 418650
			}
			create_pop = {
				culture = tanizu
				size = 307010
			}
			create_pop = {
				culture = cyazizeta_lizardfolk
				size = 530290
			}
			create_pop = {
				culture = sitewosi
				size = 223280
			}
			create_pop = {
				culture = kombedak
				size = 195370
				religion = sky_domain
			}
			create_pop = {
				culture = talilibeti
				size = 55820
				religion = shadow_pact
			}
		}
	}
	s:STATE_MELAKHAKI = {
		region_state:L30 = {
			create_pop = {
				culture = tanizu
				size = 2285920
				religion = sky_domain
			}
			create_pop = {
				culture = sitewosi
				size = 2530840
			}
			create_pop = {
				culture = kombedak
				size = 2204280
				religion = sky_domain
			}
			create_pop = {
				culture = cyazizeta_lizardfolk
				size = 571480
			}
			create_pop = {
				culture = tanizu
				size = 571480
			}
		}
	}
	s:STATE_BIMBIGIHU = {
		region_state:L30 = {
			create_pop = {
				culture = tanizu
				size = 493580
				religion = sky_domain
			}
			create_pop = {
				culture = tanizu
				size = 186760
			}
			create_pop = {
				culture = cyazizeta_lizardfolk
				size = 366850
			}
			create_pop = {
				culture = sitewosi
				size = 166750
			}
			create_pop = {
				culture = kombedak
				size = 80040
				religion = sky_domain
			}
			create_pop = {
				culture = sitewosi
				size = 26680
			}
			create_pop = {
				culture = umsozidak
				size = 13340
			}
		}
	}
	s:STATE_UMUZOSI = {
		region_state:L31 = {
			create_pop = {
				culture = tanizu
				size = 413960
			}
			create_pop = {
				culture = tanizu
				size = 12640
				religion = sky_domain
			}
			create_pop = {
				culture = cyazizeta_lizardfolk
				size = 180120
			}
			create_pop = {
				culture = ashhana_lizardfolk
				size = 25280
			}
		}
	}
	s:STATE_BIKMEGHOME = {
		region_state:L31 = {
			create_pop = {
				culture = cyazizeta_lizardfolk
				size = 505410
			}
			create_pop = {
				culture = tanizu
				size = 272525
			}
			create_pop = {
				culture = tanizu
				size = 14865
				religion = sky_domain
			}
			create_pop = {
				culture = kombedak
				size = 148650
			}
			create_pop = {
				culture = umsozidak
				size = 19820
			}
			create_pop = {
				culture = kombedak
				size = 9910
				religion = shadow_pact
			}
			create_pop = {
				culture = ashhana_lizardfolk
				size = 9910
			}
			create_pop = {
				culture = antmvura
				size = 9910
			}
		}
	}
	s:STATE_UMUPKA = {
		region_state:L31 = {
			create_pop = {
				culture = kombedak
				size = 460130
			}
			create_pop = {
				culture = kombedak
				size = 41360
				religion = shadow_pact
			}
			create_pop = {
				culture = cyazizeta_lizardfolk
				size = 248160
			}
			create_pop = {
				culture = umsozidak
				size = 72380
			}
			create_pop = {
				culture = umsozidak
				size = 36190
				religion = shadow_pact
			}
			create_pop = {
				culture = tanizu
				size = 175780
			}
		}
		region_state:L32 = {
			create_pop = {
				culture = kombedak
				size = 45580
			}
			create_pop = {
				culture = ashamadi
				size = 5830
			}
			create_pop = {
				culture = cyazizeta_lizardfolk
				size = 1590
			}
		}
	}
	s:STATE_JUUDHULA = {
		region_state:L33 = {
			create_pop = {
				culture = wakoodak
				size = 362840
			}
			create_pop = {
				culture = umsozidak
				size = 223880
			}
			create_pop = {
				culture = umsozidak
				size = 84920
				religion = shadow_pact
			}
			create_pop = {
				culture = kombedak
				size = 23160
				religion = sky_domain
			}
			create_pop = {
				culture = kombedak
				size = 69480
			}
			create_pop = {
				culture = kombedak
				size = 7720
				religion = shadow_pact
			}
		}
	}
	s:STATE_KOMBEDHULA = {
		region_state:L33 = {
			create_pop = {
				culture = kombedak
				size = 563680
			}
			create_pop = {
				culture = kombedak
				size = 21680
				religion = shadow_pact
			}
			create_pop = {
				culture = antmvura
				size = 200540
				religion = beast_memory
			}
			create_pop = {
				culture = antmvura
				size = 97560
			}
			create_pop = {
				culture = antmvura
				size = 10840
				religion = shadow_pact
			}
			create_pop = {
				culture = umsozidak
				size = 124660
			}
			create_pop = {
				culture = umsozidak
				size = 32520
				religion = shadow_pact
			}
			create_pop = {
				culture = wakoodak
				size = 32520
			}
		}
		region_state:L34 = {
			create_pop = {
				culture = antmvura
				size = 19147
				religion = beast_memory
			}
			create_pop = {
				culture = antmvura
				size = 12142
			}
			create_pop = {
				culture = kombedak
				size = 9340
			}
			create_pop = {
				culture = adzalanas_lizardfolk
				size = 6071
			}
		}
	}
	s:STATE_MASHREMBTA = {
		region_state:L33 = {
			create_pop = {
				culture = antmvura
				size = 716580
			}
			create_pop = {
				culture = antmvura
				size = 99525
				religion = beast_memory
			}
			create_pop = {
				culture = antmvura
				size = 33175
				religion = shadow_pact
			}
			create_pop = {
				culture = wakoodak
				size = 411370
			}
			create_pop = {
				culture = umsozidak
				size = 53080
			}
			create_pop = {
				culture = umsozidak
				size = 13270
				religion = shadow_pact
			}
		}
		region_state:L32 = {
			create_pop = {
				culture = antmvura
				size = 19293
			}
			create_pop = {
				culture = antmvura
				size = 7058
				religion = rinta_seekers
			}
			create_pop = {
				culture = ashamadi
				size = 5019
			}
		}
	}
	s:STATE_MVUALIMA = {
		region_state:L33 = {
			create_pop = {
				culture = wakoodak
				size = 469110
			}
			create_pop = {
				culture = antmvura
				size = 279820
			}
			create_pop = {
				culture = antmvura
				size = 41150
				religion = beast_memory
			}
			create_pop = {
				culture = antmvura
				size = 16460
				religion = ravelian
			}
			create_pop = {
				culture = antmvura
				size = 16460
				religion = shadow_pact
			}
		}
		region_state:A04 = {
			create_pop = {
				culture = antmvura
				size = 17458
			}
			create_pop = {
				culture = antmvura
				size = 4722
				religion = ravelian
			}
			create_pop = {
				culture = antmvura
				size = 2862
				religion = beast_memory
			}
			create_pop = {
				culture = gawedi
				size = 3578
			}
		}
	}
	s:STATE_YADATI = {
		region_state:L25 = {
			create_pop = {
				culture = arraskay_lizardfolk
				size = 289850
			}
			create_pop = {
				culture = egilshibi
				size = 34100
				religion = noukahi_pantheon
			}
			create_pop = {
				culture = ichiadza_lizardfolk
				size = 17050
			}
		}
		region_state:L38 = {
			create_pop = {
				culture = arraskay_lizardfolk
				size = 183400
			}
			create_pop = {
				culture = shagashay_lizardfolk
				size = 39300
			}
			create_pop = {
				culture = egilshibi
				size = 13100
				religion = noukahi_pantheon
			}
			create_pop = {
				culture = arraskay_lizardfolk
				size = 26200
				religion = shadow_pact
			}
		}
		region_state:L39 = {
			create_pop = {
				culture = arraskay_lizardfolk
				size = 246600
				religion = shadow_pact
			}
			create_pop = {
				culture = arraskay_lizardfolk
				size = 164400
			}
		}
	}
	s:STATE_IRKLAZ = {
		region_state:L37 = {
			create_pop = {
				culture = arraskay_lizardfolk
				size = 812700
			}
			create_pop = {
				culture = egilshibi
				size = 90300
			}
		}
	}
	s:STATE_KARASSK = {
		region_state:L35 = {
			create_pop = {
				culture = shagashay_lizardfolk
				size = 2013500
				religion = ravelian
			}
			create_pop = {
				culture = shagashay_lizardfolk
				size = 201350
			}
			create_pop = {
				culture = shagashay_lizardfolk
				size = 161080
				religion = ravelian
			}
			create_pop = {
				culture = karshyray_lizardfolk
				size = 1208100
			}
			create_pop = {
				culture = karshyray_lizardfolk
				size = 80540
				religion = rinta_seekers
			}
			create_pop = {
				culture = shagashay_lizardfolk
				size = 80540
				religion = rinta_seekers
			}
			create_pop = {
				culture = mazava_halfling
				size = 241620
			}
			create_pop = {
				culture = mazava_halfling
				size = 40270
				religion = nakavy_avo
			}
		}
	}
	s:STATE_RANKATY_ISLANDS = {
		region_state:L35 = {
			create_pop = {
				culture = karshyray_lizardfolk
				size = 608800
			}
			create_pop = {
				culture = mazava_halfling
				size = 38050
			}
			create_pop = {
				culture = mazava_halfling
				size = 30440
				religion = nakavy_avo
			}
			create_pop = {
				culture = karshyray_lizardfolk
				size = 30440
				religion = rinta_seekers
			}
			create_pop = {
				culture = karshyray_lizardfolk
				size = 53270
				religion = anzalkatsa
			}
		}
	}
	s:STATE_ANZANES = {
		region_state:L25 = {
			create_pop = {
				culture = arraskay_lizardfolk
				size = 472400
			}
			create_pop = {
				culture = ichiadza_lizardfolk
				size = 472400
			}
			create_pop = {
				culture = tijarikheti
				size = 118100
			}
			create_pop = {
				culture = ichiadza_lizardfolk
				size = 118100
			}
		}
	}
	s:STATE_AZASI = {
		region_state:L25 = {
			create_pop = {
				culture = arraskay_lizardfolk
				size = 500800
			}
			create_pop = {
				culture = arraskay_lizardfolk
				size = 125200
				religion = shadow_pact
			}
		}
		region_state:L40 = {
			create_pop = {
				culture = arraskay_lizardfolk
				size = 485400
			}
			create_pop = {
				culture = arraskay_lizardfolk
				size = 323600
				religion = shadow_pact
			}
		}
	}
	s:STATE_SUTNASAAK = {
		region_state:L25 = {
			create_pop = {
				culture = ichiadza_lizardfolk
				size = 943600
			}
			create_pop = {
				culture = ichiadza_lizardfolk
				size = 323520
				religion = shadow_pact
			}
			create_pop = {
				culture = tijarikheti
				size = 53920
			}
			create_pop = {
				culture = nzeri_harpy
				size = 26960
			}
		}
	}
	s:STATE_LASADZA = {
		region_state:L25 = {
			create_pop = {
				culture = ichiadza_lizardfolk
				size = 4184400
			}
			create_pop = {
				culture = ichiadza_lizardfolk
				size = 1268000
				religion = shadow_pact
			}
			create_pop = {
				culture = nzeri_harpy
				size = 63400
			}
			create_pop = {
				culture = tijarikheti
				size = 126800
			}
			create_pop = {
				culture = arraskay_lizardfolk
				size = 697400
			}
		}
	}
	s:STATE_NATALAZ = {
		region_state:L25 = {
			create_pop = {
				culture = arraskay_lizardfolk
				size = 249150
			}
			create_pop = {
				culture = ichiadza_lizardfolk
				size = 90600
			}
			create_pop = {
				culture = arraskay_lizardfolk
				size = 67950
				religion = shadow_pact
			}
			create_pop = {
				culture = ichiadza_lizardfolk
				size = 45300
				religion = shadow_pact
			}
		}
		region_state:L41 = {
			create_pop = {
				culture = arraskay_lizardfolk
				size = 785700
			}
			create_pop = {
				culture = arraskay_lizardfolk
				size = 87300
				religion = shadow_pact
			}
		}
	}
	s:STATE_KHUGRA = {
		region_state:L36 = {
			create_pop = {
				culture = shagatyn_lizardfolk
				size = 1854000
			}
			create_pop = {
				culture = shagatyn_lizardfolk
				size = 1112400
				religion = shadow_pact
			}
			create_pop = {
				culture = arraskay_lizardfolk
				size = 185400
				religion = shadow_pact
			}
			create_pop = {
				culture = arraskay_lizardfolk
				size = 185400
			}
			create_pop = {
				culture = skarakara_lizardfolk
				size = 185400
				religion = shadow_pact
			}
			create_pop = {
				culture = mazava_halfling
				size = 74160
				religion = shadow_pact
			}
			create_pop = {
				culture = mazava_halfling
				size = 111240
				religion = nakavy_avo
			}
		}
	}
	s:STATE_ADGUR = {
		region_state:L25 = {
			create_pop = {
				culture = ashhana_lizardfolk
				size = 161550
				religion = shadow_pact
			}
			create_pop = {
				culture = ashhana_lizardfolk
				size = 107700
				religion = anzalkatsa
			}
			create_pop = {
				culture = ashhana_lizardfolk
				size = 53850
			}
			create_pop = {
				culture = ichiadza_lizardfolk
				size = 35900
			}
		}
		region_state:L43 = {
			create_pop = {
				culture = ashhana_lizardfolk
				size = 780000
				religion = shadow_pact
			}
		}
	}
	s:STATE_ZALKATA = {
		region_state:L25 = {
			create_pop = {
				culture = arraskay_lizardfolk
				size = 56000
			}
			create_pop = {
				culture = arraskay_lizardfolk
				size = 39200
				religion = shadow_pact
			}
			create_pop = {
				culture = ashhana_lizardfolk
				size = 15120
				religion = anzalkatsa
			}
			create_pop = {
				culture = ashhana_lizardfolk
				size = 1680
			}
		}
		region_state:L44 = {
			create_pop = {
				culture = arraskay_lizardfolk
				size = 318600
				religion = shadow_pact
			}
			create_pop = {
				culture = arraskay_lizardfolk
				size = 212400
			}
		}
		region_state:L42 = {
			create_pop = {
				culture = arraskay_lizardfolk
				size = 203400
				religion = shadow_pact
			}
			create_pop = {
				culture = arraskay_lizardfolk
				size = 22600
			}
		}
	}
	s:STATE_ZATSUTI = {
		region_state:L36 = {
			create_pop = {
				culture = arraskay_lizardfolk
				size = 1018500
			}
			create_pop = {
				culture = arraskay_lizardfolk
				size = 218250
				religion = shadow_pact
			}
			create_pop = {
				culture = skarakara_lizardfolk
				size = 72750
				religion = shadow_pact
			}
			create_pop = {
				culture = skarakara_lizardfolk
				size = 72750
			}
			create_pop = {
				culture = ashhana_lizardfolk
				size = 72750
			}
		}
	}
	s:STATE_NAZHNI = {
		region_state:L36 = {
			create_pop = {
				culture = skarakara_lizardfolk
				size = 1535520
			}
			create_pop = {
				culture = skarakara_lizardfolk
				size = 1279600
				religion = shadow_pact
			}
			create_pop = {
				culture = arraskay_lizardfolk
				size = 182800
			}
			create_pop = {
				culture = arraskay_lizardfolk
				size = 182800
				religion = shadow_pact
			}
			create_pop = {
				culture = mashkay_lizardfolk
				size = 219360
			}
			create_pop = {
				culture = mazava_halfling
				size = 109680
				religion = shadow_pact
			}
			create_pop = {
				culture = mazava_halfling
				size = 73120
				religion = nakavy_avo
			}
			create_pop = {
				culture = ashhana_lizardfolk
				size = 73120
			}
		}
	}
	s:STATE_YASSA = {
		region_state:L36 = {
			create_pop = {
				culture = mashkay_lizardfolk
				size = 814500
			}
			create_pop = {
				culture = skarakara_lizardfolk
				size = 488700
			}
			create_pop = {
				culture = skarakara_lizardfolk
				size = 181000
				religion = shadow_pact
			}
			create_pop = {
				culture = mashkay_lizardfolk
				size = 90500
				religion = shadow_pact
			}
			create_pop = {
				culture = merfolk
				size = 36200
			}
			create_pop = {
				culture = mazava_halfling
				size = 36200
				religion = nakavy_avo
			}
			create_pop = {
				culture = rhada_lizardfolk
				size = 90500
			}
			create_pop = {
				culture = ashhana_lizardfolk
				size = 72400
			}
		}
	}
	s:STATE_TRESSIK_ISLANDS = {
		region_state:L36 = {
			create_pop = {
				culture = skarakara_lizardfolk
				size = 213000
			}
			create_pop = {
				culture = skarakara_lizardfolk
				size = 71000
				religion = shadow_pact
			}
			create_pop = {
				culture = merfolk
				size = 35500
			}
			create_pop = {
				culture = dhebiji
				size = 35500
			}
		}
	}
	s:STATE_NINUNITH = {
		region_state:L34 = {
			create_pop = {
				culture = adzalanas_lizardfolk
				size = 806400
			}
			create_pop = {
				culture = rhada_lizardfolk
				size = 57600
			}
			create_pop = {
				culture = arraskay_lizardfolk
				size = 57600
			}
			create_pop = {
				culture = ashhana_lizardfolk
				size = 230400
			}
		}
	}
	s:STATE_TAZAS = {
		region_state:L34 = {
			create_pop = {
				culture = adzalanas_lizardfolk
				size = 530400
			}
			create_pop = {
				culture = rhada_lizardfolk
				size = 97920
				religion = zaradyrra
			}
			create_pop = {
				culture = rhada_lizardfolk
				size = 24480
			}
			create_pop = {
				culture = ashhana_lizardfolk
				size = 163200
			}
		}
	}
	s:STATE_ZULBUR = {
		region_state:L34 = {
			create_pop = {
				culture = adzalanas_lizardfolk
				size = 1526700
			}
			create_pop = {
				culture = mashkay_lizardfolk
				size = 109050
				religion = zaradyrra
			}
			create_pop = {
				culture = mashkay_lizardfolk
				size = 327150
			}
			create_pop = {
				culture = ashhana_lizardfolk
				size = 218100
			}
		}
	}
	s:STATE_YADASADZA = {
		region_state:L34 = {
			create_pop = {
				culture = rhada_lizardfolk
				size = 1408550
				religion = zaradyrra
			}
			create_pop = {
				culture = adzalanas_lizardfolk
				size = 307320
			}
			create_pop = {
				culture = rhada_lizardfolk
				size = 256100
			}
			create_pop = {
				culture = tanizu
				size = 128050
				religion = zaradyrra
			}
			create_pop = {
				culture = tanizu
				size = 128050
			}
			create_pop = {
				culture = tanizu
				size = 64025
				religion = shadow_pact
			}
			create_pop = {
				culture = cyazizeta_lizardfolk
				size = 64025
			}
			create_pop = {
				culture = ashhana_lizardfolk
				size = 204880
			}
		}
	}
	s:STATE_KHUSADZA = {
		region_state:L34 = {
			create_pop = {
				culture = rhada_lizardfolk
				size = 2018180
				religion = zaradyrra
			}
			create_pop = {
				culture = adzalanas_lizardfolk
				size = 1433970
			}
			create_pop = {
				culture = rhada_lizardfolk
				size = 531100
			}
			create_pop = {
				culture = tanizu
				size = 371770
				religion = zaradyrra
			}
			create_pop = {
				culture = cyazizeta_lizardfolk
				size = 212440
				religion = zaradyrra
			}
			create_pop = {
				culture = tanizu
				size = 106220
			}
			create_pop = {
				culture = cyazizeta_lizardfolk
				size = 53110
			}
			create_pop = {
				culture = cyazizeta_lizardfolk
				size = 53110
				religion = anzalkatsa
			}
			create_pop = {
				culture = tinker_gnome
				size = 53110
			}
			create_pop = {
				culture = ashhana_lizardfolk
				size = 477990
			}
		}
	}
	s:STATE_KASHYZIR = {
		region_state:L34 = {
			create_pop = {
				culture = tanizu
				size = 277800
			}
			create_pop = {
				culture = adzalanas_lizardfolk
				size = 185200
			}
			create_pop = {
				culture = tanizu
				size = 231500
				religion = zaradyrra
			}
			create_pop = {
				culture = cyazizeta_lizardfolk
				size = 92600
				religion = zaradyrra
			}
			create_pop = {
				culture = cyazizeta_lizardfolk
				size = 46300
			}
			create_pop = {
				culture = rhada_lizardfolk
				size = 46300
			}
			create_pop = {
				culture = ashhana_lizardfolk
				size = 46300
			}
		}
	}
	s:STATE_ASHAMADIAT = {
		region_state:L32 = {
			create_pop = {
				culture = dhebiji
				size = 1208300
			}
			create_pop = {
				culture = ashamadi
				size = 899200
			}
			create_pop = {
				culture = mashkay_lizardfolk
				size = 224800
			}
			create_pop = {
				culture = tanizu
				size = 140500
				religion = rinta_seekers
			}
			create_pop = {
				culture = merfolk
				size = 337200
			}
		}
	}
	s:STATE_DADUBAKHA = {
		region_state:L32 = {
			create_pop = {
				culture = ashamadi
				size = 926800
			}
			create_pop = {
				culture = dhebiji
				size = 158880
			}
			create_pop = {
				culture = mashkay_lizardfolk
				size = 66200
			}
			create_pop = {
				culture = tanizu
				size = 66200
				religion = rinta_seekers
			}
			create_pop = {
				culture = merfolk
				size = 105920
			}
		}
	}
	s:STATE_GAWAKHIZA = {
		region_state:L32 = {
			create_pop = {
				culture = ashamadi
				size = 1582700
			}
			create_pop = {
				culture = tanizu
				size = 180880
				religion = rinta_seekers
			}
			create_pop = {
				culture = umsozidak
				size = 67830
				religion = rinta_seekers
			}
			create_pop = {
				culture = dhebiji
				size = 113050
			}
			create_pop = {
				culture = gataw
				size = 67830
			}
			create_pop = {
				culture = merfolk
				size = 248710
			}
		}
	}
	s:STATE_MADHALAYSNIMO = {
		region_state:L32 = {
			create_pop = {
				culture = dhebiji
				size = 1639200
			}
			create_pop = {
				culture = ashamadi
				size = 163920
			}
			create_pop = {
				culture = tanizu
				size = 81960
				religion = rinta_seekers
			}
			create_pop = {
				culture = merfolk
				size = 163920
			}
		}
	}
	s:STATE_BEERAGGA = {
		region_state:L32 = {
			create_pop = {
				culture = dhebiji
				size = 2301400
			}
			create_pop = {
				culture = ashamadi
				size = 81960
			}
			create_pop = {
				culture = tanizu
				size = 122940
				religion = rinta_seekers
			}
			create_pop = {
				culture = merfolk
				size = 204900
			}
			create_pop = {
				culture = suhratbi
				size = 122940
			}
		}
	}
	s:STATE_DIMDHULKA = {
		region_state:L32 = {
			create_pop = {
				culture = dhebiji
				size = 1158750
			}
			create_pop = {
				culture = guryadagga
				size = 185400
				religion = jinnisadda
			}
			create_pop = {
				culture = merfolk
				size = 108150
			}
			create_pop = {
				culture = suhratbi
				size = 92700
			}
		}
	}
	s:STATE_BADABHUR = {
		region_state:L32 = {
			create_pop = {
				culture = suhratbi
				size = 1008900
			}
			create_pop = {
				culture = tanizu
				size = 22420
			}
			create_pop = {
				culture = merfolk
				size = 89680
			}
		}
	}
	s:STATE_BADDABI = {
		region_state:L32 = {
			create_pop = {
				culture = dhebiji
				size = 1317220
			}
			create_pop = {
				culture = guryadagga
				size = 275240
				religion = jinnisadda
			}
			create_pop = {
				culture = tanizu
				size = 137620
			}
			create_pop = {
				culture = busilari
				size = 58980
			}
			create_pop = {
				culture = merfolk
				size = 176940
			}
		}
	}
	s:STATE_UWAKILA_BAASHI = {
		region_state:L32 = {
			create_pop = {
				culture = suhratbi
				size = 1329000
			}
			create_pop = {
				culture = merfolk
				size = 398700
			}
			create_pop = {
				culture = ashamadi
				size = 199350
			}
			create_pop = {
				culture = dhebiji
				size = 265800
			}
			create_pop = {
				culture = tinker_gnome
				size = 22150
			}
		}
	}
	s:STATE_DJINNAKAH = {
		region_state:L49 = {
			create_pop = {
				culture = guryadagga
				size = 281880
				religion = jinnisadda
			}
			create_pop = {
				culture = busilari
				size = 12960
			}
			create_pop = {
				culture = merfolk
				size = 19440
			}
			create_pop = {
				culture = guryadagga
				size = 9720
			}
		}
	}
	s:STATE_TAGTO_PENNINSULA = {
		region_state:A03 = {
			create_pop = {
				culture = lorentish
				size = 14800
			}
			create_pop = {
				culture = guryadagga
				size = 22200
				religion = jinnisadda
			}
			create_pop = {
				culture = merfolk
				size = 37000
			}
		}
		region_state:L48 = {
			create_pop = {
				culture = guryadagga
				size = 107690
				religion = jinnisadda
			}
			create_pop = {
				culture = grombari_orc
				size = 1210
			}
			create_pop = {
				culture = merfolk
				size = 12100
			}
		}
	}
	s:STATE_NORTHERN_DIVIDE = {
		region_state:A09 = {
			create_pop = {
				culture = busilari
				size = 13860
			}
			create_pop = {
				culture = ardimyan
				size = 22440
			}
			create_pop = {
				culture = guryadagga
				size = 29700
				religion = jinnisadda
			}
		}
		region_state:L46 = {
			create_pop = {
				culture = ardimyan
				size = 125400
			}
			create_pop = {
				culture = vernman
				size = 48400
			}
			create_pop = {
				culture = busilari
				size = 19800
			}
			create_pop = {
				culture = guryadagga
				size = 22000
			}
			create_pop = {
				culture = east_damerian
				size = 4400
			}
		}
	}
	s:STATE_SOUTHERN_DIVIDE = {
		region_state:L46 = {
			create_pop = {
				culture = ardimyan
				size = 758970
			}
			create_pop = {
				culture = merfolk
				size = 65590
			}
			create_pop = {
				culture = busilari
				size = 37480
			}
			create_pop = {
				culture = guryadagga
				size = 46850
				religion = jinnisadda
			}
			create_pop = {
				culture = vernman
				size = 28110
			}
		}
	}
	s:STATE_CADIHLAND = {
		region_state:L45 = {
			create_pop = {
				culture = ardimyan
				size = 637560
			}
			create_pop = {
				culture = guryadagga
				size = 91080
				religion = jinnisadda
			}
			create_pop = {
				culture = merfolk
				size = 30360
			}
		}
	}
	s:STATE_OHITS = {
		region_state:A09 = {
			create_pop = {
				culture = busilari
				size = 19800
			}
			create_pop = {
				culture = guryadagga
				size = 16200
				religion = jinnisadda
			}
		}
		region_state:L45 = {
			create_pop = {
				culture = ardimyan
				size = 978380
			}
			create_pop = {
				culture = guryadagga
				size = 179140
				religion = jinnisadda
			}
			create_pop = {
				culture = merfolk
				size = 151580
			}
			create_pop = {
				culture = busilari
				size = 41340
			}
			create_pop = {
				culture = suhratbi
				size = 27560
			}
		}
	}
	s:STATE_DJINNCOST = {
		region_state:L45 = {
			create_pop = {
				culture = ardimyan
				size = 816860
			}
			create_pop = {
				culture = merfolk
				size = 155100
			}
			create_pop = {
				culture = guryadagga
				size = 51700
				religion = jinnisadda
			}
			create_pop = {
				culture = busilari
				size = 10340
			}
		}
	}
	s:STATE_WATTOI = {
		region_state:L45 = {
			create_pop = {
				culture = ardimyan
				size = 307200
			}
			create_pop = {
				culture = guryadagga
				size = 168960
				religion = jinnisadda
			}
			create_pop = {
				culture = busilari
				size = 20480
			}
			create_pop = {
				culture = tinker_gnome
				size = 5120
			}
			create_pop = {
				culture = guryadagga
				size = 10240
			}
		}
	}
	s:STATE_ARDIMYAN_DESERT = {
		region_state:L50 = {
			create_pop = {
				culture = guryadagga
				size = 32300
			}
		}
		region_state:L51 = {
			create_pop = {
				culture = guryadagga
				size = 26000
			}
		}
		region_state:L52 = {
			create_pop = {
				culture = guryadagga
				size = 37000
			}
		}
	}
	s:STATE_VISAGE_ISLES = {
		region_state:L47 = {
			create_pop = {
				culture = east_damerian
				size = 10890
				religion = corinite
			}
			create_pop = {
				culture = merfolk
				size = 110110
			}
		}
		region_state:A03 = {
			create_pop = {
				culture = east_damerian
				size = 4600
				religion = corinite
			}
			create_pop = {
				culture = merfolk
				size = 41400
			}
		}
	}
	s:STATE_CRESCENT_LINE = {
		region_state:A06 = {
			create_pop = {
				culture = cliff_gnome
				size = 6300
			}
			create_pop = {
				culture = suhratbi
				size = 210
			}
			create_pop = {
				culture = merfolk
				size = 14490
			}
		}
		region_state:L32 = {
			create_pop = {
				culture = suhratbi
				size = 8200
			}
			create_pop = {
				culture = ashamadi
				size = 2050
			}
			create_pop = {
				culture = merfolk
				size = 30750
			}
		}
	}
	s:STATE_FOG_ISLES = {
		region_state:L32 = {
			create_pop = {
				culture = ashamadi
				size = 25600
			}
			create_pop = {
				culture = merfolk
				size = 6400
			}
		}
		region_state:A03 = {
			create_pop = {
				culture = kelino
				size = 24400
			}
			create_pop = {
				culture = lorentish
				size = 12200
			}
			create_pop = {
				culture = gataw
				size = 15250
			}
			create_pop = {
				culture = ashamadi
				size = 9150
			}
		}
	}
	s:STATE_AFOMAPOBO = {
		region_state:L68 = {
			create_pop = {
				culture = amezatany_halfling
				size = 1239318
				religion = ravelian
			}
			create_pop = {
				culture = amezatany_halfling
				size = 715162
			}
			create_pop = {
				culture = amezatany_halfling
				size = 266520
			}
		}
		region_state:L61 = {
			create_pop = {
				culture = zohebidi_halfling
				size = 287472
			}
			create_pop = {
				culture = jiromji
				size = 101248
			}
			create_pop = {
				culture = kaino
				size = 37968
			}
			create_pop = {
				culture = vernman
				size = 25312
			}
		}
	}
	s:STATE_NAFALOFIMAPO = {
		region_state:L23 = {
			create_pop = {
				culture = amezatany_halfling
				size = 1706209
			}
			create_pop = {
				culture = amezatany_halfling
				size = 208191
				religion = ravelian
			}
			create_pop = {
				culture = itayzemby_lizardfolk
				size = 272802
			}
			create_pop = {
				culture = otakazemby
				size = 134008
			}
			create_pop = {
				culture = zuvunwa
				size = 71790
			}
		}
	}
	s:STATE_MAPONOSY = {
		region_state:L53 = {
			create_pop = {
				culture = fomarati_halfling
				size = 1614599
			}
			create_pop = {
				culture = fomarati_halfling
				size = 520576
				religion = nakavy_avo
			}
			create_pop = {
				culture = otakazemby
				size = 561246
				religion = ravelian
			}
			create_pop = {
				culture = itayzemby_lizardfolk
				size = 183015
			}
			create_pop = {
				culture = mboala_halfling
				size = 166747
				religion = shadow_pact
			}
			create_pop = {
				culture = mboala_halfling
				size = 536844
			}
			create_pop = {
				culture = zuvunwa
				size = 81340
			}
			create_pop = {
				culture = amezatany_halfling
				size = 361963
			}
			create_pop = {
				culture = tinker_gnome
				size = 40670
			}
		}
	}
	s:STATE_HELIBETIBOKBO = {
		region_state:L54 = {
			create_pop = {
				culture = mboala_halfling
				size = 1993134
			}
			create_pop = {
				culture = itayzemby_lizardfolk
				size = 329866
			}
		}
		region_state:L53 = {
			create_pop = {
				culture = mboala_halfling
				size = 346014
			}
			create_pop = {
				culture = fomarati_halfling
				size = 56682
			}
			create_pop = {
				culture = itayzemby_lizardfolk
				size = 20304
			}
		}
	}
	s:STATE_DRONGORONSI = {
		region_state:L55 = {
			create_pop = {
				culture = fomarati_halfling
				size = 1162416
				religion = nakavy_avo
			}
			create_pop = {
				culture = itayzemby_lizardfolk
				size = 350948
			}
			create_pop = {
				culture = mboala_halfling
				size = 74636
			}
		}
	}
	s:STATE_SISINYUYE = {
		region_state:L56 = {
			create_pop = {
				culture = mboala_halfling
				size = 1256088
			}
			create_pop = {
				culture = itayzemby_lizardfolk
				size = 335912
			}
		}
	}
	s:STATE_TVARASTAMANOSY = {
		region_state:L57 = {
			create_pop = {
				culture = mazava_halfling
				size = 1576125
			}
			create_pop = {
				culture = mazava_halfling
				size = 527710
				religion = nakavy_avo
			}
			create_pop = {
				culture = itayzemby_lizardfolk
				size = 231165
			}
		}
	}
	s:STATE_TERAMZADAI = {
		region_state:L57 = {
			create_pop = {
				culture = mazava_halfling
				size = 1430554
			}
			create_pop = {
				culture = itayzemby_lizardfolk
				size = 1014622
			}
			create_pop = {
				culture = mazava_halfling
				size = 705824
				religion = nakavy_avo
			}
		}
	}
	s:STATE_SIL_BERKHENS_LAND = {
		region_state:A09 = {
			create_pop = {
				culture = zohebidi_halfling
				size = 440829
			}
			create_pop = {
				culture = zohebidi_halfling
				size = 77694
				religion = ravelian
			}
			create_pop = {
				culture = busilari
				size = 44477
			}
		}
	}
	s:STATE_ZANGALAND = {
		region_state:A09 = {
			create_pop = {
				culture = binwarji
				size = 1024300
				religion = fangaulan_pantheon
			}
			create_pop = {
				culture = binwarji
				size = 1559700
			}
			create_pop = {
				culture = busilari
				size = 258400
			}
			create_pop = {
				culture = mukkaron
				size = 258400
			}
			create_pop = {
				culture = taafi
				size = 64600
			}
			create_pop = {
				culture = amezatany_halfling
				size = 64600
				religion = fangaulan_pantheon
			}
		}
		region_state:L58 = {
			create_pop = {
				culture = taafi
				size = 707200
			}
			create_pop = {
				culture = mukkaron
				size = 83200
			}
			create_pop = {
				culture = windhowler_gnoll
				size = 41600
				religion = fangaulan_pantheon
			}
		}
	}
	s:STATE_JANAMA = {
		region_state:A09 = {
			create_pop = {
				culture = binwarji
				size = 508860
				religion = fangaulan_pantheon
			}
			create_pop = {
				culture = tamajoba
				size = 208200
				religion = fangaulan_pantheon
			}
			create_pop = {
				culture = binwarji
				size = 585250
			}
			create_pop = {
				culture = tamajoba
				size = 56230
			}
			create_pop = {
				culture = busilari
				size = 92460
			}
		}
		region_state:L63 = {
			create_pop = {
				culture = tamajoba
				size = 494000
				religion = ravelian
			}
		}
	}
	s:STATE_GEMTREE = {
		region_state:A09 = {
			create_pop = {
				culture = busilari
				size = 115500
			}
			create_pop = {
				culture = kaino
				size = 184800
			}
			create_pop = {
				culture = jiromji
				size = 46200
				religion = ravelian
			}
			create_pop = {
				culture = jiromji
				size = 23100
			}
			create_pop = {
				culture = tamajoba
				size = 23100
			}
			create_pop = {
				culture = moorman
				size = 23100
				religion = regent_court
			}
			create_pop = {
				culture = binwarji
				size = 36960
			}
			create_pop = {
				culture = taafi
				size = 9240
			}
		}
		region_state:A03 = {
			create_pop = {
				culture = lorentish
				size = 12600
			}
			create_pop = {
				culture = tamajoba
				size = 21000
				religion = fangaulan_pantheon
			}
			create_pop = {
				culture = jiromji
				size = 46200
			}
			create_pop = {
				culture = amezatany_halfling
				size = 4200
			}
		}
		region_state:A04 = {
			create_pop = {
				culture = jiromji
				size = 31800
			}
			create_pop = {
				culture = gawedi
				size = 7950
			}
			create_pop = {
				culture = city_goblin
				size = 13250
			}
		}
		region_state:L59 = {
			create_pop = {
				culture = kaino
				size = 126900
			}
			create_pop = {
				culture = tamajoba
				size = 14100
				religion = fangaulan_pantheon
			}
		}
	}
	s:STATE_GARPIX_GOXMA = {
		region_state:L13 = {
			create_pop = {
				culture = windhowler_gnoll
				size = 412300
			}
			create_pop = {
				culture = mukkaron
				size = 176700
			}
		}
		region_state:L67 = {
			create_pop = {
				culture = binwarji
				size = 288600
			}
			create_pop = {
				culture = amezatany_halfling
				size = 111000
				religion = fangaulan_pantheon
			}
			create_pop = {
				culture = windhowler_gnoll
				size = 44400
				religion = jinnisadda
			}
		}
	}
	s:STATE_ZIKAAZ = {
		region_state:L13 = {
			create_pop = {
				culture = windhowler_gnoll
				size = 571800
			}
			create_pop = {
				culture = windhowler_gnoll
				size = 95300
				religion = kvangahga
			}
			create_pop = {
				culture = mukkaron
				size = 95300
			}
			create_pop = {
				culture = ndurubu
				size = 190600
				religion = fangaulan_pantheon
			}
		}
	}
	s:STATE_FANGHASBA = {
		region_state:L13 = {
			create_pop = {
				culture = windhowler_gnoll
				size = 531600
			}
			create_pop = {
				culture = windhowler_gnoll
				size = 177200
				religion = kvangahga
			}
			create_pop = {
				culture = mantimatu
				size = 88600
			}
			create_pop = {
				culture = ndurubu
				size = 88600
				religion = fangaulan_pantheon
			}
		}
	}
	s:STATE_JANFANCISO = {
		region_state:L65 = {
			create_pop = {
				culture = kaino
				size = 1242600
			}
			create_pop = {
				culture = ndurubu
				size = 621300
			}
			create_pop = {
				culture = ndurubu
				size = 207100
				religion = fangaulan_pantheon
			}
		}
	}
	s:STATE_WARABANI = {
		region_state:L66 = {
			create_pop = {
				culture = ndurubu
				size = 1383200
			}
			create_pop = {
				culture = ndurubu
				size = 494000
				religion = fangaulan_pantheon
			}
			create_pop = {
				culture = taafi
				size = 98800
			}
		}
		region_state:L24 = {
			create_pop = {
				culture = tamajoba
				size = 985500
			}
			create_pop = {
				culture = ndurubu
				size = 766500
			}
			create_pop = {
				culture = ndurubu
				size = 219000
				religion = fangaulan_pantheon
			}
			create_pop = {
				culture = tamajoba
				size = 109500
				religion = fangaulan_pantheon
			}
			create_pop = {
				culture = taafi
				size = 109500
			}
		}
	}
	s:STATE_AZZIZA_TU = {
		region_state:L65 = {
			create_pop = {
				culture = kaino
				size = 754200
			}
			create_pop = {
				culture = tamajoba
				size = 83800
			}
		}
		region_state:L62 = {
			create_pop = {
				culture = jiromji
				size = 132000
			}
			create_pop = {
				culture = tamajoba
				size = 26400
				religion = fangaulan_pantheon
			}
			create_pop = {
				culture = shyashkay_lizardfolk
				size = 17600
				religion = fangaulan_pantheon
			}
		}
	}
	s:STATE_NEGETU = {
		region_state:L65 = {
			create_pop = {
				culture = kaino
				size = 1200550
			}
			create_pop = {
				culture = tamajoba
				size = 461750
			}
			create_pop = {
				culture = tamajoba
				size = 92350
				religion = fangaulan_pantheon
			}
			create_pop = {
				culture = tamajoba
				size = 92350
				 religion = jinnisadda
			}
		}
		region_state:L64 = {
			create_pop = {
				culture = jiromji
				size = 229800
			}
			create_pop = {
				culture = kaino
				size = 153200
			}
		}
	}
	s:STATE_ASANBOSAM_TU = {
		region_state:L60 = {
			create_pop = {
				culture = jiromji
				size = 252400
			}
			create_pop = {
				culture = pearlsedger
				size = 126200
			}
			create_pop = {
				culture = cliff_gnome
				size = 31550
			}
			create_pop = {
				culture = tamajoba
				size = 220850
			}
		}
		region_state:L62 = {
			create_pop = {
				culture = jiromji
				size = 72000
			}
		}
		region_state:A07 = {
			create_pop = {
				culture = shyashkay_lizardfolk
				size = 28800
				religion = fangaulan_pantheon
			}
			create_pop = {
				culture = reverian
				size = 9600
			}
			create_pop = {
				culture = reverian
				size = 6400
				religion =  the_thought
			}
			create_pop = {
				culture = cliff_gnome
				size = 6400
			}
			create_pop = {
				culture = jiromji
				size = 12800
			}
		}
		region_state:A01 = {
			create_pop = {
				culture = jiromji
				size = 32800
			}
			create_pop = {
				culture = east_damerian
				size = 2050
			}
			create_pop = {
				culture = lonanofi_halfling
				size = 6150
			}
		}
		
	}
	s:STATE_MARID_DELTA = {
		region_state:L61 = {
			create_pop = {
				culture = jiromji
				size = 648550
			}
			create_pop = {
				culture = lonanofi_halfling
				size = 370600
			}
			create_pop = {
				culture = vernman
				size = 222360
			}
			create_pop = {
				culture = tamajoba
				size = 92650
			}
			create_pop = {
				culture = arraskay_lizardfolk
				size = 92650
			}
			create_pop = {
				culture = shyashkay_lizardfolk
				size = 426190
				religion = fangaulan_pantheon
			}
		}
		region_state:L64 = {
			create_pop = {
				culture = jiromji
				size = 190400
			}
			create_pop = {
				culture = lonanofi_halfling
				size = 11900
			}
			create_pop = {
				culture = shyashkay_lizardfolk
				size = 35700
				religion = fangaulan_pantheon
			}
		}
	}
	s:STATE_WANDERERS_ISLES = {
		region_state:A09 = {
			create_pop = {
				culture = busilari
				size = 16000
			}
		}
		region_state:A03 = {
			create_pop = {
				culture = lorentish
				size = 21000
			}
		}
	}
}